["2 VINTAGE",
"2 VINTAGE",
"4U",
"4U",
"4U",
"4U",
"4U",
"4U",
"4U",
"4U",
"4U",
"4U",
"4U",
"4U",
"4U",
"4U",
"4U",
"4U",
"4U",
"4U",
"4U",
"4U",
"4U",
"4U",
"4U",
"4U",
"4U",
"4U",
"4U",
"4U",
"4U",
"4U",
"4U",
"4U",
"4U",
"4U",
"4U",
"4U",
"4U",
"4U",
"4U",
"4U",
"4U",
"4U",
"4U",
"4U",
"4U",
"4U",
"4U",
"4U",
"4U",
"7Gift Shop",
"7Gift Shop",
"7Gift Shop",
"7Gift Shop",
"7Gift Shop",
"7Gift Shop",
"7Gift Shop",
"7Gift Shop",
"7Gift Shop",
"7Gift Shop",
"7Gift Shop",
"8848",
"8848",
"8848",
"8848",
"A 100+",
"A 100+",
"A 100+",
"A 100+",
"A 100+",
"A 100+",
"A 100+",
"A 100+",
"A 100+",
"A 100+",
"A 100+",
"A 100+",
"A 100+",
"A 100+",
"A 100+",
"A 100+",
"A 2 Basic",
"ADEP",
"ADEP",
"ADEP",
"ADEP",
"ADEP",
"ADEP",
"ADEP",
"ADEP",
"ALAMODE PARIS",
"ALAMODE PARIS",
"ALAMODE PARIS",
"ALAMODE PARIS",
"ALAMODE PARIS",
"ALAMODE PARIS",
"ALAMODE PARIS",
"ALAMODE PARIS",
"ALAMODE PARIS",
"ALAMODE PARIS",
"ALAMODE PARIS",
"Ali Chien Chien",
"Ali Chien Chien",
"Ali Chien Chien",
"Ali Chien Chien",
"Ali Chien Chien",
"Antsir",
"Anh tuan shop",
"Anh tuan shop",
"Anh tuan shop",
"Anh tuan shop",
"Anh tuan shop",
"Anh tuan shop",
"Anh tuan shop",
"Anh tuan shop",
"Anh tuan shop",
"Anh tuan shop",
"Anh tuan shop",
"Anh tuan shop",
"Anh tuan shop",
"Anh tuan shop",
"Anh tuan shop",
"Anh tuan shop",
"Anh tuan shop",
"Anh tuan shop",
"Anh tuan shop",
"Anh tuan shop",
"Anh tuan shop",
"Anh tuan shop",
"Anh tuan shop",
"Anh tuan shop",
"Anh tuan shop",
"Anh tuan shop",
"Anh tuan shop",
"Anh tuan shop",
"Anh tuan shop",
"Anh tuan shop",
"Anh tuan shop",
"Anh tuan shop",
"Anh tuan shop",
"Anh tuan shop",
"Anh tuan shop",
"Anh tuan shop",
"Anh tuan shop",
"Anh tuan shop",
"Anh tuan shop",
"Anh tuan shop",
"Anh tuan shop",
"Anh tuan shop",
"Anh tuan shop",
"Anh tuan shop",
"Anh tuan shop",
"Anh tuan shop",
"Anh tuan shop",
"Anh tuan shop",
"Anh tuan shop",
"Anh tuan shop",
"Anh tuan shop",
"Anh tuan shop",
"Anh tuan shop",
"Anh tuan shop",
"Anh tuan shop",
"Anh tuan shop",
"Anh tuan shop",
"Anh tuan shop",
"Anh tuan shop",
"Anh tuan shop",
"Anh tuan shop",
"Anh tuan shop",
"Anh tuan shop",
"Anh tuan shop",
"Anh tuan shop",
"Anh tuan shop",
"Anh tuan shop",
"Anh tuan shop",
"Anh tuan shop",
"Anh tuan shop",
"Anh tuan shop",
"Anh tuan shop",
"Anh tuan shop",
"Anh tuan shop",
"Anh tuan shop",
"Anh tuan shop",
"Anh tuan shop",
"Anh tuan shop",
"Anh tuan shop",
"Anh tuan shop",
"Anh tuan shop",
"Anh tuan shop",
"Anh tuan shop",
"Anh tuan shop",
"Anh tuan shop",
"Anh tuan shop",
"Anh tuan shop",
"Anh tuan shop",
"Anh tuan shop",
"Anh tuan shop",
"Anh tuan shop",
"Anh tuan shop",
"Anh tuan shop",
"Anh tuan shop",
"Anh tuan shop",
"Anh tuan shop",
"Anh tuan shop",
"Anh tuan shop",
"Anh tuan shop",
"Anh tuan shop",
"Anh tuan shop",
"Anh tuan shop",
"Anh tuan shop",
"Anh tuan shop",
"Anh tuan shop",
"Anh tuan shop",
"Anh tuan shop",
"Anh tuan shop",
"Anh tuan shop",
"Anh tuan shop",
"Anh tuan shop",
"Anh tuan shop",
"Anh tuan shop",
"Anh tuan shop",
"Anh tuan shop",
"Anh tuan shop",
"Anh tuan shop",
"Anh tuan shop",
"Anh tuan shop",
"Anh tuan shop",
"Anh tuan shop",
"Anh tuan shop",
"Anh tuan shop",
"Anh tuan shop",
"Anh tuan shop",
"Anh tuan shop",
"Anh tuan shop",
"Anh tuan shop",
"Anh tuan shop",
"Anh tuan shop",
"Anh tuan shop",
"Anh tuan shop",
"Anh tuan shop",
"Anh tuan shop",
"Anh tuan shop",
"Anh tuan shop",
"Anh tuan shop",
"Anh tuan shop",
"Anh tuan shop",
"Anh tuan shop",
"Anh tuan shop",
"Anh tuan shop",
"Anh tuan shop",
"Anh tuan shop",
"Anh tuan shop",
"Anh tuan shop",
"Anh tuan shop",
"Anh tuan shop",
"Anh tuan shop",
"Anh tuan shop",
"Anh tuan shop",
"Anh tuan shop",
"Anh tuan shop",
"Anh tuan shop",
"Anh tuan shop",
"Anh tuan shop",
"Anh tuan shop",
"Anh tuan shop",
"Anh tuan shop",
"Anh tuan shop",
"Anh tuan shop",
"Anh tuan shop",
"Anh tuan shop",
"Anh tuan shop",
"Anh tuan shop",
"Anh tuan shop",
"Anh tuan shop",
"Anh tuan shop",
"Anh tuan shop",
"Anh tuan shop",
"Anh tuan shop",
"Anh tuan shop",
"Anh tuan shop",
"Anh tuan shop",
"Anh tuan shop",
"Anh tuan shop",
"Anh tuan shop",
"Anh tuan shop",
"Anh tuan shop",
"Anh tuan shop",
"Anh tuan shop",
"Anh tuan shop",
"Anh tuan shop",
"Anh tuan shop",
"Anh tuan shop",
"Anh tuan shop",
"Anh tuan shop",
"Anh tuan shop",
"Anh tuan shop",
"Anh tuan shop",
"Anh tuan shop",
"Anh tuan shop",
"Anh tuan shop",
"Anh tuan shop",
"Anh tuan shop",
"Anh tuan shop",
"Anh tuan shop",
"Anh tuan shop",
"Anh tuan shop",
"Anh tuan shop",
"Anh tuan shop",
"Anh tuan shop",
"Anh tuan shop",
"Anh tuan shop",
"Anh tuan shop",
"Anh tuan shop",
"Anh tuan shop",
"Anh tuan shop",
"Anh tuan shop",
"Anh tuan shop",
"Anh tuan shop",
"Anh tuan shop",
"Anh tuan shop",
"Anh tuan shop",
"Anh tuan shop",
"Anh tuan shop",
"Anh tuan shop",
"Anh tuan shop",
"Anh tuan shop",
"Anh tuan shop",
"Anh tuan shop",
"Anh tuan shop",
"Anh tuan shop",
"Anh tuan shop",
"Anh tuan shop",
"Anh tuan shop",
"Anh tuan shop",
"Anh tuan shop",
"Anh tuan shop",
"Anh tuan shop",
"Anh tuan shop",
"Anh tuan shop",
"Anh tuan shop",
"Anh tuan shop",
"Anh tuan shop",
"Anh tuan shop",
"Anh tuan shop",
"Anh tuan shop",
"Anh tuan shop",
"Anh tuan shop",
"Anh tuan shop",
"Anh tuan shop",
"Anh tuan shop",
"Anh tuan shop",
"Anh tuan shop",
"Anh tuan shop",
"Anh tuan shop",
"Anh tuan shop",
"Anh tuan shop",
"Anh tuan shop",
"Anh tuan shop",
"Anh tuan shop",
"Anh tuan shop",
"Anh tuan shop",
"Anh tuan shop",
"Anh tuan shop",
"Anh tuan shop",
"Anh tuan shop",
"Anh tuan shop",
"Anh tuan shop",
"Anh tuan shop",
"Anh tuan shop",
"Anh tuan shop",
"Anh tuan shop",
"Anh tuan shop",
"Anh tuan shop",
"Anh tuan shop",
"Anh tuan shop",
"Anh tuan shop",
"Anh tuan shop",
"Anh tuan shop",
"Anh tuan shop",
"Anh tuan shop",
"Anh tuan shop",
"Anh tuan shop",
"Anh tuan shop",
"Anh tuan shop",
"Anh tuan shop",
"Anh tuan shop",
"Anh tuan shop",
"Anh tuan shop",
"Anh tuan shop",
"Anh tuan shop",
"Anh tuan shop",
"Anh tuan shop",
"Anh tuan shop",
"Anh tuan shop",
"Anh tuan shop",
"Anh tuan shop",
"Anh tuan shop",
"Anh tuan shop",
"Anh tuan shop",
"Anh tuan shop",
"Anh tuan shop",
"Anh tuan shop",
"Anh tuan shop",
"Anh tuan shop",
"Anh tuan shop",
"Anh tuan shop",
"Anh tuan shop",
"Anh tuan shop",
"Anh tuan shop",
"Anh tuan shop",
"Anh tuan shop",
"Anh tuan shop",
"Anh tuan shop",
"Anh tuan shop",
"Anh tuan shop",
"Anh tuan shop",
"Anh tuan shop",
"Anh tuan shop",
"Anh tuan shop",
"Anh tuan shop",
"Anh tuan shop",
"Anh tuan shop",
"Anh tuan shop",
"Anh tuan shop",
"Anh tuan shop",
"Anh tuan shop",
"Anh tuan shop",
"Anh tuan shop",
"Anh tuan shop",
"Anh tuan shop",
"Anh tuan shop",
"Anh tuan shop",
"Anh tuan shop",
"Anh tuan shop",
"Anh tuan shop",
"Anh tuan shop",
"Anh tuan shop",
"Anh tuan shop",
"Anh tuan shop",
"Anh tuan shop",
"Anh tuan shop",
"Anh tuan shop",
"Anh tuan shop",
"Anh tuan shop",
"Anh tuan shop",
"Anh tuan shop",
"Anh tuan shop",
"Anh tuan shop",
"Anh tuan shop",
"Anh tuan shop",
"Anh tuan shop",
"Anh tuan shop",
"Anh tuan shop",
"Anh tuan shop",
"Anh tuan shop",
"Anh tuan shop",
"Anh tuan shop",
"Anh tuan shop",
"Anh tuan shop",
"Anh tuan shop",
"Anh tuan shop",
"Anh tuan shop",
"Anh tuan shop",
"Anh tuan shop",
"Anh tuan shop",
"Anh tuan shop",
"Anh tuan shop",
"Anh tuan shop",
"Anh tuan shop",
"Anh tuan shop",
"Anh tuan shop",
"Anh tuan shop",
"Anh tuan shop",
"Anh tuan shop",
"Anh tuan shop",
"Anh tuan shop",
"Anh tuan shop",
"Anh tuan shop",
"Anh tuan shop",
"Anh tuan shop",
"Anh tuan shop",
"Anh tuan shop",
"Anh tuan shop",
"Anh tuan shop",
"Anh tuan shop",
"Anh tuan shop",
"Anh tuan shop",
"Anh tuan shop",
"Anh tuan shop",
"Anh tuan shop",
"Anh tuan shop",
"Anh tuan shop",
"Anh tuan shop",
"Anh tuan shop",
"Anh tuan shop",
"Anh tuan shop",
"Anh tuan shop",
"Anh tuan shop",
"Anh tuan shop",
"Anh tuan shop",
"Anh tuan shop",
"Anh tuan shop",
"Anh tuan shop",
"Anh tuan shop",
"Anh tuan shop",
"Anh tuan shop",
"Anh tuan shop",
"Anh tuan shop",
"Anh tuan shop",
"Anh tuan shop",
"Anh tuan shop",
"Anh tuan shop",
"Anh tuan shop",
"Anh tuan shop",
"Anh tuan shop",
"Anh tuan shop",
"Anh tuan shop",
"Anh tuan shop",
"Anh tuan shop",
"Anh tuan shop",
"Anh tuan shop",
"Anh tuan shop",
"Anh tuan shop",
"Anh tuan shop",
"Anh tuan shop",
"Anh tuan shop",
"Anh tuan shop",
"Anh tuan shop",
"Anh tuan shop",
"Anh tuan shop",
"Anh tuan shop",
"Anh tuan shop",
"Anh tuan shop",
"Anh tuan shop",
"Anh tuan shop",
"Anh tuan shop",
"Anh tuan shop",
"Anh tuan shop",
"Anh tuan shop",
"Anh tuan shop",
"Anh tuan shop",
"Anh tuan shop",
"Anh tuan shop",
"Anh tuan shop",
"Anh tuan shop",
"Anh tuan shop",
"Anh tuan shop",
"Anh tuan shop",
"Anh tuan shop",
"Anh tuan shop",
"Anh tuan shop",
"Anh tuan shop",
"Anh tuan shop",
"Anh tuan shop",
"Anh tuan shop",
"Anh tuan shop",
"Anh tuan shop",
"Anh tuan shop",
"Anh tuan shop",
"Anh tuan shop",
"Anh tuan shop",
"Anh tuan shop",
"Anh tuan shop",
"Anh tuan shop",
"Anh tuan shop",
"Anh tuan shop",
"Anh tuan shop",
"Anh tuan shop",
"Anh tuan shop",
"Anh tuan shop",
"Anh tuan shop",
"Anh tuan shop",
"Anh tuan shop",
"Anh tuan shop",
"Anh tuan shop",
"Anh tuan shop",
"Anh tuan shop",
"Anh tuan shop",
"Anh tuan shop",
"Anh tuan shop",
"Anh tuan shop",
"Anh tuan shop",
"Anh tuan shop",
"Anh tuan shop",
"Anh tuan shop",
"Anh tuan shop",
"Anh tuan shop",
"Anh tuan shop",
"Anh tuan shop",
"Anh tuan shop",
"Anh tuan shop",
"Anh tuan shop",
"Anh tuan shop",
"Anh tuan shop",
"Anh tuan shop",
"Anh tuan shop",
"Anh tuan shop",
"Anh tuan shop",
"Anh tuan shop",
"Anh tuan shop",
"Anh tuan shop",
"Anh tuan shop",
"Anh tuan shop",
"Anh tuan shop",
"Anh tuan shop",
"Anh tuan shop",
"Anh tuan shop",
"Anh tuan shop",
"Anh tuan shop",
"Anh tuan shop",
"Anh tuan shop",
"Anh tuan shop",
"Anh tuan shop",
"Anh tuan shop",
"Anh tuan shop",
"Anh tuan shop",
"Anh tuan shop",
"Anh tuan shop",
"Anh tuan shop",
"Anh tuan shop",
"Anh tuan shop",
"Anh tuan shop",
"Anh tuan shop",
"Anh tuan shop",
"Anh tuan shop",
"Anh tuan shop",
"Anh tuan shop",
"Anh tuan shop",
"Anh tuan shop",
"Anh tuan shop",
"Anh tuan shop",
"Anh tuan shop",
"Anh tuan shop",
"Anh tuan shop",
"Anh tuan shop",
"Anh tuan shop",
"Anh tuan shop",
"Anh tuan shop",
"Anh tuan shop",
"Anh tuan shop",
"Anh tuan shop",
"Anh tuan shop",
"Anh tuan shop",
"Anh tuan shop",
"Anh tuan shop",
"Anh tuan shop",
"Anh tuan shop",
"Anh tuan shop",
"Anh tuan shop",
"Anh tuan shop",
"Anh tuan shop",
"Anh tuan shop",
"Anh tuan shop",
"Anh tuan shop",
"Anh tuan shop",
"Anh tuan shop",
"Anh tuan shop",
"Anh tuan shop",
"Anh tuan shop",
"Anh tuan shop",
"Anh tuan shop",
"Anh tuan shop",
"Anh tuan shop",
"Anh tuan shop",
"Anh tuan shop",
"Anh tuan shop",
"Anh tuan shop",
"Anh tuan shop",
"Anh tuan shop",
"Anh tuan shop",
"Anh tuan shop",
"Anh tuan shop",
"Anh tuan shop",
"Anh tuan shop",
"Anh tuan shop",
"Anh tuan shop",
"Anh tuan shop",
"Anh tuan shop",
"Anh tuan shop",
"Anh tuan shop",
"Anh tuan shop",
"Anh tuan shop",
"Anh tuan shop",
"Anh tuan shop",
"Anh tuan shop",
"Anh tuan shop",
"Anh tuan shop",
"Anh tuan shop",
"Anh tuan shop",
"Anh tuan shop",
"Anh tuan shop",
"Anh tuan shop",
"Anh tuan shop",
"Anh tuan shop",
"Anh tuan shop",
"Anh tuan shop",
"Anh tuan shop",
"Anh tuan shop",
"Anh tuan shop",
"Anh tuan shop",
"Anh tuan shop",
"Anh tuan shop",
"Anh tuan shop",
"Anh tuan shop",
"Anh tuan shop",
"Anh tuan shop",
"Anh tuan shop",
"Anh tuan shop",
"Anh tuan shop",
"Anh tuan shop",
"Anh tuan shop",
"Anh tuan shop",
"Anh tuan shop",
"Anh tuan shop",
"Anh tuan shop",
"Anh tuan shop",
"Anh tuan shop",
"Anh tuan shop",
"Anh tuan shop",
"Anh tuan shop",
"Anh tuan shop",
"Anh tuan shop",
"Anh tuan shop",
"Anh tuan shop",
"Anh tuan shop",
"Anh tuan shop",
"Anh tuan shop",
"Anh tuan shop",
"Anh tuan shop",
"Anh tuan shop",
"Anh tuan shop",
"Anh tuan shop",
"Anh tuan shop",
"Anh tuan shop",
"Anh tuan shop",
"Anh tuan shop",
"Anh tuan shop",
"Anh tuan shop",
"Anh tuan shop",
"Anh tuan shop",
"Anh tuan shop",
"Anh tuan shop",
"Anh tuan shop",
"Anh tuan shop",
"Anh tuan shop",
"Anh tuan shop",
"Anh tuan shop",
"Anh tuan shop",
"Anh tuan shop",
"Anh tuan shop",
"Anh tuan shop",
"Anh tuan shop",
"Anh tuan shop",
"Anh tuan shop",
"Anh tuan shop",
"Anh tuan shop",
"Anh tuan shop",
"Anh tuan shop",
"Anh tuan shop",
"Anh tuan shop",
"Anh tuan shop",
"Anh tuan shop",
"Anh tuan shop",
"Anh tuan shop",
"Anh tuan shop",
"Anh tuan shop",
"Anh tuan shop",
"Anh tuan shop",
"Anh tuan shop",
"Anh tuan shop",
"Anh tuan shop",
"Anh tuan shop",
"Anh tuan shop",
"Anh tuan shop",
"Anh tuan shop",
"Anh tuan shop",
"Anh tuan shop",
"Anh tuan shop",
"Anh tuan shop",
"Anh tuan shop",
"Anh tuan shop",
"Anh tuan shop",
"Anh tuan shop",
"Anh tuan shop",
"Anh tuan shop",
"Anh tuan shop",
"Anh tuan shop",
"Anh tuan shop",
"Anh tuan shop",
"Anh tuan shop",
"Anh tuan shop",
"Anh tuan shop",
"Anh tuan shop",
"Anh tuan shop",
"Anh tuan shop",
"Anh tuan shop",
"Anh tuan shop",
"Anh tuan shop",
"Anh tuan shop",
"Anh tuan shop",
"Anh tuan shop",
"Anh tuan shop",
"Anh tuan shop",
"Anh tuan shop",
"Anh tuan shop",
"Anh tuan shop",
"Anh tuan shop",
"Anh tuan shop",
"Anh tuan shop",
"Anh tuan shop",
"Anh tuan shop",
"Anh tuan shop",
"Anh tuan shop",
"Anh tuan shop",
"Anh tuan shop",
"Anh tuan shop",
"Anh tuan shop",
"Anh tuan shop",
"Anh tuan shop",
"Anh tuan shop",
"Anh tuan shop",
"Anh tuan shop",
"Anh tuan shop",
"Anh tuan shop",
"Anh tuan shop",
"Anh tuan shop",
"Anh tuan shop",
"Anh tuan shop",
"Anh tuan shop",
"Anh tuan shop",
"Anh tuan shop",
"Anh tuan shop",
"Anh tuan shop",
"Anh tuan shop",
"Anh tuan shop",
"Anh tuan shop",
"Anh tuan shop",
"Anh tuan shop",
"Anh tuan shop",
"Anh tuan shop",
"Anh tuan shop",
"Anh tuan shop",
"Anh tuan shop",
"Anh tuan shop",
"Anh tuan shop",
"Anh tuan shop",
"Anh tuan shop",
"Anh tuan shop",
"Anh tuan shop",
"Anh tuan shop",
"Anh tuan shop",
"Anh tuan shop",
"Anh tuan shop",
"Anh tuan shop",
"Anh tuan shop",
"Anh tuan shop",
"Anh tuan shop",
"Anh tuan shop",
"Anh tuan shop",
"Anh tuan shop",
"Anh tuan shop",
"Anh tuan shop",
"Anh tuan shop",
"Anh tuan shop",
"Anh tuan shop",
"Anh tuan shop",
"Anh tuan shop",
"Anh tuan shop",
"Anh tuan shop",
"Anh tuan shop",
"Anh tuan shop",
"Anh tuan shop",
"Anh tuan shop",
"Anh tuan shop",
"Anh tuan shop",
"Anh tuan shop",
"Anh tuan shop",
"Anh tuan shop",
"Anh tuan shop",
"Anh tuan shop",
"Anh tuan shop",
"Anh tuan shop",
"Anh tuan shop",
"Anh tuan shop",
"Anh tuan shop",
"Anh tuan shop",
"Anh tuan shop",
"Anh tuan shop",
"Anh tuan shop",
"Anh tuan shop",
"Anh tuan shop",
"Anh tuan shop",
"Anh tuan shop",
"Anh tuan shop",
"Anh tuan shop",
"Anh tuan shop",
"Anh tuan shop",
"Anh tuan shop",
"Anh tuan shop",
"Anh tuan shop",
"Anh tuan shop",
"Anh tuan shop",
"Anh tuan shop",
"Anh tuan shop",
"Anh tuan shop",
"Anh tuan shop",
"Anh tuan shop",
"Anh tuan shop",
"Anh tuan shop",
"Anh tuan shop",
"Anh tuan shop",
"Anh tuan shop",
"Anh tuan shop",
"Anh tuan shop",
"Anh tuan shop",
"Anh tuan shop",
"Anh tuan shop",
"Anh tuan shop",
"Anh tuan shop",
"Anh tuan shop",
"Anh tuan shop",
"Anh tuan shop",
"Anh tuan shop",
"Anh tuan shop",
"Anh tuan shop",
"Anh tuan shop",
"Anh tuan shop",
"Anh tuan shop",
"Anh tuan shop",
"Anh tuan shop",
"Anh tuan shop",
"Anh tuan shop",
"Anh tuan shop",
"Anh tuan shop",
"Anh tuan shop",
"Anh tuan shop",
"Anh tuan shop",
"Anh tuan shop",
"Anh tuan shop",
"Anh tuan shop",
"Anh tuan shop",
"Anh tuan shop",
"Anh tuan shop",
"Anh tuan shop",
"Anh tuan shop",
"Anh tuan shop",
"Anh tuan shop",
"Anh tuan shop",
"Anh tuan shop",
"Anh tuan shop",
"Anh tuan shop",
"Anh tuan shop",
"Anh tuan shop",
"Anh tuan shop",
"Anh tuan shop",
"Anh tuan shop",
"Anh tuan shop",
"Anh tuan shop",
"Anh tuan shop",
"Anh tuan shop",
"Anh tuan shop",
"Anh tuan shop",
"Anh tuan shop",
"Anh tuan shop",
"Anh tuan shop",
"Anh tuan shop",
"Anh tuan shop",
"Anh tuan shop",
"Anh tuan shop",
"Anh tuan shop",
"Anh tuan shop",
"Anh tuan shop",
"Anh tuan shop",
"Anh tuan shop",
"Anh tuan shop",
"Anh tuan shop",
"Anh tuan shop",
"Anh tuan shop",
"Anh tuan shop",
"Anh tuan shop",
"Anh tuan shop",
"Anh tuan shop",
"Anh tuan shop",
"Anh tuan shop",
"Anh tuan shop",
"Anh tuan shop",
"Anh tuan shop",
"Anh tuan shop",
"Anh tuan shop",
"Anh tuan shop",
"Anh tuan shop",
"Anh tuan shop",
"Anh tuan shop",
"Anh tuan shop",
"Anh tuan shop",
"Anh tuan shop",
"Anh tuan shop",
"Anh tuan shop",
"Anh tuan shop",
"Anh tuan shop",
"Anh tuan shop",
"Anh tuan shop",
"Anh tuan shop",
"Anh tuan shop",
"Anh tuan shop",
"Anh tuan shop",
"Anh tuan shop",
"Anh tuan shop",
"Anh tuan shop",
"Anh tuan shop",
"Anh tuan shop",
"Anh tuan shop",
"Anh tuan shop",
"Anh tuan shop",
"Anh tuan shop",
"Anh tuan shop",
"Anh tuan shop",
"Anh tuan shop",
"Anh tuan shop",
"Anh tuan shop",
"Anh tuan shop",
"Anh tuan shop",
"Anh tuan shop",
"Anh tuan shop",
"Anh tuan shop",
"Anh tuan shop",
"Anh tuan shop",
"Anh tuan shop",
"Anh tuan shop",
"Anh tuan shop",
"Anh tuan shop",
"Anh tuan shop",
"Anh tuan shop",
"Anh tuan shop",
"Anh tuan shop",
"Anh tuan shop",
"Anh tuan shop",
"Anh tuan shop",
"Anh tuan shop",
"Anh tuan shop",
"Anh tuan shop",
"Anh tuan shop",
"Anh tuan shop",
"Anh tuan shop",
"Anh tuan shop",
"Anh tuan shop",
"Anh tuan shop",
"Anh tuan shop",
"Anh tuan shop",
"Anh tuan shop",
"Anh tuan shop",
"Anh tuan shop",
"Anh tuan shop",
"Anh tuan shop",
"Anh tuan shop",
"Anh tuan shop",
"Anh tuan shop",
"Anh tuan shop",
"Anh tuan shop",
"Anh tuan shop",
"Anh tuan shop",
"Anh tuan shop",
"Anh tuan shop",
"Anh tuan shop",
"Anh tuan shop",
"Anh tuan shop",
"Anh tuan shop",
"Anh tuan shop",
"Anh tuan shop",
"Anh tuan shop",
"Anh tuan shop",
"Anh tuan shop",
"Anh tuan shop",
"Anh tuan shop",
"Anh tuan shop",
"Anh tuan shop",
"Anh tuan shop",
"Anh tuan shop",
"Anh tuan shop",
"Anh tuan shop",
"Anh tuan shop",
"Anh tuan shop",
"Anh tuan shop",
"Anh tuan shop",
"Anh tuan shop",
"Anh tuan shop",
"Anh tuan shop",
"Anh tuan shop",
"Anh tuan shop",
"Anh tuan shop",
"Anh tuan shop",
"Anh tuan shop",
"Anh tuan shop",
"Anh tuan shop",
"Anh tuan shop",
"Anh tuan shop",
"Anh tuan shop",
"Anh tuan shop",
"Anh tuan shop",
"Anh tuan shop",
"Anh tuan shop",
"Anh tuan shop",
"Anh tuan shop",
"Anh tuan shop",
"Anh tuan shop",
"Anh tuan shop",
"Anh tuan shop",
"Anh tuan shop",
"Anh tuan shop",
"Anh tuan shop",
"Anh tuan shop",
"Anh tuan shop",
"Anh tuan shop",
"Anh tuan shop",
"Anh tuan shop",
"Anh tuan shop",
"Anh tuan shop",
"Anh tuan shop",
"Anh tuan shop",
"Anh tuan shop",
"Anh tuan shop",
"Anh tuan shop",
"Anh tuan shop",
"Anh tuan shop",
"Anh tuan shop",
"Anh tuan shop",
"Anh tuan shop",
"Anh tuan shop",
"Anh tuan shop",
"Anh tuan shop",
"Anh tuan shop",
"Anh tuan shop",
"Anh tuan shop",
"Anh tuan shop",
"Anh tuan shop",
"Anh tuan shop",
"Anh tuan shop",
"Anh tuan shop",
"Anh tuan shop",
"Anh tuan shop",
"Anh tuan shop",
"Anh tuan shop",
"Anh tuan shop",
"Anh tuan shop",
"Anh tuan shop",
"Anh tuan shop",
"Anh tuan shop",
"Anh tuan shop",
"Anh tuan shop",
"Anh tuan shop",
"Anh tuan shop",
"Anh tuan shop",
"Anh tuan shop",
"Anh tuan shop",
"Anh tuan shop",
"Anh tuan shop",
"Anh tuan shop",
"Anh tuan shop",
"Anh tuan shop",
"Anh tuan shop",
"Anh tuan shop",
"Anh tuan shop",
"Anh tuan shop",
"Anh tuan shop",
"Anh tuan shop",
"Anh tuan shop",
"Anh tuan shop",
"Anh tuan shop",
"Anh tuan shop",
"Anh tuan shop",
"Anh tuan shop",
"Anh tuan shop",
"Anh tuan shop",
"Anh tuan shop",
"Anh tuan shop",
"Anh tuan shop",
"Anh tuan shop",
"Anh tuan shop",
"Anh tuan shop",
"Anh tuan shop",
"Anh tuan shop",
"Anh tuan shop",
"Anh tuan shop",
"Anh tuan shop",
"Anh tuan shop",
"Anh tuan shop",
"Anh tuan shop",
"Anh tuan shop",
"Anh tuan shop",
"Anh tuan shop",
"Anh tuan shop",
"Anh tuan shop",
"Anh tuan shop",
"Anh tuan shop",
"Anh tuan shop",
"Anh tuan shop",
"Anh tuan shop",
"Anh tuan shop",
"Anh tuan shop",
"Anh tuan shop",
"Anh tuan shop",
"Anh tuan shop",
"Anh tuan shop",
"Anh tuan shop",
"Anh tuan shop",
"Anh tuan shop",
"Anh tuan shop",
"Anh tuan shop",
"Anh tuan shop",
"Anh tuan shop",
"Anh tuan shop",
"Anh tuan shop",
"Anh tuan shop",
"Anh tuan shop",
"Anh tuan shop",
"Anh tuan shop",
"Anh tuan shop",
"Anh tuan shop",
"Anh tuan shop",
"Anh tuan shop",
"Anh tuan shop",
"Anh tuan shop",
"Anh tuan shop",
"Anh tuan shop",
"Anh tuan shop",
"Anh tuan shop",
"Anh tuan shop",
"Anh tuan shop",
"Anh tuan shop",
"Anh tuan shop",
"Anh tuan shop",
"Anh tuan shop",
"Anh tuan shop",
"Anh tuan shop",
"Anh tuan shop",
"Anh tuan shop",
"Anh tuan shop",
"Anh tuan shop",
"Anh tuan shop",
"Anh tuan shop",
"Anh tuan shop",
"Anh tuan shop",
"Anh tuan shop",
"Anh tuan shop",
"Anh tuan shop",
"Anh tuan shop",
"Anh tuan shop",
"Anh tuan shop",
"Anh tuan shop",
"Anh tuan shop",
"Anh tuan shop",
"Anh tuan shop",
"Anh tuan shop",
"Anh tuan shop",
"Anh tuan shop",
"Anh tuan shop",
"Anh tuan shop",
"Anh tuan shop",
"Anh tuan shop",
"Anh tuan shop",
"Anh tuan shop",
"Anh tuan shop",
"Anh tuan shop",
"Anh tuan shop",
"Anh tuan shop",
"Anh tuan shop",
"Anh tuan shop",
"Anh tuan shop",
"Anh tuan shop",
"Anh tuan shop",
"Anh tuan shop",
"Anh tuan shop",
"Anh tuan shop",
"Anh tuan shop",
"Anh tuan shop",
"Anh tuan shop",
"Anh tuan shop",
"Anh tuan shop",
"Anh tuan shop",
"Anh tuan shop",
"Anh tuan shop",
"Anh tuan shop",
"Anh tuan shop",
"Anh tuan shop",
"Anh tuan shop",
"Anh tuan shop",
"Anh tuan shop",
"Anh tuan shop",
"Anh tuan shop",
"Anh tuan shop",
"Anh tuan shop",
"Anh tuan shop",
"Anh tuan shop",
"Anh tuan shop",
"Anh tuan shop",
"Anh tuan shop",
"Anh tuan shop",
"Anh tuan shop",
"Anh tuan shop",
"Anh tuan shop",
"Anh tuan shop",
"Anh tuan shop",
"Anh tuan shop",
"Anh tuan shop",
"Anh tuan shop",
"Anh tuan shop",
"Anh tuan shop",
"Anh tuan shop",
"Anh tuan shop",
"Anh tuan shop",
"Anh tuan shop",
"Anh tuan shop",
"Anh tuan shop",
"Anh tuan shop",
"Anh tuan shop",
"Anh tuan shop",
"Anh tuan shop",
"Anh tuan shop",
"Anh tuan shop",
"Anh tuan shop",
"Anh tuan shop",
"Anh tuan shop",
"Anh tuan shop",
"Anh tuan shop",
"Anh tuan shop",
"Anh tuan shop",
"Anh tuan shop",
"Anh tuan shop",
"Anh tuan shop",
"Anh tuan shop",
"Anh tuan shop",
"Anh tuan shop",
"Anh tuan shop",
"Anh tuan shop",
"Anh tuan shop",
"Anh tuan shop",
"Anh tuan shop",
"Anh tuan shop",
"Anh tuan shop",
"Anh tuan shop",
"Anh tuan shop",
"Anh tuan shop",
"Anh tuan shop",
"Anh tuan shop",
"Anh tuan shop",
"Anh tuan shop",
"Anh tuan shop",
"Anh tuan shop",
"Anh tuan shop",
"Anh tuan shop",
"Anh tuan shop",
"Anh tuan shop",
"Anh tuan shop",
"Anh tuan shop",
"Anh tuan shop",
"Anh tuan shop",
"Anh tuan shop",
"Anh tuan shop",
"Anh tuan shop",
"Anh tuan shop",
"Anh tuan shop",
"Anh tuan shop",
"Anh tuan shop",
"Anh tuan shop",
"Anh tuan shop",
"Anh tuan shop",
"Anh tuan shop",
"Anh tuan shop",
"Anh tuan shop",
"Anh tuan shop",
"Anh tuan shop",
"Anh tuan shop",
"Anh tuan shop",
"Anh tuan shop",
"Anh tuan shop",
"Anh tuan shop",
"Anh tuan shop",
"Anh tuan shop",
"Anh tuan shop",
"Anh tuan shop",
"Anh tuan shop",
"Anh tuan shop",
"Anh tuan shop",
"Anh tuan shop",
"Anh tuan shop",
"Anh tuan shop",
"Anh tuan shop",
"Anh tuan shop",
"Anh tuan shop",
"Anh tuan shop",
"Anh tuan shop",
"Anh tuan shop",
"Anh tuan shop",
"Anh tuan shop",
"Anh tuan shop",
"Anh tuan shop",
"Anh tuan shop",
"Anh tuan shop",
"Anh tuan shop",
"Anh tuan shop",
"Anh tuan shop",
"Anh tuan shop",
"Anh tuan shop",
"Anh tuan shop",
"Anh tuan shop",
"Anh tuan shop",
"Anh tuan shop",
"Anh tuan shop",
"Anh tuan shop",
"Anh tuan shop",
"Anh tuan shop",
"Anh tuan shop",
"Anh tuan shop",
"Anh tuan shop",
"Anh tuan shop",
"Anh tuan shop",
"Anh tuan shop",
"Anh tuan shop",
"Anh tuan shop",
"Anh tuan shop",
"Anh tuan shop",
"Anh tuan shop",
"Anh tuan shop",
"Anh tuan shop",
"Anh tuan shop",
"Anh tuan shop",
"Anh tuan shop",
"Anh tuan shop",
"Anh tuan shop",
"Anh tuan shop",
"Anh tuan shop",
"Anh tuan shop",
"Anh tuan shop",
"Anh tuan shop",
"Anh tuan shop",
"Anh tuan shop",
"Anh tuan shop",
"Anh tuan shop",
"Anh tuan shop",
"Anh tuan shop",
"Anh tuan shop",
"Anh tuan shop",
"Anh tuan shop",
"Anh tuan shop",
"Anh tuan shop",
"Anh tuan shop",
"Anh tuan shop",
"Anh tuan shop",
"Anh tuan shop",
"Anh tuan shop",
"Anh tuan shop",
"Anh tuan shop",
"Anh tuan shop",
"Anh tuan shop",
"Anh tuan shop",
"Anh tuan shop",
"Anh tuan shop",
"Anh tuan shop",
"Anh tuan shop",
"Anh tuan shop",
"Anh tuan shop",
"Anh tuan shop",
"Anh tuan shop",
"Anh tuan shop",
"Anh tuan shop",
"Anh tuan shop",
"Anh tuan shop",
"Anh tuan shop",
"Anh tuan shop",
"Anh tuan shop",
"Anh tuan shop",
"Anh tuan shop",
"Anh tuan shop",
"Anh tuan shop",
"Anh tuan shop",
"Anh tuan shop",
"Anh tuan shop",
"Anh tuan shop",
"Anh tuan shop",
"Anh tuan shop",
"Anh tuan shop",
"Anh tuan shop",
"Anh tuan shop",
"Anh tuan shop",
"Anh tuan shop",
"Anh tuan shop",
"Anh tuan shop",
"Anh tuan shop",
"Anh tuan shop",
"Anh tuan shop",
"Anh tuan shop",
"Anh tuan shop",
"Anh tuan shop",
"Anh tuan shop",
"Anh tuan shop",
"Anh tuan shop",
"Anh tuan shop",
"Anh tuan shop",
"Anh tuan shop",
"Anh tuan shop",
"Anh tuan shop",
"Anh tuan shop",
"Anh tuan shop",
"Anh tuan shop",
"Anh tuan shop",
"Anh tuan shop",
"Anh tuan shop",
"Anh tuan shop",
"Anh tuan shop",
"Anh tuan shop",
"Anh tuan shop",
"Anh tuan shop",
"Anh tuan shop",
"Anh tuan shop",
"Anh tuan shop",
"Anh tuan shop",
"Anh tuan shop",
"Anh tuan shop",
"Anh tuan shop",
"Anh tuan shop",
"Anh tuan shop",
"Anh tuan shop",
"Anh tuan shop",
"Anh tuan shop",
"Anh tuan shop",
"Anh tuan shop",
"Anh tuan shop",
"Anh tuan shop",
"Anh tuan shop",
"Anh tuan shop",
"Anh tuan shop",
"Anh tuan shop",
"Anh tuan shop",
"Anh tuan shop",
"Anh tuan shop",
"Anh tuan shop",
"Anh tuan shop",
"Anh tuan shop",
"Anh tuan shop",
"Anh tuan shop",
"Anh tuan shop",
"Anh tuan shop",
"Anh tuan shop",
"Anh tuan shop",
"Anh tuan shop",
"Anh tuan shop",
"Anh tuan shop",
"Anh tuan shop",
"Anh tuan shop",
"Anh tuan shop",
"Anh tuan shop",
"Anh tuan shop",
"Anh tuan shop",
"Anh tuan shop",
"Anh tuan shop",
"Anh tuan shop",
"Anh tuan shop",
"Anh tuan shop",
"Anh tuan shop",
"Anh tuan shop",
"http://ho.lazada.vn/SHHuQy?url=http%3A%2F%2Fwww.lazada.vn%2Ftui-cheo-me-dan-con-nho-lo-hoc-chua-Duoc-yeu-co-nho-tufu326-2422007.html%3Foffer_id%3D%7Boffer_id%7D%26affiliate_id%3D%7Baffiliate_id%7D%26offer_name%3D%7Boffer_name%7D_%7Boffer_file_id%7D%26affiliate_name%3D%7Baffiliate_name%7D%26transaction_id%3D%7Btransaction_id%7D%26aff_source%3D%7Bsource%7D&aff_sub=&aff_sub2=&aff_sub3=&aff_sub4=&aff_sub5=&source=",
"Anh tuan shop",
"Anh tuan shop",
"Anh tuan shop",
"Anh tuan shop",
"Anh tuan shop",
"Anh tuan shop",
"Anh tuan shop",
"Anh tuan shop",
"Anh tuan shop",
"Anh tuan shop",
"Anh tuan shop",
"Anh tuan shop",
"Anh tuan shop",
"Anh tuan shop",
"Anh tuan shop",
"Anh tuan shop",
"Anh tuan shop",
"Anh tuan shop",
"Anh tuan shop",
"Anh tuan shop",
"Anh tuan shop",
"Anh tuan shop",
"Anh tuan shop",
"Anh tuan shop",
"Anh tuan shop",
"Anh tuan shop",
"Anh tuan shop",
"Anh tuan shop",
"Anh tuan shop",
"Anh tuan shop",
"Anh tuan shop",
"Anh tuan shop",
"Anh tuan shop",
"Anh tuan shop",
"Anh tuan shop",
"Anh tuan shop",
"Anh tuan shop",
"Anh tuan shop",
"Anh tuan shop",
"Anh tuan shop",
"Anh tuan shop",
"Anh tuan shop",
"Anh tuan shop",
"Anh tuan shop",
"Anh tuan shop",
"Anh tuan shop",
"Anh tuan shop",
"Anh tuan shop",
"Anh tuan shop",
"Anh tuan shop",
"Anh tuan shop",
"Anh tuan shop",
"Anh tuan shop",
"Anh tuan shop",
"Anh tuan shop",
"Anh tuan shop",
"Anh tuan shop",
"Anh tuan shop",
"Anh tuan shop",
"Anh tuan shop",
"Anh tuan shop",
"Anh tuan shop",
"Anh tuan shop",
"Anh tuan shop",
"Anh tuan shop",
"Anh tuan shop",
"Anh tuan shop",
"Anh tuan shop",
"Anh tuan shop",
"Anh tuan shop",
"Anh tuan shop",
"Anh tuan shop",
"Anh tuan shop",
"Anh tuan shop",
"Anh tuan shop",
"Anh tuan shop",
"Anh tuan shop",
"Anh tuan shop",
"Anh tuan shop",
"Anh tuan shop",
"Anh tuan shop",
"Anh tuan shop",
"Anh tuan shop",
"Anh tuan shop",
"Anh tuan shop",
"Anh tuan shop",
"Anh tuan shop",
"Anh tuan shop",
"Anh tuan shop",
"Anh tuan shop",
"Anh tuan shop",
"Anh tuan shop",
"Anh tuan shop",
"Anh tuan shop",
"Anh tuan shop",
"Anh tuan shop",
"Anh tuan shop",
"Anh tuan shop",
"Anh tuan shop",
"Anh tuan shop",
"Anh tuan shop",
"Anh tuan shop",
"Anh tuan shop",
"Anh tuan shop",
"Anh tuan shop",
"Anh tuan shop",
"Anh tuan shop",
"Anh tuan shop",
"Anh tuan shop",
"Anh tuan shop",
"Anh tuan shop",
"Anh tuan shop",
"Anh tuan shop",
"Anh tuan shop",
"Anh tuan shop",
"Anh tuan shop",
"Anh tuan shop",
"Anh tuan shop",
"Anh tuan shop",
"Anh tuan shop",
"Anh tuan shop",
"Anh tuan shop",
"Anh tuan shop",
"Anh tuan shop",
"Anh tuan shop",
"Anh tuan shop",
"Anh tuan shop",
"Anh tuan shop",
"Anh tuan shop",
"Anh tuan shop",
"Anh tuan shop",
"Anh tuan shop",
"Anh tuan shop",
"Anh tuan shop",
"Anh tuan shop",
"Anh tuan shop",
"Anh tuan shop",
"Anh tuan shop",
"Anh tuan shop",
"Anh tuan shop",
"Anh tuan shop",
"Anh tuan shop",
"Anh tuan shop",
"Anh tuan shop",
"Anh tuan shop",
"Anh tuan shop",
"Anh tuan shop",
"Anh tuan shop",
"Anh tuan shop",
"Anh tuan shop",
"Anh tuan shop",
"Anh tuan shop",
"Anh tuan shop",
"Anh tuan shop",
"Anh tuan shop",
"Anh tuan shop",
"Anh tuan shop",
"Anh tuan shop",
"Anh tuan shop",
"Anh tuan shop",
"Anh tuan shop",
"Anh tuan shop",
"Anh tuan shop",
"Anh tuan shop",
"Anh tuan shop",
"Anh tuan shop",
"Anh tuan shop",
"Anh tuan shop",
"Anh tuan shop",
"Anh tuan shop",
"Anh tuan shop",
"Anh tuan shop",
"Anh tuan shop",
"Anh tuan shop",
"Anh tuan shop",
"Anh tuan shop",
"Anh tuan shop",
"Anh tuan shop",
"Anh tuan shop",
"Anh tuan shop",
"Anh tuan shop",
"Anh tuan shop",
"Anh tuan shop",
"Anh tuan shop",
"Anh tuan shop",
"Anh tuan shop",
"Anh tuan shop",
"Anh tuan shop",
"Anh tuan shop",
"Anh tuan shop",
"Anh tuan shop",
"Anh tuan shop",
"Anh tuan shop",
"Anh tuan shop",
"Anh tuan shop",
"Anh tuan shop",
"Anh tuan shop",
"Anh tuan shop",
"Anh tuan shop",
"Anh tuan shop",
"Anh tuan shop",
"Anh tuan shop",
"Anh tuan shop",
"Anh tuan shop",
"Anh tuan shop",
"Anh tuan shop",
"Anh tuan shop",
"Anh tuan shop",
"Anh tuan shop",
"Anh tuan shop",
"Anh tuan shop",
"Anh tuan shop",
"Anh tuan shop",
"Anh tuan shop",
"Anh tuan shop",
"Anh tuan shop",
"Anh tuan shop",
"Anh tuan shop",
"Anh tuan shop",
"Anh tuan shop",
"Anh tuan shop",
"Anh tuan shop",
"Anh tuan shop",
"Anh tuan shop",
"Anh tuan shop",
"Anh tuan shop",
"Anh tuan shop",
"Anh tuan shop",
"Anh tuan shop",
"Anh tuan shop",
"Anh tuan shop",
"Anh tuan shop",
"Anh tuan shop",
"Anh tuan shop",
"Anh tuan shop",
"Anh tuan shop",
"Anh tuan shop",
"Anh tuan shop",
"Anh tuan shop",
"Anh tuan shop",
"Anh tuan shop",
"Anh tuan shop",
"Anh tuan shop",
"Anh tuan shop",
"Anh tuan shop",
"Anh tuan shop",
"Anh tuan shop",
"Anh tuan shop",
"Anh tuan shop",
"Anh tuan shop",
"Anh tuan shop",
"Anh tuan shop",
"Anh tuan shop",
"Anh tuan shop",
"Anh tuan shop",
"Anh tuan shop",
"Anh tuan shop",
"Anh tuan shop",
"Anh tuan shop",
"Anh tuan shop",
"Anh tuan shop",
"Anh tuan shop",
"Anh tuan shop",
"Anh tuan shop",
"Anh tuan shop",
"Anh tuan shop",
"Anh tuan shop",
"Anh tuan shop",
"Anh tuan shop",
"Anh tuan shop",
"Anh tuan shop",
"Anh tuan shop",
"Anh tuan shop",
"Anh tuan shop",
"Anh tuan shop",
"Anh tuan shop",
"Anh tuan shop",
"Anh tuan shop",
"Anh tuan shop",
"Anh tuan shop",
"Anh tuan shop",
"Anh tuan shop",
"Anh tuan shop",
"Anh tuan shop",
"Anh tuan shop",
"Anh tuan shop",
"Anh tuan shop",
"Anh tuan shop",
"Anh tuan shop",
"Anh tuan shop",
"Anh tuan shop",
"Anh tuan shop",
"Anh tuan shop",
"Anh tuan shop",
"Anh tuan shop",
"Anh tuan shop",
"Anh tuan shop",
"Anh tuan shop",
"Anh tuan shop",
"Anh tuan shop",
"Anh tuan shop",
"Anh tuan shop",
"Anh tuan shop",
"Anh tuan shop",
"Anh tuan shop",
"Anh tuan shop",
"Anh tuan shop",
"Anh tuan shop",
"Anh tuan shop",
"Anh tuan shop",
"Anh tuan shop",
"Anh tuan shop",
"Anh tuan shop",
"Anh tuan shop",
"Anh tuan shop",
"Anh tuan shop",
"Anh tuan shop",
"Anh tuan shop",
"Anh tuan shop",
"Anh tuan shop",
"Anh tuan shop",
"Anh tuan shop",
"Anh tuan shop",
"Anh tuan shop",
"Anh tuan shop",
"Anh tuan shop",
"Anh tuan shop",
"Anh tuan shop",
"Anh tuan shop",
"Anh tuan shop",
"Anh tuan shop",
"Anh tuan shop",
"Anh tuan shop",
"Anh tuan shop",
"Anh tuan shop",
"Anh tuan shop",
"Anh tuan shop",
"Anh tuan shop",
"Anh tuan shop",
"Anh tuan shop",
"Anh tuan shop",
"Anh tuan shop",
"Anh tuan shop",
"Anh tuan shop",
"Anh tuan shop",
"Anh tuan shop",
"Anh tuan shop",
"Anh tuan shop",
"Anh tuan shop",
"Anh tuan shop",
"Anh tuan shop",
"Anh tuan shop",
"Anh tuan shop",
"Anh tuan shop",
"Anh tuan shop",
"Anh tuan shop",
"Anh tuan shop",
"Anh tuan shop",
"Anh tuan shop",
"Anh tuan shop",
"Anh tuan shop",
"Anh tuan shop",
"Anh tuan shop",
"Anh tuan shop",
"Anh tuan shop",
"Anh tuan shop",
"Anh tuan shop",
"Anh tuan shop",
"Anh tuan shop",
"Anh tuan shop",
"Anh tuan shop",
"Anh tuan shop",
"Anh tuan shop",
"Anh tuan shop",
"Anh tuan shop",
"Anh tuan shop",
"Anh tuan shop",
"Anh tuan shop",
"Anh tuan shop",
"Anh tuan shop",
"Anh tuan shop",
"Anh tuan shop",
"Anh tuan shop",
"Anh tuan shop",
"Anh tuan shop",
"Anh tuan shop",
"Anh tuan shop",
"Anh tuan shop",
"Anh tuan shop",
"Anh tuan shop",
"Anh tuan shop",
"Anh tuan shop",
"Anh tuan shop",
"Anh tuan shop",
"Anh tuan shop",
"Anh tuan shop",
"Anh tuan shop",
"Anh tuan shop",
"Anh tuan shop",
"Anh tuan shop",
"Anh tuan shop",
"Anh tuan shop",
"Anh tuan shop",
"Anh tuan shop",
"Anh tuan shop",
"Anh tuan shop",
"Anh tuan shop",
"Anh tuan shop",
"Anh tuan shop",
"Anh tuan shop",
"Anh tuan shop",
"Anh tuan shop",
"Anh tuan shop",
"Anh tuan shop",
"Anh tuan shop",
"Anh tuan shop",
"Anh tuan shop",
"Anh tuan shop",
"Anh tuan shop",
"Anh tuan shop",
"Anh tuan shop",
"Anh tuan shop",
"Anh tuan shop",
"Anh tuan shop",
"Anh tuan shop",
"Anh tuan shop",
"Anh tuan shop",
"Anh tuan shop",
"Anh tuan shop",
"Anh tuan shop",
"Anh tuan shop",
"Anh tuan shop",
"Anh tuan shop",
"Anh tuan shop",
"Anh tuan shop",
"Anh tuan shop",
"Anh tuan shop",
"Anh tuan shop",
"Anh tuan shop",
"Anh tuan shop",
"Anh tuan shop",
"Anh tuan shop",
"Anh tuan shop",
"Anh tuan shop",
"Anh tuan shop",
"Anh tuan shop",
"Anh tuan shop",
"Anh tuan shop",
"Anh tuan shop",
"Anh tuan shop",
"Anh tuan shop",
"Anh tuan shop",
"Anh tuan shop",
"Anh tuan shop",
"Anh tuan shop",
"Anh tuan shop",
"Anh tuan shop",
"Anh tuan shop",
"Anh tuan shop",
"Anh tuan shop",
"Anh tuan shop",
"Anh tuan shop",
"Anh tuan shop",
"Anh tuan shop",
"Anh tuan shop",
"Anh tuan shop",
"Anh tuan shop",
"Anh tuan shop",
"Anh tuan shop",
"Anh tuan shop",
"Anh tuan shop",
"Anh tuan shop",
"Anh tuan shop",
"Anh tuan shop",
"Anh tuan shop",
"Anh tuan shop",
"Anh tuan shop",
"Anh tuan shop",
"Anh tuan shop",
"Anh tuan shop",
"Anh tuan shop",
"Anh tuan shop",
"Anh tuan shop",
"Anh tuan shop",
"Anh tuan shop",
"Anh tuan shop",
"Anh tuan shop",
"Anh tuan shop",
"Anh tuan shop",
"Anh tuan shop",
"Anh tuan shop",
"Anh tuan shop",
"Anh tuan shop",
"Anh tuan shop",
"Anh tuan shop",
"Anh tuan shop",
"Anh tuan shop",
"Anh tuan shop",
"Anh tuan shop",
"Anh tuan shop",
"Anh tuan shop",
"Anh tuan shop",
"Anh tuan shop",
"Anh tuan shop",
"Anh tuan shop",
"Anh tuan shop",
"Anh tuan shop",
"Anh tuan shop",
"Anh tuan shop",
"Anh tuan shop",
"Anh tuan shop",
"Anh tuan shop",
"Anh tuan shop",
"Anh tuan shop",
"Anh tuan shop",
"Anh tuan shop",
"Anh tuan shop",
"Anh tuan shop",
"Anh tuan shop",
"Anh tuan shop",
"Anh tuan shop",
"Anh tuan shop",
"Anh tuan shop",
"Anh tuan shop",
"Anh tuan shop",
"Anh tuan shop",
"Anh tuan shop",
"Anh tuan shop",
"Anh tuan shop",
"Anh tuan shop",
"Anh tuan shop",
"Anh tuan shop",
"Anh tuan shop",
"Anh tuan shop",
"Anh tuan shop",
"Anh tuan shop",
"Anh tuan shop",
"Anh tuan shop",
"Anh tuan shop",
"Anh tuan shop",
"Anh tuan shop",
"Anh tuan shop",
"Anh tuan shop",
"Anh tuan shop",
"Anh tuan shop",
"Anh tuan shop",
"Anh tuan shop",
"Anh tuan shop",
"Anh tuan shop",
"Anh tuan shop",
"Anh tuan shop",
"Anh tuan shop",
"Anh tuan shop",
"Anh tuan shop",
"Anh tuan shop",
"Anh tuan shop",
"Anh tuan shop",
"Anh tuan shop",
"Anh tuan shop",
"Anh tuan shop",
"Anh tuan shop",
"Anh tuan shop",
"Anh tuan shop",
"Anh tuan shop",
"Anh tuan shop",
"Anh tuan shop",
"Anh tuan shop",
"Anh tuan shop",
"Anh tuan shop",
"Anh tuan shop",
"Anh tuan shop",
"Anh tuan shop",
"Anh tuan shop",
"Anh tuan shop",
"Anh tuan shop",
"Anh tuan shop",
"Anh tuan shop",
"Anh tuan shop",
"Anh tuan shop",
"Anh tuan shop",
"Anh tuan shop",
"Anh tuan shop",
"Anh tuan shop",
"Anh tuan shop",
"Anh tuan shop",
"Anh tuan shop",
"Anh tuan shop",
"Anh tuan shop",
"Anh tuan shop",
"Anh tuan shop",
"Anh tuan shop",
"Anh tuan shop",
"Anh tuan shop",
"Anh tuan shop",
"Anh tuan shop",
"Anh tuan shop",
"Anh tuan shop",
"Anh tuan shop",
"Anh tuan shop",
"Anh tuan shop",
"Anh tuan shop",
"Anh tuan shop",
"Anh tuan shop",
"Anh tuan shop",
"Anh tuan shop",
"Anh tuan shop",
"Anh tuan shop",
"Anh tuan shop",
"Anh tuan shop",
"Anh tuan shop",
"Anh tuan shop",
"Anh tuan shop",
"Anh tuan shop",
"Anh tuan shop",
"Anh tuan shop",
"Anh tuan shop",
"Anh tuan shop",
"Anh tuan shop",
"Anh tuan shop",
"Anh tuan shop",
"Anh tuan shop",
"Anh tuan shop",
"Anh tuan shop",
"Anh tuan shop",
"Anh tuan shop",
"Anh tuan shop",
"Anh tuan shop",
"Anh tuan shop",
"Anh tuan shop",
"Anh tuan shop",
"Anh tuan shop",
"Anh tuan shop",
"Anh tuan shop",
"Anh tuan shop",
"Anh tuan shop",
"Anh tuan shop",
"Anh tuan shop",
"Anh tuan shop",
"Anh tuan shop",
"Anh tuan shop",
"Anh tuan shop",
"Anh tuan shop",
"Anh tuan shop",
"Anh tuan shop",
"Anh tuan shop",
"Anh tuan shop",
"Anh tuan shop",
"Anh tuan shop",
"Anh tuan shop",
"Anh tuan shop",
"Anh tuan shop",
"Anh tuan shop",
"Anh tuan shop",
"Anh tuan shop",
"Anh tuan shop",
"Anh tuan shop",
"Anh tuan shop",
"Anh tuan shop",
"Anh tuan shop",
"Anh tuan shop",
"Anh tuan shop",
"Anh tuan shop",
"Anh tuan shop",
"Anh tuan shop",
"Anh tuan shop",
"Anh tuan shop",
"Anh tuan shop",
"Anh tuan shop",
"Anh tuan shop",
"Anh tuan shop",
"Anh tuan shop",
"Anh tuan shop",
"Anh tuan shop",
"Anh tuan shop",
"Anh tuan shop",
"Anh tuan shop",
"Anh tuan shop",
"Anh tuan shop",
"Anh tuan shop",
"Anh tuan shop",
"Anh tuan shop",
"Anh tuan shop",
"Anh tuan shop",
"Anh tuan shop",
"Anh tuan shop",
"Anh tuan shop",
"Anh tuan shop",
"Anh tuan shop",
"Anh tuan shop",
"Anh tuan shop",
"Anh tuan shop",
"Anh tuan shop",
"Anh tuan shop",
"Anh tuan shop",
"Anh tuan shop",
"Anh tuan shop",
"Anh tuan shop",
"Anh tuan shop",
"Anh tuan shop",
"Anh tuan shop",
"Anh tuan shop",
"Anh tuan shop",
"Anh tuan shop",
"Anh tuan shop",
"Anh tuan shop",
"Anh tuan shop",
"Anh tuan shop",
"Anh tuan shop",
"Anh tuan shop",
"Anh tuan shop",
"Anh tuan shop",
"Anh tuan shop",
"Anh tuan shop",
"Anh tuan shop",
"Anh tuan shop",
"Anh tuan shop",
"Anh tuan shop",
"Anh tuan shop",
"Anh tuan shop",
"Anh tuan shop",
"Anh tuan shop",
"Anh tuan shop",
"Anh tuan shop",
"Anh tuan shop",
"Anh tuan shop",
"Anh tuan shop",
"Anh tuan shop",
"Anh tuan shop",
"Anh tuan shop",
"Anh tuan shop",
"Anh tuan shop",
"Anh tuan shop",
"Anh tuan shop",
"Anh tuan shop",
"Anh tuan shop",
"Anh tuan shop",
"Anh tuan shop",
"Anh tuan shop",
"Anh tuan shop",
"Anh tuan shop",
"Anh tuan shop",
"Anh tuan shop",
"Anh tuan shop",
"Anh tuan shop",
"Anh tuan shop",
"Anh tuan shop",
"Anh tuan shop",
"Anh tuan shop",
"Anh tuan shop",
"Anh tuan shop",
"Anh tuan shop",
"Anh tuan shop",
"Anh tuan shop",
"Anh tuan shop",
"Anh tuan shop",
"Anh tuan shop",
"Anh tuan shop",
"Anh tuan shop",
"Anh tuan shop",
"Anh tuan shop",
"Anh tuan shop",
"Anh tuan shop",
"Anh tuan shop",
"Anh tuan shop",
"Anh tuan shop",
"Anh tuan shop",
"Anh tuan shop",
"Anh tuan shop",
"Anh tuan shop",
"Anh tuan shop",
"Anh tuan shop",
"Anh tuan shop",
"Anh tuan shop",
"Anh tuan shop",
"Anh tuan shop",
"Anh tuan shop",
"Anh tuan shop",
"Anh tuan shop",
"Anh tuan shop",
"Anh tuan shop",
"Anh tuan shop",
"Anh tuan shop",
"Anh tuan shop",
"Anh tuan shop",
"Anh tuan shop",
"Anh tuan shop",
"Anh tuan shop",
"Anh tuan shop",
"Anh tuan shop",
"Anh tuan shop",
"Anh tuan shop",
"Anh tuan shop",
"Anh tuan shop",
"Anh tuan shop",
"Anh tuan shop",
"Anh tuan shop",
"Anh tuan shop",
"Anh tuan shop",
"Anh tuan shop",
"Anh tuan shop",
"Anh tuan shop",
"Anh tuan shop",
"Anh tuan shop",
"Anh tuan shop",
"Anh tuan shop",
"Anh tuan shop",
"Anh tuan shop",
"Anh tuan shop",
"Anh tuan shop",
"Anh tuan shop",
"Anh tuan shop",
"Anh tuan shop",
"Anh tuan shop",
"Anh tuan shop",
"Anh tuan shop",
"Anh tuan shop",
"Anh tuan shop",
"Anh tuan shop",
"Anh tuan shop",
"Anh tuan shop",
"Anh tuan shop",
"Anh tuan shop",
"Anh tuan shop",
"Anh tuan shop",
"Anh tuan shop",
"Anh tuan shop",
"Anh tuan shop",
"Anh tuan shop",
"Anh tuan shop",
"Anh tuan shop",
"Anh tuan shop",
"Anh tuan shop",
"Anh tuan shop",
"Anh tuan shop",
"Anh tuan shop",
"Anh tuan shop",
"Anh tuan shop",
"Anh tuan shop",
"Anh tuan shop",
"Anh tuan shop",
"Anh tuan shop",
"Anh tuan shop",
"Anh tuan shop",
"Anh tuan shop",
"Anh tuan shop",
"Anh tuan shop",
"Anh tuan shop",
"Anh tuan shop",
"Anh tuan shop",
"Anh tuan shop",
"Anh tuan shop",
"Anh tuan shop",
"Anh tuan shop",
"Anh tuan shop",
"Anh tuan shop",
"Anh tuan shop",
"Anh tuan shop",
"Anh tuan shop",
"Anh tuan shop",
"Anh tuan shop",
"Anh tuan shop",
"Anh tuan shop",
"Anh tuan shop",
"Anh tuan shop",
"Anh tuan shop",
"Anh tuan shop",
"Anh tuan shop",
"Anh tuan shop",
"Anh tuan shop",
"Anh tuan shop",
"Anh tuan shop",
"Anh tuan shop",
"Anh tuan shop",
"Anh tuan shop",
"Anh tuan shop",
"Anh tuan shop",
"Anh tuan shop",
"Anh tuan shop",
"Anh tuan shop",
"Anh tuan shop",
"Anh tuan shop",
"Anh tuan shop",
"Anh tuan shop",
"Anh tuan shop",
"Anh tuan shop",
"Anh tuan shop",
"Anh tuan shop",
"Anh tuan shop",
"Anh tuan shop",
"Anh tuan shop",
"Anh tuan shop",
"Anh tuan shop",
"Anh tuan shop",
"Anh tuan shop",
"Anh tuan shop",
"Anh tuan shop",
"Anh tuan shop",
"Anh tuan shop",
"Anh tuan shop",
"Anh tuan shop",
"Anh tuan shop",
"Anh tuan shop",
"Anh tuan shop",
"Anh tuan shop",
"Anh tuan shop",
"Anh tuan shop",
"Anh tuan shop",
"Anh tuan shop",
"Anh tuan shop",
"Anh tuan shop",
"Anh tuan shop",
"Anh tuan shop",
"Anh tuan shop",
"Anh tuan shop",
"Anh tuan shop",
"Anh tuan shop",
"Anh tuan shop",
"Anh tuan shop",
"Anh tuan shop",
"Anh tuan shop",
"Anh tuan shop",
"Anh tuan shop",
"Anh tuan shop",
"Anh tuan shop",
"Anh tuan shop",
"Anh tuan shop",
"Anh tuan shop",
"Anh tuan shop",
"Anh tuan shop",
"Anh tuan shop",
"Anh tuan shop",
"Anh tuan shop",
"Anh tuan shop",
"Anh tuan shop",
"Anh tuan shop",
"Anh tuan shop",
"Anh tuan shop",
"Anh tuan shop",
"Anh tuan shop",
"Anh tuan shop",
"Anh tuan shop",
"Anh tuan shop",
"Anh tuan shop",
"Anh tuan shop",
"Anh tuan shop",
"Anh tuan shop",
"Anh tuan shop",
"Anh tuan shop",
"Anh tuan shop",
"Anh tuan shop",
"Anh tuan shop",
"Anh tuan shop",
"Anh tuan shop",
"Anh tuan shop",
"Anh tuan shop",
"Anh tuan shop",
"Anh tuan shop",
"Anh tuan shop",
"Anh tuan shop",
"Anh tuan shop",
"Anh tuan shop",
"Anh tuan shop",
"Anh tuan shop",
"Anh tuan shop",
"Anh tuan shop",
"Anh tuan shop",
"Anh tuan shop",
"Anh tuan shop",
"Anh tuan shop",
"Anh tuan shop",
"Anh tuan shop",
"Anh tuan shop",
"Anh tuan shop",
"Anh tuan shop",
"Anh tuan shop",
"Anh tuan shop",
"Anh tuan shop",
"Anh tuan shop",
"Anh tuan shop",
"Anh tuan shop",
"Anh tuan shop",
"Anh tuan shop",
"Anh tuan shop",
"Anh tuan shop",
"Anh tuan shop",
"Anh tuan shop",
"Anh tuan shop",
"Anh tuan shop",
"Anh tuan shop",
"Anh tuan shop",
"Anh tuan shop",
"Anh tuan shop",
"Anh tuan shop",
"Anh tuan shop",
"Anh tuan shop",
"Anh tuan shop",
"Anh tuan shop",
"Anh tuan shop",
"Anh tuan shop",
"Anh tuan shop",
"Anh tuan shop",
"Anh tuan shop",
"Anh tuan shop",
"Anh tuan shop",
"Anh tuan shop",
"Anh tuan shop",
"Anh tuan shop",
"Anh tuan shop",
"Anh tuan shop",
"ARNOLD PALMER",
"Arte SCHOOLBAGS",
"Arte SCHOOLBAGS",
"Arte SCHOOLBAGS",
"ARTE",
"ARTE",
"ARTE",
"ARTE",
"A & T",
"A & T",
"AUVIET",
"AUVIET",
"Âu Việt",
"Âu Việt",
"Âu Việt",
"Âu Việt",
"Âu Việt",
"Âu Việt",
"Âu Việt",
"Âu Việt",
"Baellerry",
"Baellerry",
"BALOVINA",
"BÁN HÀNG GIÁ SỈ",
"BÁN HÀNG GIÁ SỈ",
"BÁN HÀNG GIÁ SỈ",
"BÁN HÀNG GIÁ SỈ",
"BÁN HÀNG GIÁ SỈ",
"BÁN HÀNG GIÁ SỈ",
"Balo Vỹ Thịnh",
"Balo Vỹ Thịnh",
"Balo Vỹ Thịnh",
"Balo Vỹ Thịnh",
"Balo Vỹ Thịnh",
"Balo Vỹ Thịnh",
"Balo Vỹ Thịnh",
"Balo Vỹ Thịnh",
"Balo Vỹ Thịnh",
"Balo Vỹ Thịnh",
"Balo Vỹ Thịnh",
"Balo Vỹ Thịnh",
"Balo Vỹ Thịnh",
"Balo Vỹ Thịnh",
"Balo Vỹ Thịnh",
"Balo Vỹ Thịnh",
"Balo Đẹp",
"Balo Đẹp",
"Balo Đẹp",
"Balo Đẹp",
"Balo Đẹp",
"Balo Đẹp",
"Balo Đẹp",
"Balo Đẹp",
"Balo Đẹp",
"Balo Đẹp",
"Balo Đẹp",
"Balo Đẹp",
"Balo Đẹp",
"Balo Đẹp",
"Balo Đẹp",
"Balo Đẹp",
"Balo Đẹp",
"Balo Đẹp",
"Balo Đẹp",
"Balo Đẹp",
"Balo Đẹp",
"Balo Đẹp",
"Balo Đẹp",
"Balo Đẹp",
"Balo Đẹp",
"Balo Đẹp",
"Balo Đẹp",
"Balo Đẹp",
"Balo Đẹp",
"Balo Đẹp",
"Balo Đẹp",
"Balo Đẹp",
"Balo Đẹp",
"Balo Đẹp",
"Balo Đẹp",
"Balo Đẹp",
"Balo Đẹp",
"Balo Đẹp",
"Balo Đẹp",
"Balo Đẹp",
"Balo Đẹp",
"Balo Đẹp",
"Balo Đẹp",
"Balo Đẹp",
"Balo Đẹp",
"Balo Đẹp",
"Balo Đẹp",
"Balo Đẹp",
"Balo Đẹp",
"Babylon",
"BaloHome",
"BaloHome",
"BaloHome",
"BaloHome",
"BaloHome",
"BaloHome",
"BaloHome",
"BaloHome",
"BaloHome",
"BaloHome",
"BaloHome",
"BaloHome",
"BaloHome",
"BaloHome",
"BaloHome",
"BaloHome",
"BaloHome",
"BaloHome",
"BaloHome",
"BaloHome",
"BaloHome",
"BaloHome",
"BaloHome",
"Bandicoot",
"Bewatch",
"Bewatch",
"Bewatch",
"Bewatch",
"Bewatch",
"Bewatch",
"Bewatch",
"Bewatch",
"Bewatch",
"Bewatch",
"Bewatch",
"Bewatch",
"Bewatch",
"Bee.B",
"Bee.B",
"Beyeu1688",
"Beyeu1688",
"Beyeu1688",
"Beyeu1688",
"Beyeu1688",
"Beyeu1688",
"Blanda",
"Bomdo",
"Bomdo",
"Fancyqube",
"Fancyqube",
"Fancyqube",
"Fancyqube",
"Fancyqube",
"Fancyqube",
"Fancyqube",
"Fancyqube",
"Fancyqube",
"Fancyqube",
"Fancyqube",
"Fancyqube",
"Fancyqube",
"Fancyqube",
"Fancyqube",
"Fancyqube",
"Fancyqube",
"Fancyqube",
"Fancyqube",
"Fancyqube",
"Fancyqube",
"Fancyqube",
"Fancyqube",
"Fancyqube",
"Fancyqube",
"Fancyqube",
"Fancyqube",
"Fancyqube",
"Fancyqube",
"Fancyqube",
"Fancyqube",
"Fancyqube",
"Fancyqube",
"Fancyqube",
"Fancyqube",
"Fancyqube",
"Fancyqube",
"Fancyqube",
"Fancyqube",
"Vococal",
"Vococal",
"Vococal",
"Vococal",
"Vococal",
"Vococal",
"Vococal",
"Vococal",
"Vococal",
"Vococal",
"Vococal",
"Vococal",
"Vococal",
"Vococal",
"Vococal",
"Vococal",
"Vococal",
"Vococal",
"Vococal",
"Vococal",
"Vococal",
"Vococal",
"Vococal",
"Vococal",
"Vococal",
"Vococal",
"Vococal",
"Vococal",
"Vococal",
"Vococal",
"Vococal",
"Vococal",
"Vococal",
"Vococal",
"Vococal",
"Vococal",
"Vococal",
"Vococal",
"Vococal",
"Vococal",
"Vococal",
"Vococal",
"Vococal",
"Vococal",
"Vococal",
"Vococal",
"Vococal",
"Vococal",
"Vococal",
"Vococal",
"Vococal",
"Vococal",
"Vococal",
"Vococal",
"Vococal",
"Vococal",
"Vococal",
"Vococal",
"Vococal",
"Vococal",
"Vococal",
"JanSport",
"Sweetsa",
"Sweetsa",
"Sweetsa",
"Blue lans",
"Blue lans",
"Blue lans",
"Blue lans",
"Blue lans",
"Blue lans",
"Blue lans",
"Blue lans",
"Blue lans",
"Blue lans",
"Blue lans",
"Blue lans",
"Blue lans",
"Blue lans",
"Blue lans",
"Blue lans",
"Blue lans",
"Blue lans",
"Blue lans",
"Blue lans",
"Blue lans",
"Blue lans",
"Blue lans",
"Blue lans",
"Blue lans",
"Blue lans",
"Blue lans",
"Blue lans",
"Blue lans",
"Blue lans",
"Blue lans",
"Blue lans",
"Blue lans",
"Blue lans",
"Blue lans",
"Blue lans",
"Blue lans",
"Blue lans",
"Blue lans",
"Blue lans",
"Blue lans",
"Blue lans",
"GokiChi",
"Paul & Joe",
"Paul Brial",
"Lalang",
"Lalang",
"Lalang",
"Lalang",
"Lalang",
"Lalang",
"Lalang",
"Lalang",
"Lalang",
"Lalang",
"Lalang",
"Lalang",
"Lalang",
"Lalang",
"Lalang",
"Lalang",
"Lalang",
"Lalang",
"Lalang",
"Lalang",
"Lalang",
"Lalang",
"Lalang",
"Lalang",
"Lalang",
"Lalang",
"Lalang",
"Lalang",
"Lalang",
"Lalang",
"Lalang",
"Lalang",
"Lalang",
"Lalang",
"Lalang",
"Lalang",
"Lalang",
"Lalang",
"Lalang",
"Lalang",
"Lalang",
"Lalang",
"Lalang",
"Lalang",
"Lalang",
"Lalang",
"Lalang",
"Lalang",
"Lalang",
"Lalang",
"Lalang",
"Lalang",
"Lalang",
"Lalang",
"Lalang",
"Lalang",
"Lalang",
"Lalang",
"Lalang",
"Lalang",
"Lalang",
"Lalang",
"Lalang",
"Lalang",
"Lalang",
"Lalang",
"Lalang",
"Lalang",
"Lalang",
"Lalang",
"Lalang",
"Lalang",
"Lalang",
"Lalang",
"Lalang",
"Lalang",
"Lalang",
"Lalang",
"Lalang",
"Lalang",
"Lalang",
"Lalang",
"Lalang",
"Lalang",
"Lalang",
"Moonar",
"Moonar",
"Moonar",
"Moonar",
"Moonar",
"Moonar",
"Moonar",
"Moonar",
"Moonar",
"Moonar",
"Moonar",
"B&T",
"B&T",
"Camel",
"Captuida",
"Captuida",
"Captuida",
"Captuida",
"Captuida",
"Captuida",
"Captuida",
"Captuida",
"Captuida",
"Captuida",
"Captuida",
"Captuida",
"Captuida",
"Captuida",
"Captuida",
"Captuida",
"Captuida",
"Captuida",
"Captuida",
"Cho Deal 24h",
"Cho Deal 24h",
"Cho Deal 24h",
"Cho Deal 24h",
"Cho Deal 24h",
"Cho Deal 24h",
"Cho Deal 24h",
"Cho Deal 24h",
"Cho Deal 24h",
"Cho Deal 24h",
"Cho Deal 24h",
"OEM",
"OEM",
"OEM",
"OEM",
"OEM",
"OEM",
"OEM",
"OEM",
"Chagrin Valley",
"Choda",
"Choda",
"Chance",
"Chance",
"Chance",
"Chance",
"Chance",
"Chance",
"Chance",
"Chance",
"Chance",
"Chance",
"Chance",
"Chance",
"Chance",
"Chance",
"Chance",
"Chance",
"Chance",
"Chance",
"Chance",
"Chance",
"Chance",
"Chance",
"Chance",
"Chance",
"Chance",
"Chance",
"Chance",
"Chance",
"Chance",
"Chance",
"Chance",
"Chance",
"Chance",
"Chance",
"Chance",
"Chance",
"Chance",
"Chance",
"Chance",
"Chance",
"Chance",
"Chance",
"Chance",
"Chance",
"Chance",
"Chance",
"Chance",
"Chance",
"Chance",
"Chance",
"Chance",
"Chance",
"Chance",
"Chance",
"Chance",
"Chance",
"Chance",
"Chance",
"Chance",
"Chance",
"Chance",
"Chance",
"Chance",
"Chance",
"Chance",
"Chance",
"Chance",
"Chance",
"Chance",
"Chance",
"Chance",
"Chance",
"Chance",
"Chance",
"Chance",
"Chance",
"Chance",
"Chance",
"Chance",
"Chance",
"Chance",
"Chance",
"Chance",
"Chance",
"Chance",
"Chance",
"Chance",
"Chance",
"Chance",
"Chance",
"Chance",
"Chance",
"Chance",
"Chance",
"Chance",
"Chance",
"Chance",
"Chance",
"Chance",
"Chance",
"Chance",
"Chance",
"Chance",
"Chance",
"Chance",
"Chance",
"Chance",
"Chagrin Valley",
"Chagrin Valley",
"Chance",
"Chagrin Valley",
"Chagrin Valley",
"Chagrin Valley",
"Chagrin Valley",
"cnt's",
"cnt's",
"cnt's",
"cnt's",
"cnt's",
"cnt's",
"cnt's",
"cnt's",
"cnt's",
"cnt's",
"cnt's",
"cnt's",
"cnt's",
"cnt's",
"cnt's",
"cnt's",
"cnt's",
"cnt's",
"cnt's",
"cnt's",
"cnt's",
"cnt's",
"cnt's",
"cnt's",
"cnt's",
"cnt's",
"cnt's",
"cnt's",
"cnt's",
"cnt's",
"cnt's",
"cnt's",
"cnt's",
"cnt's",
"cnt's",
"cnt's",
"cnt's",
"cnt's",
"cnt's",
"Converse",
"Converse",
"Converse",
"Converse",
"Cocoa Loco",
"Cocoa Loco",
"Cocoa Loco",
"Cocoa Loco",
"Cocoa Loco",
"Đồ Da Thành Long TLG",
"Đồ Da Thành Long TLG",
"Đồ Da Thành Long TLG",
"Đồ Da Thành Long TLG",
"Đồ Da Thành Long TLG",
"Đồ Da Thành Long TLG",
"Đồ Da Thành Long TLG",
"Đồ Da Thành Long TLG",
"Đồ Da Thành Long TLG",
"Đồ Da Thành Long TLG",
"Đồ Da Thành Long TLG",
"Đồ Da Thành Long TLG",
"Đồ Da Thành Long TLG",
"Đồ Da Thành Long TLG",
"Đồ Da Thành Long TLG",
"Đồ Da Thành Long TLG",
"Đồ Da Thành Long TLG",
"Đồ Da Thành Long TLG",
"Đồ Da Thành Long TLG",
"Đồ Da Thành Long TLG",
"Đồ Da Thành Long TLG",
"Đồ Da Thành Long TLG",
"Đồ Da Thành Long TLG",
"Đồ Da Thành Long TLG",
"Đồ Da Thành Long TLG",
"Đồ Da Thành Long TLG",
"Đồ Da Thành Long TLG",
"Đồ Da Thành Long TLG",
"Đồ Da Thành Long TLG",
"Đồ Da Thành Long TLG",
"Đồ Da Thành Long TLG",
"Đồ Da Thành Long TLG",
"Đồ Da Thành Long TLG",
"Đồ Da Thành Long TLG",
"Đồ Da Thành Long TLG",
"Đồ Da Thành Long TLG",
"Đồ Da Thành Long TLG",
"Đồ Da Thành Long TLG",
"Đồ Da Thành Long TLG",
"Đồ Da Thành Long TLG",
"Đồ Da Thành Long TLG",
"Đồ Da Thành Long TLG",
"Đồ Da Thành Long TLG",
"Đồ Da Thành Long TLG",
"Đồ Da Thành Long TLG",
"Đồ Da Thành Long TLG",
"Đồ Da Thành Long TLG",
"Đồ Da Thành Long TLG",
"Đồ Da Thành Long TLG",
"Đồ Da Thành Long TLG",
"Đồ Da Thành Long TLG",
"Đồ Da Thành Long TLG",
"Đồ Da Thành Long TLG",
"Đồ Da Thành Long TLG",
"Đồ Da Thành Long TLG",
"Đồ Da Thành Long TLG",
"Đồ Da Thành Long TLG",
"Đồ Da Thành Long TLG",
"Đồ Da Thành Long TLG",
"Đồ Da Thành Long TLG",
"Đồ Da Thành Long TLG",
"Đồ Da Thành Long TLG",
"Đồ Da Thành Long TLG",
"Đồ Da Thành Long TLG",
"Đồ Da Thành Long TLG",
"Đồ Da Thành Long TLG",
"Đồ Da Thành Long TLG",
"Đồ Da Thành Long TLG",
"Đồ Da Thành Long TLG",
"Đồ Da Thành Long TLG",
"Đồ Da Thành Long TLG",
"Đồ Da Thành Long TLG",
"Đồ Da Thành Long TLG",
"Đồ Da Thành Long TLG",
"Đồ Da Thành Long TLG",
"Đồ Da Thành Long TLG",
"Đồ Da Thành Long TLG",
"Đồ Da Thành Long TLG",
"Đồ Da Thành Long TLG",
"Đồ Da Thành Long TLG",
"Đồ Da Thành Long TLG",
"Đồ Da Thành Long TLG",
"Đồ Da Thành Long TLG",
"Đồ Da Thành Long TLG",
"Đồ Da Thành Long TLG",
"Đồ Da Thành Long TLG",
"Đồ Da Thành Long TLG",
"Đồ Da Thành Long TLG",
"Đồ Da Thành Long TLG",
"Đồ Da Thành Long TLG",
"Đồ Da Thành Long TLG",
"Đồ Da Thành Long TLG",
"Đồ Da Thành Long TLG",
"Đồ Da Thành Long TLG",
"Đồ Da Thành Long TLG",
"Đồ Da Thành Long TLG",
"Đồ Da Thành Long TLG",
"Đồ Da Thành Long TLG",
"Đồ Da Thành Long TLG",
"Đồ Da Thành Long TLG",
"Đồ Da Thành Long TLG",
"Đồ Da Thành Long TLG",
"Đồ Da Thành Long TLG",
"Đồ Da Thành Long TLG",
"Đồ Da Thành Long TLG",
"Đồ Da Thành Long TLG",
"Đồ Da Thành Long TLG",
"Đồ Da Thành Long TLG",
"Đồ Da Thành Long TLG",
"Đồ Da Thành Long TLG",
"Đồ Da Thành Long TLG",
"Đồ Da Thành Long TLG",
"Đồ Da Thành Long TLG",
"Đồ Da Thành Long TLG",
"Đồ Da Thành Long TLG",
"Đồ Da Thành Long TLG",
"Đồ Da Thành Long TLG",
"Đồ Da Thành Long TLG",
"Đồ Da Thành Long TLG",
"Đồ Da Thành Long TLG",
"Đồ Da Thành Long TLG",
"Đồ Da Thành Long TLG",
"Đồ Da Thành Long TLG",
"Đồ Da Thành Long TLG",
"Đồ Da Thành Long TLG",
"Đồ Da Thành Long TLG",
"Đồ Da Thành Long TLG",
"Đồ Da Thành Long TLG",
"Đồ Da Thành Long TLG",
"Đồ Da Thành Long TLG",
"Đồ Da Thành Long TLG",
"Đồ Da Thành Long TLG",
"Đồ Da Thành Long TLG",
"Đồ Da Thành Long TLG",
"Đồ Da Thành Long TLG",
"Đồ Da Thành Long TLG",
"Đồ Da Thành Long TLG",
"Đồ Da Thành Long TLG",
"Đồ Da Thành Long TLG",
"Đồ Da Thành Long TLG",
"Đồ Da Thành Long TLG",
"Đồ Da Thành Long TLG",
"Đồ Da Thành Long TLG",
"Đồ Da Thành Long TLG",
"Đồ Da Thành Long TLG",
"Đồ Da Thành Long TLG",
"Đồ Da Thành Long TLG",
"Đồ Da Thành Long TLG",
"Đồ Da Thành Long TLG",
"Đồ Da Thành Long TLG",
"Đồ Da Thành Long TLG",
"Đồ Da Thành Long TLG",
"Đồ Da Thành Long TLG",
"Đồ Da Thành Long TLG",
"Đồ Da Thành Long TLG",
"Đồ Da Thành Long TLG",
"Đồ Da Thành Long TLG",
"Đồ Da Thành Long TLG",
"Đồ Da Thành Long TLG",
"Đồ Da Thành Long TLG",
"Đồ Da Thành Long TLG",
"Đồ Da Thành Long TLG",
"Đồ Da Thành Long TLG",
"Đồ Da Thành Long TLG",
"Đồ Da Thành Long TLG",
"Đồ Da Thành Long TLG",
"Đồ Da Thành Long TLG",
"Đồ Da Thành Long TLG",
"Đồ Da Thành Long TLG",
"Đồ Da Thành Long TLG",
"Đồ Da Thành Long TLG",
"Đồ Da Thành Long TLG",
"Đồ Da Thành Long TLG",
"Đồ Da Thành Long TLG",
"Đồ Da Thành Long TLG",
"Đồ Da Thành Long TLG",
"Đồ Da Thành Long TLG",
"Đồ Da Thành Long TLG",
"Đồ Da Thành Long TLG",
"Đồ Da Thành Long TLG",
"Đồ Da Thành Long TLG",
"Đồ Da Thành Long TLG",
"Đồ Da Thành Long TLG",
"Đồ Da Thành Long TLG",
"Đồ Da Thành Long TLG",
"Đồ Da Thành Long TLG",
"Đồ Da Thành Long TLG",
"Đồ Da Thành Long TLG",
"Đồ Da Thành Long TLG",
"Đồ Da Thành Long TLG",
"Đồ Da Thành Long TLG",
"Đồ Da Thành Long TLG",
"Đồ Da Thành Long TLG",
"Đồ Da Thành Long TLG",
"Đồ Da Thành Long TLG",
"Đồ Da Thành Long TLG",
"Đồ Da Thành Long TLG",
"Đồ Da Thành Long TLG",
"Đồ Da Thành Long TLG",
"Đài Loan",
"DaH2",
"DaH2",
"DaH2",
"DaH2",
"DaH2",
"DaH2",
"DaH2",
"DaH2",
"DaH2",
"DaH2",
"DaH2",
"DaH2",
"DaH2",
"DaH2",
"DaH2",
"DaH2",
"DaH2",
"DaH2",
"DaH2",
"DaH2",
"DaH2",
"DaH2",
"DaH2",
"DaH2",
"Davis",
"Davis",
"Davis",
"Davis",
"Davis",
"Davis",
"Davis",
"Davis",
"Disney",
"Diamond's Secret",
"Diamond's Secret",
"Dolly&Polly",
"Dolly&Polly",
"Dolly&Polly",
"Dolly&Polly",
"Dolly&Polly",
"Dolly&Polly",
"Dongkhoi",
"Dongkhoi",
"DODACO",
"DODACO",
"DODACO",
"DODACO",
"DODACO",
"DODACO",
"DODACO",
"DODACO",
"DODACO",
"DODACO",
"DODACO",
"DODACO",
"DODACO",
"DT",
"DT",
"DT",
"DT",
"DT",
"DT",
"DT",
"DT",
"DT",
"DT",
"DT",
"DT",
"DT",
"DT",
"DT",
"DT",
"DT",
"DT",
"DT",
"DT",
"DT",
"DT",
"DT",
"DT",
"DT",
"DT",
"DT",
"DT",
"DT",
"DT",
"DT",
"DT",
"DT",
"DT",
"DT",
"DT",
"DT",
"DT",
"DT",
"DT",
"DT",
"DT",
"DT",
"DT",
"DT",
"DT",
"DT",
"HQ",
"DT",
"DT",
"DT",
"DT",
"DT",
"DT",
"DT",
"DT",
"DT",
"DT",
"DT",
"DT",
"DT",
"DT",
"DT",
"DT",
"DT",
"DT",
"DT",
"DT",
"DT",
"DT",
"DT",
"Econ",
"EOM",
"F5",
"F5",
"F5",
"F5",
"F5",
"F5",
"F5",
"F5",
"F5",
"F5",
"F5",
"F5",
"F5",
"F5",
"F5",
"F5",
"F5",
"F5",
"F5",
"F5",
"Family Shop",
"Family Shop",
"Family Shop",
"Family Shop",
"Family Shop",
"Family Shop",
"Feger",
"Feger",
"Feger",
"Feger",
"Feger",
"Foxnovo",
"Foxnovo",
"Foxnovo",
"Foxer",
"Foxer",
"Foxer",
"Foxer",
"Foxer",
"Foxer",
"Foxer",
"Foxer",
"Foxer",
"Foxer",
"Foxer",
"Foxer",
"Foxer",
"Foxer",
"Foxer",
"Foxer",
"Foxer",
"Foxer",
"Foxer",
"Foxer",
"Foxer",
"Foxer",
"Foxer",
"Foxer",
"Foxer",
"Foxer",
"Foxer",
"Foxer",
"Foxer",
"Foxer",
"Foxer",
"Foxer",
"Foxer",
"Foxer",
"Foxer",
"Foxer",
"Foxer",
"Foxer",
"Fortune & Mouse",
"Fortune & Mouse",
"Fortune & Mouse",
"Fortune & Mouse",
"Fortune & Mouse",
"Fourtech",
"Fourtech",
"Gentle",
"Giá Tốt 247",
"Giagoc24h",
"GiatotG90",
"GiatotG90",
"GiatotG90",
"GiatotG90",
"GiatotG90",
"GiatotG90",
"GiatotG90",
"GiatotG90",
"GiatotG90",
"GiatotG90",
"GiatotG90",
"GiatotG90",
"Giatot126",
"Giatot126",
"Giatot126",
"Giatot126",
"Giatot126",
"Giatot126",
"Gia Huy",
"Gia Huy",
"Gia Huy",
"giagoc1688",
"giagoc1688",
"giagoc1688",
"giagoc1688",
"giagoc1688",
"giagoc1688",
"giagoc1688",
"giagoc1688",
"giagoc1688",
"giagoc1688",
"giagoc1688",
"giagoc1688",
"giagoc1688",
"giagoc1688",
"GIA TOT 360",
"GIA TOT 360",
"GIA TOT 360",
"GIA TOT 360",
"GIA TOT 360",
"Glado",
"Glado",
"Glado",
"Glado",
"Glado",
"Glado",
"Glado",
"Glado",
"Glado",
"Glado",
"Glado",
"Glado",
"Glado",
"Glado",
"Glado",
"Glado",
"Glado",
"Glado",
"Glado",
"Glado",
"Glado",
"Glado",
"Glado",
"Glado",
"Glado",
"Glado",
"Glado",
"Glado",
"Glado",
"GokiChi",
"GokiChi",
"GokiChi",
"GokiChi",
"GokiChi",
"GokiChi",
"GokiChi",
"GokiChi",
"GokiChi",
"GokiChi",
"GokiChi",
"GokiChi",
"GokiChi",
"GokiChi",
"GokiChi",
"GokiChi",
"GokiChi",
"GokiChi",
"GokiChi",
"GokiChi",
"Chance",
"Chance",
"OEM",
"OEM",
"OEM",
"OEM",
"TAS",
"OEM",
"F5",
"Hanama",
"Hanama",
"Hanama",
"Hanama",
"Hanama",
"Hanama",
"Hanama",
"Hanama",
"Hanama",
"Hanama",
"Hanama",
"Hanama",
"Hanama",
"Hanama",
"Hanama",
"Hanama",
"Hanama",
"Hanama",
"Hanama",
"Hanama",
"Hanama",
"Hanama",
"Hanama",
"Hanama",
"Hanama",
"Hanama",
"Hanama",
"Hanama",
"Hanama",
"Hanama",
"Hanama",
"Hanama",
"Hanama",
"Hanama",
"Hanama",
"Hanama",
"Hanama",
"Hanama",
"Hanama",
"Hanama",
"Hanama",
"Hanama",
"Hanama",
"Hanama",
"Hanama",
"Hanama",
"Hanama",
"Hanama",
"Hanama",
"Hanama",
"Hanama",
"Hanama",
"Hanama",
"Hanama",
"Hanama",
"Hanama",
"Hanama",
"Hanama",
"Hanama",
"Hanama",
"Hanama",
"Hanama",
"Hanama",
"Hanama",
"Hanama",
"Hanama",
"Hanama",
"Hanama",
"Hanama",
"Hanama",
"Hanama",
"Hanama",
"Hanama",
"Hadosa",
"Hadosa",
"Hadosa",
"Hadosa",
"Hadosa",
"Hadosa",
"Happy F",
"Happy F",
"Happy F",
"Happy F",
"Happy F",
"Happy F",
"Happy F",
"Happy F",
"Happy F",
"Happy F",
"Happy F",
"Happy F",
"Hellobuy",
"Hellobuy",
"KALIDI",
"H&H",
"HI&T",
"HI&T",
"HI&T",
"HI&T",
"HI&T",
"HI&T",
"HI&T",
"HI&T",
"HI&T",
"HI&T",
"HI&T",
"HI&T",
"HI&T",
"HI&T",
"HI&T",
"HI&T",
"HI&T",
"HI&T",
"HI&T",
"HI&T",
"HI&T",
"HI&T",
"HI&T",
"HI&T",
"HI&T",
"HI&T",
"HI&T",
"HI&T",
"HI&T",
"HI&T",
"HI&T",
"HI&T",
"HI&T",
"HI&T",
"HI&T",
"HI&T",
"HI&T",
"HI&T",
"HI&T",
"HI&T",
"HI&T",
"HI&T",
"HI&T",
"HI&T",
"HI&T",
"HI&T",
"HI&T",
"HI&T",
"HI&T",
"HI&T",
"HI&T",
"HI&T",
"HI&T",
"HI&T",
"HI&T",
"HI&T",
"HI&T",
"HI&T",
"HI&T",
"HI&T",
"HI&T",
"HI&T",
"HI&T",
"HI&T",
"HI&T",
"HI&T",
"HI&T",
"HI&T",
"HI&T",
"HI&T",
"HI&T",
"HI&T",
"HI&T",
"HI&T",
"HI&T",
"HI&T",
"HI&T",
"HI&T",
"HI&T",
"HI&T",
"HI&T",
"HI&T",
"HI&T",
"HI&T",
"HI&T",
"HI&T",
"HI&T",
"HI&T",
"HI&T",
"HI&T",
"HI&T",
"HI&T",
"HI&T",
"HI&T",
"HI&T",
"HI&T",
"HI&T",
"HI&T",
"HI&T",
"HI&T",
"HI&T",
"HI&T",
"HI&T",
"HI&T",
"Hk shop",
"Hopp",
"Hopp",
"Hopp",
"Hopp",
"Hopp",
"Hoian Gifts",
"Hoian Gifts",
"Hoian Gifts",
"Hoian Gifts",
"Hoian Gifts",
"Hoian Gifts",
"Hoian Gifts",
"Hoian Gifts",
"Hoian Gifts",
"Hoian Gifts",
"Hoian Gifts",
"Hoian Gifts",
"Hoian Gifts",
"Hoian Gifts",
"Hoian Gifts",
"Hoian Gifts",
"Hoian Gifts",
"Hoian Gifts",
"Hoian Gifts",
"Hoian Gifts",
"Hoian Gifts",
"Hoian Gifts",
"Hoian Gifts",
"House Of Cards",
"House Of Cards",
"HQ",
"HQ",
"HQ",
"HQ",
"HQ",
"HQ",
"HQ",
"HQ",
"HQ",
"HQ",
"HQ",
"HQ",
"Huy Hoàng",
"Huy Hoàng",
"Huy Hoàng",
"Huy Hoàng",
"Huy Hoàng",
"Huy Hoàng",
"Huy Hoàng",
"Huy Hoàng",
"Huy Hoàng",
"Huy Hoàng",
"Huy Hoàng",
"Huy Hoàng",
"Huy Hoàng",
"Huy Hoàng",
"Huy Hoàng",
"Huy Hoàng",
"Huy Hoàng",
"Huy Hoàng",
"Huy Hoàng",
"Huy Hoàng",
"Huy Hoàng",
"Huy Hoàng",
"Huy Hoàng",
"Huy Hoàng",
"Huy Hoàng",
"Huy Hoàng",
"Huy Hoàng",
"Huy Hoàng",
"Huy Hoàng",
"Huy Hoàng",
"Huy Hoàng",
"Huy Hoàng",
"Huy Hoàng",
"Huy Hoàng",
"Huy Hoàng",
"Huy Hoàng",
"Huy Hoàng",
"Huy Hoàng",
"Huy Hoàng",
"Huy Hoàng",
"Huy Hoàng",
"Huy Hoàng",
"Huy Hoàng",
"Huy Hoàng",
"Huy Hoàng",
"Huy Hoàng",
"Huy Hoàng",
"Huy Tuấn",
"Huge Man",
"Hưng Huê",
"HumMingBird",
"HumMingBird",
"HumMingBird",
"HumMingBird",
"HumMingBird",
"HumMingBird",
"HumMingBird",
"HumMingBird",
"HumMingBird",
"HumMingBird",
"HumMingBird",
"HumMingBird",
"HumMingBird",
"HumMingBird",
"HumMingBird",
"HumMingBird",
"Huy Kiệt",
"It Smart",
"Jeep",
"Jeep",
"Jeep",
"Jeep",
"ROZALO",
"Jeep",
"Jeep",
"Jóuetio",
"Juno",
"None",
"Kanguru",
"Kanguru",
"Kanguru",
"Kitybags",
"Kitybags",
"Kitybags",
"Kitybags",
"Kitybags",
"Kitybags",
"Kitybags",
"Kitybags",
"Kitybags",
"Kitybags",
"Kitybags",
"Kitybags",
"Kitybags",
"Kitybags",
"Kitybags",
"Kitybags",
"Kitybags",
"Kitybags",
"Kitybags",
"Kitybags",
"Kitybags",
"Kitybags",
"Kitybags",
"Kitybags",
"Kitybags",
"Kitybags",
"Kitybags",
"Kitybags",
"Kitybags",
"Kitybags",
"Kitybags",
"Kitybags",
"Kitybags",
"Kitybags",
"Kitybags",
"Kitybags",
"Kitybags",
"Kitybags",
"Kitybags",
"Kitybags",
"Kitybags",
"Kitybags",
"Kitybags",
"Kitybags",
"Kitybags",
"Kitybags",
"Kitybags",
"Kitybags",
"Kim Phat",
"Kim Phat",
"Kim Phat",
"Kim Phat",
"Kim Phat",
"Kim Phat",
"Kim Phat",
"Kim Phat",
"KOREA STYLE",
"Lata",
"Lata",
"Lata",
"Lata",
"Lata",
"Lata",
"Lata",
"Lata",
"Lata",
"Lata",
"Lata",
"Lata",
"Lata",
"Lata",
"Lata",
"Lata",
"Lata",
"Lata",
"Lata",
"Lata",
"Lata",
"Lata",
"Lata",
"Lata",
"Lata",
"Lata",
"Lata",
"Lata",
"Lata",
"Lata",
"Lata",
"Lata",
"Lata",
"Lata",
"Lata",
"Lata",
"Lata",
"Lata",
"Lata",
"Lata",
"Lata",
"Lata",
"Lata",
"Lata",
"Lata",
"Lata",
"Lata",
"Lata",
"Lata",
"Lata",
"Lata",
"Lata",
"Lata",
"Lata",
"Lata",
"Lata",
"Lata",
"Lata",
"Lata",
"Lata",
"Lata",
"Lata",
"Lata",
"Lata",
"Lata",
"Lata",
"Lata",
"Lata",
"Lata",
"Lata",
"Lata",
"Lata",
"Lata",
"Lata",
"Lata",
"Lata",
"Lata",
"Lata",
"Lata",
"Lata",
"Lata",
"Lata",
"Lata",
"Lata",
"Lata",
"Lata",
"Lata",
"Lata",
"Lata",
"Lata",
"Lata",
"Lata",
"Lata",
"Lata",
"Lata",
"Lata",
"Lata",
"Lata",
"Lata",
"Lata",
"Lata",
"Lata",
"Lata",
"Lata",
"Lata",
"Lata",
"Lata",
"Lata",
"Lata",
"Lata",
"Lata",
"Lata",
"Lata",
"Lata",
"Lata",
"Lata",
"Lata",
"Lata",
"Lata",
"Lata",
"Lata",
"Lata",
"Lata",
"Lata",
"Lata",
"Lata",
"Lata",
"Lata",
"Lata",
"Lata",
"Lata",
"Lata",
"Lata",
"Lata",
"Lata",
"LazaShop",
"LAKA",
"LAKA",
"LAKA",
"LAKA",
"LAKA",
"LAKA",
"L&A Fashion",
"L&A Fashion",
"L&A Fashion",
"L&A Fashion",
"L&A Fashion",
"L&A Fashion",
"Lagi",
"LazaShop",
"LazaShop",
"LazaShop",
"LazaShop",
"LazaShop",
"LazaShop",
"LazaShop",
"LazaShop",
"LazaShop",
"LazaShop",
"LazaShop",
"LazaShop",
"LazaShop",
"LazaShop",
"LazaShop",
"LazaShop",
"LazaShop",
"LazaShop",
"LazaShop",
"LazaShop",
"LazaShop",
"LazaShop",
"LazaShop",
"LazaShop",
"LazaShop",
"LazaShop",
"LazaShop",
"LazaShop",
"LazaShop",
"LazaShop",
"LazaShop",
"LazaShop",
"LazaShop",
"LazaShop",
"LazaShop",
"LazaShop",
"LazaShop",
"LazaShop",
"LazaShop",
"LazaShop",
"LazaShop",
"LazaShop",
"LazaShop",
"LazaShop",
"LazaShop",
"LazaShop",
"LazaShop",
"LazaShop",
"LazaShop",
"LazaShop",
"LazaShop",
"LazaShop",
"LazaShop",
"LazaShop",
"LazaShop",
"LazaShop",
"LazaShop",
"LazaShop",
"LazaShop",
"LazaShop",
"LazaShop",
"LazaShop",
"LazaShop",
"LazaShop",
"LazaShop",
"LazaShop",
"LazaShop",
"LazaShop",
"LazaShop",
"LazaShop",
"LazaShop",
"LazaShop",
"LazaShop",
"LazaShop",
"LazaShop",
"LazaShop",
"LazaShop",
"Letin Fashion Handbags",
"Letin Fashion Handbags",
"Letin Fashion Handbags",
"Letin Fashion Handbags",
"Letin Fashion Handbags",
"Letin Fashion Handbags",
"Letin Fashion Handbags",
"Letin Fashion Handbags",
"Letin Fashion Handbags",
"Letin Fashion Handbags",
"Letin Fashion Handbags",
"Letin Fashion Handbags",
"Letin Fashion Handbags",
"Letin Fashion Handbags",
"Letin Fashion Handbags",
"Letin Fashion Handbags",
"Letin Fashion Handbags",
"Lime Orange",
"Lime Orange",
"Lime Orange",
"Lime Orange",
"Light",
"Light",
"Light",
"Lizard",
"L&J",
"Huge Man",
"Huge Man",
"Huge Man",
"Huge Man",
"Lucky",
"Chance",
"Chance",
"Macat",
"Macat",
"Macat",
"Macat",
"Macat",
"meGirl Shoes",
"Mikkor",
"Mikkor",
"Mikkor",
"Mikkor",
"Mikkor",
"Mikkor",
"Mikkor",
"Mikkor",
"Mikkor",
"Mikkor",
"Mikkor",
"Mikkor",
"Mikkor",
"Mikkor",
"Mikkor",
"Mikkor",
"Mikkor",
"Mikkor",
"Mikkor",
"Mikkor",
"Mikkor",
"Mikkor",
"Mikkor",
"Mikkor",
"Mikkor",
"Chagrin Valley",
"Chagrin Valley",
"Chagrin Valley",
"Chagrin Valley",
"Chagrin Valley",
"MINISO",
"Mitadi",
"Mitadi",
"Mitadi",
"Minh Tâm",
"Minh Tâm",
"Minh Tâm",
"Minh Tâm",
"Minh Tâm",
"Minh Tâm",
"Minh Tâm",
"Minh Tâm",
"Minh Tâm",
"Minh Tâm",
"Minh Tâm",
"Minh Tâm",
"Minh Tâm",
"Minh Tâm",
"Minh Tâm",
"Montagna",
"Montagna",
"Montagna",
"Modacasa",
"Modacasa",
"Mountain Star",
"Mountain Star",
"None",
"None",
"Moonlight",
"Moonlight",
"Moonlight",
"Moonlight",
"Moonlight",
"Moonlight",
"Moonlight",
"Moonlight",
"Moonlight",
"Moonlight",
"Moonlight",
"Moonlight",
"Moonlight",
"Moonlight",
"Mozy",
"MPS",
"MPS",
"Mỹ Phẩm Hân Vy",
"NAVICOM",
"NAVICOM",
"NAVICOM",
"NAVICOM",
"NAVICOM",
"NAVICOM",
"NAVICOM",
"NAVICOM",
"Naza",
"Naza",
"Naza",
"Naza",
"Naza",
"Naza",
"Naza",
"Naza",
"Naza",
"Naza",
"Naza",
"Naza",
"Naza",
"Naza",
"Naza",
"Naza",
"Nhà cung cấp",
"Nhà cung cấp",
"Nhà cung cấp",
"NiceEshop",
"NiceEshop",
"NiceEshop",
"NiceEshop",
"NiceEshop",
"NiceEshop",
"NiceEshop",
"NiceEshop",
"NiceEshop",
"NiceEshop",
"NiceEshop",
"NiceEshop",
"NiceEshop",
"NiceEshop",
"NiceEshop",
"NiceEshop",
"NiceEshop",
"NiceEshop",
"NiceEshop",
"NiceEshop",
"NiceEshop",
"NiceEshop",
"NiceEshop",
"NiceEshop",
"NiceEshop",
"NiceEshop",
"NiceEshop",
"NiceEshop",
"NiceEshop",
"NiceEshop",
"NiceEshop",
"NiceEshop",
"NiceEshop",
"NiceEshop",
"NiceEshop",
"NiceEshop",
"NiceEshop",
"NiceEshop",
"NiceEshop",
"Nike",
"None",
"None",
"None",
"None",
"None",
"None",
"None",
"None",
"None",
"None",
"None",
"None",
"None",
"None",
"None",
"None",
"None",
"None",
"None",
"None",
"None",
"None",
"None",
"None",
"None",
"None",
"None",
"None",
"None",
"None",
"None",
"None",
"None",
"None",
"None",
"None",
"None",
"None",
"None",
"None",
"None",
"None",
"None",
"None",
"None",
"Cherrystudios",
"Cherrystudios",
"Cherrystudios",
"Cherrystudios",
"None",
"None",
"None",
"None",
"None",
"None",
"None",
"None",
"None",
"None",
"None",
"Cherrystudios",
"Cherrystudios",
"Cherrystudios",
"None",
"None",
"None",
"None",
"None",
"None",
"None",
"None",
"None",
"None",
"None",
"None",
"None",
"None",
"None",
"None",
"None",
"None",
"None",
"None",
"None",
"None",
"None",
"None",
"None",
"None",
"None",
"None",
"None",
"None",
"None",
"None",
"None",
"None",
"None",
"None",
"None",
"None",
"None",
"None",
"None",
"None",
"None",
"None",
"None",
"None",
"None",
"None",
"None",
"None",
"None",
"None",
"None",
"None",
"None",
"None",
"None",
"None",
"None",
"None",
"None",
"None",
"None",
"None",
"None",
"None",
"None",
"None",
"None",
"None",
"None",
"None",
"None",
"None",
"None",
"None",
"None",
"None",
"None",
"None",
"None",
"None",
"None",
"None",
"None",
"None",
"None",
"None",
"None",
"None",
"None",
"None",
"None",
"None",
"None",
"None",
"None",
"None",
"None",
"None",
"None",
"None",
"None",
"None",
"None",
"None",
"None",
"None",
"None",
"None",
"None",
"None",
"None",
"None",
"None",
"None",
"None",
"None",
"None",
"None",
"None",
"None",
"None",
"None",
"None",
"None",
"None",
"None",
"None",
"None",
"None",
"None",
"None",
"None",
"None",
"None",
"None",
"None",
"None",
"None",
"None",
"None",
"None",
"None",
"None",
"None",
"None",
"None",
"None",
"None",
"None",
"None",
"None",
"None",
"None",
"None",
"None",
"None",
"None",
"None",
"None",
"None",
"None",
"None",
"None",
"None",
"None",
"None",
"None",
"None",
"None",
"None",
"None",
"None",
"None",
"None",
"None",
"None",
"None",
"None",
"None",
"None",
"None",
"None",
"None",
"None",
"None",
"None",
"None",
"None",
"None",
"None",
"None",
"None",
"None",
"None",
"None",
"None",
"None",
"None",
"None",
"None",
"None",
"None",
"None",
"None",
"None",
"None",
"None",
"None",
"None",
"None",
"None",
"None",
"None",
"None",
"None",
"None",
"None",
"None",
"None",
"None",
"None",
"None",
"None",
"None",
"None",
"None",
"None",
"None",
"None",
"None",
"None",
"None",
"None",
"None",
"None",
"None",
"None",
"None",
"None",
"None",
"None",
"None",
"None",
"None",
"None",
"None",
"None",
"None",
"None",
"None",
"None",
"None",
"None",
"None",
"None",
"None",
"None",
"None",
"None",
"None",
"None",
"None",
"None",
"None",
"None",
"None",
"None",
"None",
"None",
"None",
"None",
"None",
"None",
"None",
"None",
"None",
"None",
"None",
"None",
"None",
"None",
"None",
"None",
"None",
"None",
"None",
"None",
"None",
"None",
"None",
"None",
"None",
"None",
"None",
"None",
"None",
"None",
"None",
"None",
"None",
"None",
"None",
"None",
"None",
"None",
"None",
"None",
"None",
"None",
"None",
"None",
"None",
"None",
"None",
"None",
"None",
"None",
"None",
"None",
"None",
"None",
"None",
"None",
"None",
"None",
"None",
"None",
"None",
"None",
"None",
"None",
"None",
"None",
"None",
"None",
"None",
"None",
"None",
"None",
"None",
"None",
"None",
"None",
"None",
"None",
"None",
"None",
"None",
"None",
"None",
"None",
"None",
"None",
"None",
"None",
"None",
"None",
"None",
"None",
"None",
"None",
"None",
"None",
"None",
"None",
"None",
"None",
"None",
"None",
"None",
"None",
"None",
"None",
"None",
"None",
"None",
"None",
"None",
"None",
"None",
"None",
"None",
"None",
"None",
"None",
"None",
"None",
"None",
"None",
"None",
"None",
"None",
"None",
"None",
"None",
"None",
"None",
"None",
"None",
"None",
"None",
"None",
"None",
"None",
"None",
"None",
"None",
"None",
"None",
"None",
"None",
"None",
"Gogo Bag",
"Gogo Bag",
"None",
"None",
"None",
"None",
"None",
"None",
"None",
"None",
"None",
"None",
"None",
"None",
"None",
"None",
"None",
"None",
"None",
"None",
"None",
"None",
"None",
"None",
"None",
"None",
"Gogo Bag",
"Gogo Bag",
"None",
"Gogo Bag",
"None",
"Gogo Bag",
"None",
"None",
"None",
"None",
"None",
"Gogo Bag",
"Gogo Bag",
"None",
"None",
"None",
"None",
"None",
"None",
"None",
"None",
"None",
"None",
"None",
"None",
"None",
"None",
"None",
"None",
"None",
"None",
"None",
"None",
"None",
"None",
"None",
"None",
"None",
"None",
"None",
"None",
"None",
"None",
"None",
"None",
"None",
"None",
"None",
"None",
"None",
"None",
"None",
"None",
"None",
"None",
"None",
"None",
"None",
"None",
"None",
"None",
"None",
"None",
"None",
"None",
"None",
"None",
"None",
"None",
"None",
"None",
"None",
"None",
"None",
"None",
"None",
"None",
"None",
"None",
"None",
"None",
"None",
"None",
"None",
"None",
"None",
"None",
"None",
"None",
"None",
"None",
"None",
"None",
"None",
"None",
"None",
"None",
"None",
"None",
"None",
"None",
"None",
"CONBONEE",
"CONBONEE",
"CONBONEE",
"None",
"None",
"None",
"None",
"None",
"None",
"None",
"None",
"None",
"None",
"None",
"None",
"None",
"None",
"None",
"None",
"None",
"None",
"None",
"None",
"Not Specified",
"Not Specified",
"Not Specified",
"Not Specified",
"Not Specified",
"Not Specified",
"OEM",
"OEM",
"OEM",
"Not Specified",
"Not Specified",
"Not Specified",
"Not Specified",
"Not Specified",
"Not Specified",
"OEM",
"OEM",
"OEM",
"OEM",
"OEM",
"OEM",
"OEM",
"Not Specified",
"OEM",
"OEM",
"OEM",
"OEM",
"Not Specified",
"Not Specified",
"Not Specified",
"OEM",
"OEM",
"OEM",
"OEM",
"OEM",
"OEM",
"OEM",
"OEM",
"Not Specified",
"Not Specified",
"OEM",
"OEM",
"Not Specified",
"Not Specified",
"OEM",
"Not Specified",
"OEM",
"OEM",
"Not Specified",
"Not Specified",
"OEM",
"OEM",
"Not Specified",
"OEM",
"Not Specified",
"Not Specified",
"Not Specified",
"Not Specified",
"Not Specified",
"Not Specified",
"Not Specified",
"Not Specified",
"Not Specified",
"Not Specified",
"Not Specified",
"Not Specified",
"Not Specified",
"Not Specified",
"Not Specified",
"Not Specified",
"Not Specified",
"Not Specified",
"Not Specified",
"Not Specified",
"Not Specified",
"Not Specified",
"Not Specified",
"Not Specified",
"Not Specified",
"Not Specified",
"Not Specified",
"Not Specified",
"Not Specified",
"Not Specified",
"Not Specified",
"Not Specified",
"Not Specified",
"Not Specified",
"Not Specified",
"Not Specified",
"Not Specified",
"Not Specified",
"Not Specified",
"Not Specified",
"Not Specified",
"Not Specified",
"Not Specified",
"Not Specified",
"Not Specified",
"Not Specified",
"Not Specified",
"Not Specified",
"Not Specified",
"Not Specified",
"Not Specified",
"Not Specified",
"Not Specified",
"Not Specified",
"Not Specified",
"Not Specified",
"Not Specified",
"Not Specified",
"Not Specified",
"Not Specified",
"Not Specified",
"Not Specified",
"Not Specified",
"Not Specified",
"Not Specified",
"Not Specified",
"Not Specified",
"Not Specified",
"Not Specified",
"Not Specified",
"Not Specified",
"Not Specified",
"Not Specified",
"Not Specified",
"Not Specified",
"Not Specified",
"Not Specified",
"Not Specified",
"Not Specified",
"Not Specified",
"Not Specified",
"Not Specified",
"Not Specified",
"Not Specified",
"Not Specified",
"Not Specified",
"Not Specified",
"Not Specified",
"Not Specified",
"Not Specified",
"Not Specified",
"Not Specified",
"Not Specified",
"Not Specified",
"Not Specified",
"Not Specified",
"Not Specified",
"Not Specified",
"Not Specified",
"Not Specified",
"Not Specified",
"Not Specified",
"Not Specified",
"Not Specified",
"Not Specified",
"Not Specified",
"Not Specified",
"Not Specified",
"Not Specified",
"Not Specified",
"Not Specified",
"Not Specified",
"Not Specified",
"Not Specified",
"Not Specified",
"Not Specified",
"Not Specified",
"Not Specified",
"Not Specified",
"Not Specified",
"Not Specified",
"Not Specified",
"Not Specified",
"Not Specified",
"Not Specified",
"Not Specified",
"Not Specified",
"Not Specified",
"Not Specified",
"Not Specified",
"Not Specified",
"Not Specified",
"Not Specified",
"Not Specified",
"Not Specified",
"Not Specified",
"Not Specified",
"Not Specified",
"Not Specified",
"Not Specified",
"Not Specified",
"Not Specified",
"Not Specified",
"Not Specified",
"Not Specified",
"Not Specified",
"Not Specified",
"Not Specified",
"Not Specified",
"Not Specified",
"Not Specified",
"Not Specified",
"Not Specified",
"Not Specified",
"Not Specified",
"Not Specified",
"Not Specified",
"Not Specified",
"Not Specified",
"Not Specified",
"Not Specified",
"Not Specified",
"Not Specified",
"Not Specified",
"Not Specified",
"Not Specified",
"Not Specified",
"Not Specified",
"Not Specified",
"Not Specified",
"Not Specified",
"Not Specified",
"Not Specified",
"Not Specified",
"Not Specified",
"Not Specified",
"Not Specified",
"Not Specified",
"Not Specified",
"Not Specified",
"Not Specified",
"Not Specified",
"Not Specified",
"Not Specified",
"Not Specified",
"Not Specified",
"Not Specified",
"Not Specified",
"Not Specified",
"Not Specified",
"Not Specified",
"Not Specified",
"Not Specified",
"Not Specified",
"Not Specified",
"Not Specified",
"Not Specified",
"Not Specified",
"Not Specified",
"Not Specified",
"Not Specified",
"Not Specified",
"Not Specified",
"Not Specified",
"Not Specified",
"Not Specified",
"Not Specified",
"Not Specified",
"Not Specified",
"Not Specified",
"Not Specified",
"Not Specified",
"Not Specified",
"Not Specified",
"Not Specified",
"Not Specified",
"Not Specified",
"Not Specified",
"Not Specified",
"Not Specified",
"No",
"No",
"Not Specified",
"Not Specified",
"None",
"NVPro",
"NVPro",
"NVPro",
"NVPro",
"NVPro",
"NVPro",
"NVPro",
"NVPro",
"OEM",
"OEM",
"OEM",
"OEM",
"OEM",
"OEM",
"OEM",
"OEM",
"OEM",
"OEM",
"OEM",
"OEM",
"OEM",
"OEM",
"OEM",
"OEM",
"OEM",
"OEM",
"OEM",
"OEM",
"OEM",
"OEM",
"OEM",
"OEM",
"OEM",
"OEM",
"OEM",
"OEM",
"OEM",
"OEM",
"OEM",
"OEM",
"OEM",
"OEM",
"OEM",
"OEM",
"OEM",
"OEM",
"OEM",
"OEM",
"OEM",
"OEM",
"OEM",
"OEM",
"OEM",
"OEM",
"OEM",
"OEM",
"OEM",
"OEM",
"OEM",
"OEM",
"OEM",
"OEM",
"OEM",
"OEM",
"OEM",
"OEM",
"OEM",
"OEM",
"OEM",
"OEM",
"OEM",
"OEM",
"OEM",
"OEM",
"OEM",
"OEM",
"OEM",
"OEM",
"OEM",
"OEM",
"OEM",
"OEM",
"OEM",
"OEM",
"OEM",
"OEM",
"OEM",
"OEM",
"OEM",
"OEM",
"OEM",
"OEM",
"OEM",
"OEM",
"OEM",
"OEM",
"OEM",
"OEM",
"OEM",
"OEM",
"OEM",
"OEM",
"OEM",
"OEM",
"OEM",
"OEM",
"OEM",
"OEM",
"OEM",
"OEM",
"OEM",
"OEM",
"OEM",
"OEM",
"OEM",
"OEM",
"OEM",
"OEM",
"OEM",
"OEM",
"OEM",
"OEM",
"OEM",
"OEM",
"OEM",
"OEM",
"OEM",
"OEM",
"OEM",
"OEM",
"OEM",
"OEM",
"OEM",
"OEM",
"OEM",
"OEM",
"OEM",
"OEM",
"OEM",
"OEM",
"OEM",
"OEM",
"OEM",
"OEM",
"OEM",
"OEM",
"OEM",
"OEM",
"OEM",
"OEM",
"OEM",
"OEM",
"OEM",
"OEM",
"OEM",
"OEM",
"OEM",
"OEM",
"OEM",
"OEM",
"OEM",
"OEM",
"OEM",
"OEM",
"OEM",
"OEM",
"OEM",
"OEM",
"OEM",
"OEM",
"OEM",
"OEM",
"OEM",
"OEM",
"OEM",
"OEM",
"OEM",
"OEM",
"OEM",
"OEM",
"OEM",
"OEM",
"OEM",
"OEM",
"OEM",
"OEM",
"OEM",
"OEM",
"OEM",
"OEM",
"OEM",
"OEM",
"OEM",
"OEM",
"OEM",
"OEM",
"OEM",
"OEM",
"OEM",
"OEM",
"OEM",
"OEM",
"OEM",
"OEM",
"OEM",
"OEM",
"OEM",
"OEM",
"OEM",
"OEM",
"OEM",
"OEM",
"OEM",
"OEM",
"OEM",
"OEM",
"OEM",
"OEM",
"OEM",
"OEM",
"OEM",
"OEM",
"OEM",
"OEM",
"OEM",
"OEM",
"OEM",
"OEM",
"OEM",
"OEM",
"OEM",
"OEM",
"OEM",
"OEM",
"OEM",
"OEM",
"OEM",
"OEM",
"OEM",
"OEM",
"OEM",
"OEM",
"OEM",
"OEM",
"OEM",
"OEM",
"OEM",
"OEM",
"OEM",
"OEM",
"OEM",
"OEM",
"OEM",
"OEM",
"OEM",
"OEM",
"OEM",
"OEM",
"OEM",
"OEM",
"OEM",
"OEM",
"OEM",
"OEM",
"OEM",
"OEM",
"OEM",
"OEM",
"OEM",
"OEM",
"OEM",
"OEM",
"OEM",
"OEM",
"OEM",
"OEM",
"OEM",
"OEM",
"OEM",
"OEM",
"OEM",
"OEM",
"OEM",
"OEM",
"OEM",
"PRAZA",
"PRAZA",
"PRAZA",
"PRAZA",
"PRAZA",
"PRAZA",
"PRAZA",
"PRAZA",
"PRAZA",
"PRAZA",
"PRAZA",
"OEM",
"OEM",
"OEM",
"OEM",
"OEM",
"LazaShop",
"PRAZA",
"PRAZA",
"PRAZA",
"PRAZA",
"PRAZA",
"PRAZA",
"PRAZA",
"PRAZA",
"PRAZA",
"PRAZA",
"OEM",
"PRAZA",
"PRAZA",
"PRAZA",
"PRAZA",
"PRAZA",
"PRAZA",
"PRAZA",
"PRAZA",
"PRAZA",
"PRAZA",
"PRAZA",
"PRAZA",
"PRAZA",
"PRAZA",
"PRAZA",
"PRAZA",
"PRAZA",
"PRAZA",
"PRAZA",
"PRAZA",
"PRAZA",
"PRAZA",
"PRAZA",
"PRAZA",
"PRAZA",
"PRAZA",
"PRAZA",
"OEM",
"OEM",
"OEM",
"OEM",
"PRAZA",
"PRAZA",
"PRAZA",
"PRAZA",
"PRAZA",
"PRAZA",
"PRAZA",
"PRAZA",
"PRAZA",
"PRAZA",
"PRAZA",
"PRAZA",
"PRAZA",
"PRAZA",
"PRAZA",
"PRAZA",
"PRAZA",
"PRAZA",
"PRAZA",
"OEM",
"PRAZA",
"PRAZA",
"PRAZA",
"OEM",
"OEM",
"OEM",
"PRAZA",
"OEM",
"OEM",
"PRAZA",
"PRAZA",
"PRAZA",
"PRAZA",
"PRAZA",
"PRAZA",
"OEM",
"OEM",
"PRAZA",
"OEM",
"OEM",
"OEM",
"OEM",
"OEM",
"OEM",
"OEM",
"PRAZA",
"PRAZA",
"PRAZA",
"PRAZA",
"PRAZA",
"PRAZA",
"PRAZA",
"PRAZA",
"PRAZA",
"PRAZA",
"PRAZA",
"PRAZA",
"OEM",
"OEM",
"OEM",
"OEM",
"OEM",
"OEM",
"PRAZA",
"OEM",
"OEM",
"OEM",
"OEM",
"OEM",
"OEM",
"OEM",
"OEM",
"OEM",
"OEM",
"OEM",
"OEM",
"OEM",
"OEM",
"OEM",
"OEM",
"OEM",
"OEM",
"OEM",
"OEM",
"OEM",
"OEM",
"OEM",
"OEM",
"OEM",
"OEM",
"OEM",
"OEM",
"OEM",
"OEM",
"OEM",
"OEM",
"OEM",
"OEM",
"OEM",
"OEM",
"OEM",
"OEM",
"OEM",
"OEM",
"OEM",
"OEM",
"OEM",
"OEM",
"OEM",
"OEM",
"OEM",
"OEM",
"OEM",
"OEM",
"OEM",
"OEM",
"OEM",
"OEM",
"OEM",
"OEM",
"OEM",
"OEM",
"OEM",
"OEM",
"OEM",
"OEM",
"OEM",
"OEM",
"OEM",
"OEM",
"OEM",
"OEM",
"PRAZA",
"PRAZA",
"Other brands",
"Other brands",
"Other brands",
"OEM",
"OEM",
"PG Bag",
"PG Bag",
"PG Bag",
"PG Bag",
"PG Bag",
"PG Bag",
"PG Bag",
"Phúc's Shop",
"Phúc's Shop",
"Phúc An",
"Phúc An",
"PhukienPhuongLoan",
"PHONENIX",
"Phụ Kiện Thuận Lợi",
"DT",
"Polo Videng",
"DT",
"DT",
"Thanh Long",
"Thanh Long",
"Hanama",
"None",
"None",
"Polo Videng",
"None",
"Captuida",
"Captuida",
"PRAZA",
"PRAZA",
"PRAZA",
"PRAZA",
"PRAZA",
"PRAZA",
"PRAZA",
"PRAZA",
"PRAZA",
"PRAZA",
"PRAZA",
"PRAZA",
"PRAZA",
"PRAZA",
"PRAZA",
"PRAZA",
"PRAZA",
"PRAZA",
"PRAZA",
"PRAZA",
"PRAZA",
"PRAZA",
"PRAZA",
"PRAZA",
"PRAZA",
"PRAZA",
"PRAZA",
"PRAZA",
"PRAZA",
"ProociVN",
"ProociVN",
"ProociVN",
"ProociVN",
"P&T",
"P&T",
"P&T",
"QUEEN",
"QUEEN",
"QUEEN",
"QUEEN",
"QUEEN",
"QUEEN",
"QUEEN",
"QUEEN",
"QUEEN",
"Rhinos Life",
"Rhinos Life",
"Ronal",
"Ronal",
"ROZALO",
"ROZALO",
"ROZALO",
"ROZALO",
"ROZALO",
"ROZALO",
"ROZALO",
"ROZALO",
"ROZALO",
"Ropuna",
"Sakos",
"Salome Fashion",
"Salome Fashion",
"Salome Fashion",
"Salome Fashion",
"Salome Fashion",
"Seahorse Underwear",
"Shopphukien",
"Shopphukien",
"Shopphukien",
"Shopphukien",
"Shopphukien",
"Shopphukien",
"Shopphukien",
"Shopphukien",
"Shopphukien",
"Shopphukien",
"Shopphukien",
"Shopphukien",
"Shopphukien",
"Siêu Thị Phong Phú",
"Siêu Thị Phong Phú",
"Siêu Thị Phong Phú",
"Siêu Thị Phong Phú",
"Siêu Thị Phong Phú",
"Siêu Thị Phong Phú",
"Siêu Thị Phong Phú",
"Siêu Thị Phong Phú",
"Siêu Thị Phong Phú",
"Siêu Thị Phong Phú",
"Siêu Thị Phong Phú",
"Siêu Thị Phong Phú",
"Siêu Thị Phong Phú",
"Siêu Thị Phong Phú",
"Siêu Thị Phong Phú",
"Siêu Thị Phong Phú",
"Siêu Thị Phong Phú",
"Siêu Thị Phong Phú",
"Siêu Thị Phong Phú",
"Siêu Thị Phong Phú",
"Siêu Thị Phong Phú",
"Siêu Thị Phong Phú",
"Siêu Thị Phong Phú",
"Siêu Thị Phong Phú",
"Siêu Thị Tuổi Teen",
"Siêu Thị Tuổi Teen",
"Siêu Thị Tuổi Teen",
"Siêu Thị Tuổi Teen",
"Siêu Thị Tuổi Teen",
"Siêu Thị Tuổi Teen",
"SKULMATE",
"SKULMATE",
"SoYoung",
"SoYoung",
"SoYoung",
"Sonoz",
"Sonoz",
"Sonoz",
"Sony",
"Sony",
"Suvi",
"Suvi",
"Suvi",
"Suvi",
"Suvi",
"Suvi",
"Suvi",
"Suvi",
"Suvi",
"Suvi",
"Suvi",
"Suvi",
"Suvi",
"Suvi",
"Suvi",
"Suvi",
"Suvi",
"Suvi",
"Suvi",
"Suvi",
"Suvi",
"Suvi",
"Suvi",
"Suvi",
"Suvi",
"Suvi",
"Suvi",
"Suvi",
"Suvi",
"Suvi",
"Suvi",
"Suvi",
"Suvi",
"Suvi",
"Suvi",
"Suvi",
"Suvi",
"Suvi",
"Suvi",
"Suvi",
"Suvi",
"Suvi",
"Suvi",
"Suvi",
"Suvi",
"Suvi",
"Suvi",
"Suvi",
"Suvi",
"Suvi",
"Suvi",
"Suvi",
"Suvi",
"Suvi",
"Suvi",
"Suvi",
"Suvi",
"Suvi",
"Suvi",
"Suvi",
"Suvi",
"Suvi",
"Suvi",
"Suvi",
"Suvi",
"Suvi",
"Suvi",
"Suvi",
"Suvi",
"Suvi",
"Suvi",
"Suvi",
"Suvi",
"Suvi",
"Suvi",
"Suvi",
"Suvi",
"Suvi",
"Suvi",
"Suvi",
"Suvi",
"Suvi",
"Suvi",
"Suvi",
"Suvi",
"Suvi",
"Suvi",
"Suvi",
"Suvi",
"Suvi",
"Suvi",
"Suvi",
"Suvi",
"Suvi",
"Suvi",
"Suvi",
"Suvi",
"Suvi",
"Suvi",
"Suvi",
"Suvi",
"Suvi",
"Suvi",
"Suvi",
"Suvi",
"Suvi",
"Suvi",
"Suvi",
"Suvi",
"Suvi",
"Suvi",
"Suvi",
"Suvi",
"Suvi",
"Suvi",
"Suvi",
"Suvi",
"Suvi",
"Suvi",
"Suvi",
"Suvi",
"Suvi",
"Suvi",
"Suvi",
"Suvi",
"Suvi",
"Suvi",
"Suvi",
"Suvi",
"Suvi",
"Suvi",
"Suvi",
"Suvi",
"Suvi",
"Suvi",
"Suvi",
"Suvi",
"Suvi",
"Suvi",
"Suvi",
"Suvi",
"Suvi",
"Suvi",
"Suvi",
"Suvi",
"Suvi",
"Suvi",
"Suvi",
"Suvi",
"Suvi",
"Suvi",
"Suvi",
"Suvi",
"Suvi",
"Suvi",
"Suvi",
"Suvi",
"Suvi",
"Suvi",
"Suvi",
"Suvi",
"Suvi",
"Suvi",
"Suvi",
"Suvi",
"Suvi",
"Suvi",
"Suvi",
"Suvi",
"Suvi",
"Suvi",
"Suvi",
"Suvi",
"Suvi",
"Suvi",
"Suvi",
"Suvi",
"Suvi",
"Suvi",
"Suvi",
"Suvi",
"Suvi",
"Suvi",
"Suvi",
"Suvi",
"Suvi",
"Suvi",
"Suvi",
"Suvi",
"Suvi",
"Suvi",
"Suvi",
"Suvi",
"Suvi",
"Suvi",
"Suvi",
"Suvi",
"Suvi",
"Suvi",
"Suvi",
"Suvi",
"Suvi",
"Suvi",
"Suvi",
"Suvi",
"Suvi",
"Suvi",
"Suvi",
"Suvi",
"Suvi",
"Suvi",
"Suvi",
"Suvi",
"Suvi",
"Suvi",
"Suvi",
"Suvi",
"Suvi",
"Suvi",
"Suvi",
"Suvi",
"Suvi",
"Suvi",
"Suvi",
"Suvi",
"Suvi",
"Suvi",
"Suvi",
"Suvi",
"Suvi",
"Suvi",
"Suvi",
"Suvi",
"Suvi",
"Suvi",
"Suvi",
"Suvi",
"Suvi",
"Suvi",
"Suvi",
"Suvi",
"Suvi",
"Suvi",
"Suvi",
"Suvi",
"Suvi",
"Suvi",
"Suvi",
"Suvi",
"Suvi",
"Suvi",
"Suvi",
"Suvi",
"Suvi",
"Suvi",
"Suvi",
"Suvi",
"Suvi",
"Suvi",
"Suvi",
"Suvi",
"Suvi",
"Suvi",
"Suvi",
"Suvi",
"Suvi",
"Suvi",
"Suvi",
"Suvi",
"Suvi",
"Suvi",
"Tâm Bình",
"Tâm Bình",
"Tâm Bình",
"Tâm Bình",
"Tâm Bình",
"Tâm Bình",
"Tâm Bình",
"Tâm Bình",
"Tâm Bình",
"Tâm Bình",
"Tâm Bình",
"Tâm Bình",
"Tâm Bình",
"Tâm Bình",
"Tâm Bình",
"Tâm Bình",
"Tâm Bình",
"Tâm Bình",
"Tâm Bình",
"Tâm Bình",
"Tâm Bình",
"Tâm Bình",
"Tâm Bình",
"Tâm Bình",
"Tâm Bình",
"Tâm Bình",
"Tâm Bình",
"Tâm Bình",
"Tâm Bình",
"Tâm Bình",
"Tâm Bình",
"Tâm Bình",
"Tâm Bình",
"Tâm Bình",
"Tâm Bình",
"Tâm Bình",
"Tâm Bình",
"Tâm Bình",
"Tâm Bình",
"Tâm Bình",
"Tâm Bình",
"Tâm Bình",
"Tâm Bình",
"Tâm Bình",
"Tâm Bình",
"Tâm Bình",
"Tâm Bình",
"Tâm Bình",
"Tâm Bình",
"Tâm Bình",
"Tâm Bình",
"Tâm Bình",
"Tâm Bình",
"Tâm Bình",
"Tâm Bình",
"Tâm Bình",
"Tâm Bình",
"Tâm Bình",
"Tâm Bình",
"Tâm Bình",
"Tâm Bình",
"Tâm House",
"Tâm House",
"Tâm House",
"Tâm House",
"Tâm House",
"Tâm House",
"Tâm House",
"Tâm House",
"Tâm House",
"Tâm House",
"Tâm House",
"Tâm House",
"Tâm House",
"TAS",
"Teemzone",
"The real partner",
"The real partner",
"Đồ Da Thành Long TLG",
"Đồ Da Thành Long TLG",
"Đồ Da Thành Long TLG",
"Đồ Da Thành Long TLG",
"Đồ Da Thành Long TLG",
"Đồ Da Thành Long TLG",
"Đồ Da Thành Long TLG",
"Đồ Da Thành Long TLG",
"Đồ Da Thành Long TLG",
"Đồ Da Thành Long TLG",
"Đồ Da Thành Long TLG",
"Đồ Da Thành Long TLG",
"Đồ Da Thành Long TLG",
"Đồ Da Thành Long TLG",
"Đồ Da Thành Long TLG",
"Đồ Da Thành Long TLG",
"Thời Trang Giá Gốc",
"Thời Trang Giá Gốc",
"Thời Trang Giá Gốc",
"Thời Trang Giá Gốc",
"Thời Trang Giá Gốc",
"Thời Trang Giá Gốc",
"Thời Trang Giá Gốc",
"Thời Trang Giá Gốc",
"Thời Trang Giá Gốc",
"Thời Trang Giá Gốc",
"Thời Trang Giá Gốc",
"Thời Trang Giá Gốc",
"Thời Trang Giá Gốc",
"Thời Trang Giá Gốc",
"Thời Trang Giá Gốc",
"Thời Trang Giá Gốc",
"Thời Trang Giá Gốc",
"Thời Trang Giá Gốc",
"None",
"Thời Trang Giá Gốc",
"Thời Trang Giá Gốc",
"Thời Trang Giá Gốc",
"Thời Trang Giá Gốc",
"Thời Trang Giá Gốc",
"Thời Trang Giá Gốc",
"Thời Trang Giá Gốc",
"Thời Trang Giá Gốc",
"Thời Trang Giá Gốc",
"Thời Trang Giá Gốc",
"Thời Trang Giá Gốc",
"Thời Trang Giá Gốc",
"Thời Trang Giá Gốc",
"Thời Trang Giá Gốc",
"Thời Trang Giá Gốc",
"Thời Trang Giá Gốc",
"Thời Trang Giá Gốc",
"Thời Trang Giá Gốc",
"Thời Trang Giá Gốc",
"Thời Trang Giá Gốc",
"Thời Trang Giá Gốc",
"Thời Trang Giá Gốc",
"Thanh Long",
"Thanh Long",
"Thanh Long",
"Thanh Long",
"Thanh Long",
"Thanh Long",
"Thanh Long",
"Thanh Long",
"Thanh Long",
"Thanh Long",
"Thanh Long",
"Thanh Long",
"Thanh Long",
"Đồ Da Thành Long TLG",
"Thanh Long",
"Thanh Long",
"Thanh Long",
"Thanh Long",
"Thanh Long",
"Thanh Long",
"Thanh Long",
"Thanh Long",
"Thailand",
"Thailand",
"Thailand",
"Thailand",
"Thailand",
"Thailand",
"Thailand",
"Thailand",
"Thailand",
"Thailand",
"Thailand",
"Thailand",
"Thailand",
"Thailand",
"Thailand",
"Thailand",
"Thailand",
"Thailand",
"Thailand",
"Thailand",
"Thailand",
"Thailand",
"Thailand",
"Thailand",
"Thailand",
"Thailand",
"Thailand",
"Thailand",
"Thailand",
"Thoi trang 3s",
"Thoi trang 3s",
"Thoi trang 3s",
"Thoi trang 3s",
"Thoi trang 3s",
"Thoi trang 3s",
"Thoi trang 3s",
"Thoi trang 3s",
"Thoi trang 3s",
"Titishop",
"Titishop",
"Titishop",
"Titishop",
"Titishop",
"Shop Tình Nhân",
"Shop Tình Nhân",
"Shop Tình Nhân",
"Shop Tình Nhân",
"Túi xách rẻ đẹp",
"TNT",
"TNT",
"TNT",
"TNT",
"TNT",
"TNT",
"TNT",
"TNT",
"TNT",
"TNT",
"TNT",
"TNT",
"TNT",
"TNT",
"TNT",
"TNT",
"TNT",
"TNT",
"TNT",
"TNT",
"TOPPU",
"TOPPU",
"Tomi",
"Tomi",
"Tomi",
"Trường Tiến",
"Trường Tiến",
"Trường Tiến",
"Trum Bo",
"Trum Bo",
"Troy",
"Troy",
"Troy",
"Troy",
"Troy",
"Troy",
"Troy",
"Troy",
"Troy",
"Troy",
"Troy",
"Troy",
"None",
"None",
"T&T",
"T&T",
"T&T",
"T&T",
"T&T",
"T&T",
"Tucano",
"tuibopda.com",
"tuibopda.com",
"tuibopda.com",
"tuibopda.com",
"tuibopda.com",
"tuibopda.com",
"tuibopda.com",
"tuibopda.com",
"tuibopda.com",
"tuibopda.com",
"tuibopda.com",
"Twin",
"Twin",
"TXTTN",
"TXTTN",
"4U",
"4U",
"TXTTN",
"TXTTN",
"4U",
"4U",
"TXTTN",
"TXTTN",
"TXTTN",
"4U",
"TXTTN",
"TXTTN",
"TXTTN",
"4U",
"TXTTN",
"TXTTN",
"TXTTN",
"4U",
"4U",
"4U",
"TXTTN",
"TXTTN",
"TXTTN",
"Ubesthouse",
"Unbrand",
"Unbranded",
"Unbranded",
"Unbranded",
"Unbranded",
"OEM",
"Unbranded",
"OEM",
"OEM",
"OEM",
"Unbranded",
"OEM",
"Unbranded",
"Unbranded",
"OEM",
"Unbranded",
"OEM",
"Unbranded",
"OEM",
"OEM",
"Unbranded",
"OEM",
"OEM",
"Unbranded",
"Unbranded",
"Unbranded",
"Unbranded",
"Unbranded",
"Unbranded",
"Unbranded",
"OEM",
"Unbranded",
"Unbranded",
"Unbranded",
"Unbranded",
"OEM",
"Unbranded",
"Unbranded",
"Unbranded",
"Unbranded",
"Unbranded",
"Unbranded",
"Unbranded",
"OEM",
"OEM",
"OEM",
"Unbranded",
"Unbranded",
"Unbranded",
"Unbranded",
"Unbranded",
"Unbranded",
"Unbranded",
"Unbranded",
"Unbranded",
"Unbranded",
"Unbranded",
"Unbranded",
"Unbranded",
"Unbranded",
"Unbranded",
"Unbranded",
"Unbranded",
"Unbranded",
"OEM",
"OEM",
"OEM",
"Unbranded",
"OEM",
"OEM",
"OEM",
"Unbranded",
"OEM",
"OEM",
"OEM",
"Unbranded",
"OEM",
"Unbranded",
"OEM",
"OEM",
"OEM",
"OEM",
"OEM",
"Unbranded",
"OEM",
"OEM",
"OEM",
"Unbranded",
"Unbranded",
"Unbranded",
"Unbranded",
"Unbranded",
"Unbranded",
"Unbranded",
"Unbranded",
"Unbranded",
"Unbranded",
"Unbranded",
"Unbranded",
"Unbranded",
"Unbranded",
"Unbranded",
"Unbranded",
"Unbranded",
"Unbranded",
"Unbranded",
"Unbranded",
"Unbranded",
"Unbranded",
"Unbranded",
"Unbranded",
"Unbranded",
"Unbranded",
"Unbranded",
"Unbranded",
"Unbranded",
"USA Store",
"USA Store",
"USA Store",
"USA Store",
"USA Store",
"USA Store",
"USA Store",
"USA Store",
"USA Store",
"USA Store",
"USA Store",
"USA Store",
"USA Store",
"USA Store",
"USA Store",
"USA Store",
"USA Store",
"USA Store",
"USA Store",
"USA Store",
"USA Store",
"USA Store",
"USA Store",
"USA Store",
"USA Store",
"USA Store",
"USA Store",
"USA Store",
"USA Store",
"USA Store",
"USA Store",
"USA Store",
"USA Store",
"USA Store",
"USA Store",
"USA Store",
"USA Store",
"USA Store",
"USA Store",
"USA Store",
"USA Store",
"USA Store",
"USA Store",
"USA Store",
"USA Store",
"USA Store",
"USA Store",
"USA Store",
"USA Store",
"USA Store",
"USA Store",
"USA Store",
"USA Store",
"USA Store",
"USA Store",
"USA Store",
"VAKIND",
"VAKIND",
"VAKIND",
"VAKIND",
"VAKIND",
"VAKIND",
"VAKIND",
"VAKIND",
"VAKIND",
"VAKIND",
"VAKIND",
"VAKIND",
"VAKIND",
"VAKIND",
"VAKIND",
"VAKIND",
"VAKIND",
"VAKIND",
"VAKIND",
"VAKIND",
"VAKIND",
"VAKIND",
"VAKIND",
"VAKIND",
"VAKIND",
"VAKIND",
"VAKIND",
"VAKIND",
"VAKIND",
"VAKIND",
"VAKIND",
"VAKIND",
"VAKIND",
"VAKIND",
"VAKIND",
"VAKIND",
"VAKIND",
"VAKIND",
"VAKIND",
"VAKIND",
"VAKIND",
"VAKIND",
"VAKIND",
"VAKIND",
"VAKIND",
"VAKIND",
"VAKIND",
"VAKIND",
"VAKIND",
"VAKIND",
"VAKIND",
"VAKIND",
"VAKIND",
"VAKIND",
"VAKIND",
"VAKIND",
"VAKIND",
"VAKIND",
"VAKIND",
"VAKIND",
"VAKIND",
"VAKIND",
"VAKIND",
"VAKIND",
"VAKIND",
"VAKIND",
"VAKIND",
"VAKIND",
"VAKIND",
"VAKIND",
"VAKIND",
"VAKIND",
"VAKIND",
"VAKIND",
"VAKIND",
"VAKIND",
"VAKIND",
"VAKIND",
"VAKIND",
"VAKIND",
"VAKIND",
"VAKIND",
"VAKIND",
"VAKIND",
"VAKIND",
"VAKIND",
"VAKIND",
"VAKIND",
"VAKIND",
"VAKIND",
"VAKIND",
"VAKIND",
"VAKIND",
"VAKIND",
"VAKIND",
"VAKIND",
"VAKIND",
"VAKIND",
"VAKIND",
"VAKIND",
"VAKIND",
"VAKIND",
"VAKIND",
"VAKIND",
"VAKIND",
"VAKIND",
"VAKIND",
"VAKIND",
"VAKIND",
"VAKIND",
"VAKIND",
"VAKIND",
"VAKIND",
"VAKIND",
"VAKIND",
"VAKIND",
"VAKIND",
"VAKIND",
"VAKIND",
"VAKIND",
"VAKIND",
"VAKIND",
"VAKIND",
"VAKIND",
"VAKIND",
"VAKIND",
"VAKIND",
"VAKIND",
"VAKIND",
"VAKIND",
"VAKIND",
"VAKIND",
"VAKIND",
"VAKIND",
"VAKIND",
"VAKIND",
"VAKIND",
"VAKIND",
"VAKIND",
"VAKIND",
"VAKIND",
"VAKIND",
"VAKIND",
"VAKIND",
"VAKIND",
"VAKIND",
"VAKIND",
"VAKIND",
"VAKIND",
"VAKIND",
"VAKIND",
"VAKIND",
"VAKIND",
"VAKIND",
"VAKIND",
"VAKIND",
"VAKIND",
"VAKIND",
"VAKIND",
"VAKIND",
"VAKIND",
"VAKIND",
"VAKIND",
"VAKIND",
"VAKIND",
"VAKIND",
"VAKIND",
"VAKIND",
"VAKIND",
"VAKIND",
"VAKIND",
"VAKIND",
"VAKIND",
"VAKIND",
"VAKIND",
"VAKIND",
"VAKIND",
"VAKIND",
"VAKIND",
"VAKIND",
"VAKIND",
"VAKIND",
"VAKIND",
"VAKIND",
"Verygood",
"Verygood",
"Verygood",
"Verygood",
"Verygood",
"Verygood",
"Verygood",
"Verygood",
"Verygood",
"Verygood",
"Verygood",
"Verygood",
"Verygood",
"Verygood",
"Verygood",
"Vinadeal.net",
"Vinadeal.net",
"Vinadeal.net",
"Vinadeal.net",
"Vinadeal.net",
"Vinadeal.net",
"Vinadeal.net",
"Vinadeal.net",
"Vinadeal.net",
"Vinadeal.net",
"Vinadeal.net",
"Vinadeal.net",
"Vinadeal.net",
"Vinadeal.net",
"Vinadeal.net",
"Vinadeal.net",
"Vinadeal.net",
"Vinadeal.net",
"Vinadeal.net",
"Vinadeal.net",
"Vinadeal.net",
"Vinadeal.net",
"Vinadeal.net",
"Vinadeal.net",
"Vinadeal.net",
"Vinadeal.net",
"Vinadeal.net",
"Vinadeal.net",
"Vinadeal.net",
"Vinadeal.net",
"Vinadeal.net",
"Vinadeal.net",
"Vinadeal.net",
"Vinadeal.net",
"Vinadeal.net",
"Vinadeal.net",
"Vinadeal.net",
"Vinadeal.net",
"Vinadeal.net",
"Vinadeal.net",
"Vinadeal.net",
"Vinadeal.net",
"Vinadeal.net",
"Vinadeal.net",
"Vinadeal.net",
"Vinadeal.net",
"Vinadeal.net",
"Vicky",
"Vietfami",
"Vkevin",
"Vkevin",
"Vkevin",
"Vkevin",
"Vkevin",
"Vkevin",
"VNL",
"VNL",
"VNL",
"VNL",
"VNL",
"VNL",
"VNL",
"VNL",
"VNL",
"VNL",
"VNL",
"VNL",
"VNL",
"Vương Kim Thành",
"Vương Kim Thành",
"Vương Kim Thành",
"Vương Kim Thành",
"Vương Kim Thành",
"Winwinshop88",
"Winwinshop88",
"Winwinshop88",
"Winwinshop88",
"Winwinshop88",
"Winwinshop88",
"Winwinshop88",
"Winwinshop88",
"Winwinshop88",
"Winwinshop88",
"Winwinshop88",
"Winwinshop88",
"Winwinshop88",
"Winwinshop88",
"Winwinshop88",
"Winwinshop88",
"Winwinshop88",
"Winwinshop88",
"Winwinshop88",
"Winwinshop88",
"Winwinshop88",
"Winwinshop88",
"Winwinshop88",
"Winwinshop88",
"Winwinshop88",
"Winwinshop88",
"Winwinshop88",
"Winwinshop88",
"Wiin House",
"Wiin House",
"Wiin House",
"Wiin House",
"xinh store",
"xinh store",
"xinh store",
"xinh store",
"xinh store",
"xinh store",
"xinh store",
"xinh store",
"xinh store",
"xinh store",
"xinh store",
"xinh store",
"xinh store",
"xinh store",
"xinh store",
"xinh store",
"xinh store",
"xinh store",
"xinh store",
"xinh store",
"xinh store",
"xinh store",
"xinh store",
"xinh store",
"xinh store",
"xinh store",
"xinh store",
"xinh store",
"xinh store",
"xinh store",
"xinh store",
"xinh store",
"xinh store",
"xinh store",
"xinh store",
"xinh store",
"xinh store",
"xinh store",
"xinh store",
"xinh store",
"xinh store",
"xinh store",
"xinh store",
"xinh store",
"xinh store",
"xinh store",
"xinh store",
"xinh store",
"xinh store",
"xinh store",
"xinh store",
"xinh store",
"xinh store",
"xinh store",
"xinh store",
"xinh store",
"xinh store",
"xinh store",
"xinh store",
"xinh store",
"xinh store",
"xinh store",
"xinh store",
"xinh store",
"xinh store",
"xinh store",
"xinh store",
"xinh store",
"xinh store",
"xinh store",
"xinh store",
"xinh store",
"xinh store",
"xinh store",
"xinh store",
"xinh store",
"xinh store",
"xinh store",
"xinh store",
"xinh store",
"xinh store",
"xinh store",
"Xiaomi",
"Xiaomi",
"Xiaomi",
"XTM",
"XTM",
"XTM",
"XTM",
"XTM",
"XTM",
"XTM",
"XTM",
"XTM",
"XTM",
"XTM",
"Yinou",
"ROZALO",
"Zapas",
"Zapas",
"Zapas",
"Zapas",
"Zapas",
"Zapas",
"Zapas",
"Zapas",
"Zefer",
"Zefer",
"Zefer",
"Zefer",
"Zefer",
"Zefer",
"Zefer",
"Zefer",
"Zefer",
"Zefer",
"Verygood",
"Zipper",
"Zipper",
"Zipper",
"Zorro",
"Zorro"]