["230000",
"119000",
"119000",
"119000",
"119000",
"249000",
"249000",
"249000",
"249000",
"249000",
"129000",
"269000",
"398000",
"358000",
"358200",
"340100",
"338000",
"358200",
"358000",
"158000",
"158000",
"158000",
"158000",
"158000",
"158000",
"398000",
"399000",
"500000",
"338000",
"400000",
"500000",
"420000",
"400000",
"399000",
"449000",
"449000",
"569000",
"499000",
"199000",
"349000",
"449000",
"358200",
"358200",
"358200",
"358200",
"358200",
"489000",
"99000",
"99000",
"99000",
"99000",
"130000",
"130000",
"99000",
"100000",
"99000",
"79000",
"130000",
"100000",
"129000",
"130000",
"130000",
"130000",
"130000",
"90000",
"90000",
"79000",
"190000",
"190000",
"190000",
"190000",
"190000",
"190000",
"190000",
"190000",
"190000",
"190000",
"190000",
"190000",
"190000",
"190000",
"190000",
"190000",
"190000",
"190000",
"190000",
"190000",
"190000",
"190000",
"190000",
"190000",
"190000",
"190000",
"190000",
"190000",
"190000",
"190000",
"190000",
"190000",
"190000",
"190000",
"190000",
"190000",
"190000",
"190000",
"190000",
"190000",
"190000",
"190000",
"190000",
"190000",
"190000",
"190000",
"190000",
"190000",
"190000",
"190000",
"190000",
"190000",
"190000",
"190000",
"190000",
"190000",
"190000",
"190000",
"190000",
"190000",
"190000",
"190000",
"190000",
"190000",
"190000",
"190000",
"190000",
"190000",
"190000",
"190000",
"190000",
"190000",
"190000",
"190000",
"190000",
"190000",
"190000",
"190000",
"190000",
"190000",
"190000",
"190000",
"190000",
"190000",
"190000",
"190000",
"190000",
"190000",
"190000",
"190000",
"190000",
"190000",
"190000",
"190000",
"190000",
"190000",
"190000",
"190000",
"190000",
"190000",
"190000",
"190000",
"190000",
"190000",
"190000",
"190000",
"190000",
"190000",
"190000",
"190000",
"190000",
"190000",
"190000",
"190000",
"190000",
"190000",
"190000",
"190000",
"190000",
"190000",
"190000",
"190000",
"190000",
"190000",
"190000",
"190000",
"190000",
"190000",
"190000",
"190000",
"190000",
"190000",
"190000",
"190000",
"190000",
"190000",
"190000",
"190000",
"190000",
"190000",
"190000",
"190000",
"190000",
"190000",
"190000",
"190000",
"190000",
"190000",
"190000",
"190000",
"190000",
"190000",
"190000",
"190000",
"190000",
"190000",
"190000",
"190000",
"190000",
"190000",
"190000",
"190000",
"190000",
"190000",
"190000",
"190000",
"190000",
"190000",
"190000",
"190000",
"190000",
"190000",
"190000",
"190000",
"190000",
"190000",
"190000",
"190000",
"190000",
"190000",
"190000",
"190000",
"190000",
"190000",
"190000",
"190000",
"190000",
"190000",
"190000",
"190000",
"190000",
"190000",
"190000",
"190000",
"190000",
"190000",
"190000",
"190000",
"190000",
"190000",
"190000",
"190000",
"190000",
"190000",
"190000",
"190000",
"190000",
"190000",
"190000",
"190000",
"190000",
"190000",
"190000",
"190000",
"190000",
"190000",
"190000",
"190000",
"190000",
"190000",
"190000",
"190000",
"190000",
"190000",
"190000",
"190000",
"190000",
"190000",
"190000",
"190000",
"190000",
"190000",
"190000",
"190000",
"190000",
"190000",
"190000",
"190000",
"190000",
"190000",
"190000",
"190000",
"190000",
"190000",
"190000",
"190000",
"190000",
"190000",
"190000",
"190000",
"190000",
"190000",
"190000",
"190000",
"190000",
"190000",
"190000",
"190000",
"190000",
"190000",
"190000",
"190000",
"190000",
"190000",
"190000",
"190000",
"190000",
"190000",
"190000",
"190000",
"190000",
"190000",
"190000",
"190000",
"190000",
"190000",
"190000",
"190000",
"190000",
"190000",
"190000",
"190000",
"190000",
"190000",
"190000",
"190000",
"190000",
"190000",
"190000",
"190000",
"190000",
"190000",
"190000",
"190000",
"190000",
"190000",
"190000",
"190000",
"190000",
"190000",
"190000",
"190000",
"190000",
"190000",
"190000",
"190000",
"190000",
"190000",
"190000",
"190000",
"190000",
"190000",
"190000",
"190000",
"190000",
"190000",
"190000",
"190000",
"190000",
"190000",
"190000",
"190000",
"190000",
"190000",
"190000",
"190000",
"190000",
"190000",
"190000",
"190000",
"190000",
"190000",
"190000",
"190000",
"190000",
"190000",
"190000",
"190000",
"190000",
"190000",
"190000",
"190000",
"190000",
"190000",
"190000",
"190000",
"190000",
"190000",
"190000",
"190000",
"190000",
"190000",
"190000",
"190000",
"190000",
"190000",
"190000",
"190000",
"190000",
"190000",
"190000",
"190000",
"190000",
"190000",
"190000",
"190000",
"190000",
"190000",
"190000",
"190000",
"190000",
"190000",
"190000",
"190000",
"190000",
"190000",
"190000",
"190000",
"190000",
"190000",
"190000",
"190000",
"190000",
"190000",
"190000",
"190000",
"190000",
"190000",
"190000",
"190000",
"190000",
"190000",
"190000",
"190000",
"190000",
"190000",
"190000",
"190000",
"190000",
"190000",
"190000",
"190000",
"190000",
"190000",
"190000",
"190000",
"190000",
"190000",
"190000",
"190000",
"190000",
"190000",
"190000",
"190000",
"190000",
"190000",
"190000",
"190000",
"190000",
"190000",
"190000",
"190000",
"190000",
"190000",
"190000",
"190000",
"190000",
"190000",
"190000",
"190000",
"190000",
"190000",
"190000",
"190000",
"190000",
"190000",
"190000",
"190000",
"190000",
"190000",
"190000",
"190000",
"190000",
"190000",
"190000",
"190000",
"190000",
"190000",
"190000",
"190000",
"190000",
"190000",
"190000",
"190000",
"190000",
"190000",
"190000",
"190000",
"190000",
"190000",
"190000",
"190000",
"190000",
"190000",
"190000",
"190000",
"190000",
"190000",
"190000",
"190000",
"190000",
"190000",
"190000",
"190000",
"190000",
"190000",
"190000",
"190000",
"190000",
"190000",
"190000",
"190000",
"190000",
"190000",
"190000",
"190000",
"190000",
"190000",
"190000",
"190000",
"190000",
"190000",
"190000",
"190000",
"190000",
"190000",
"190000",
"190000",
"190000",
"190000",
"190000",
"190000",
"190000",
"190000",
"190000",
"190000",
"190000",
"190000",
"190000",
"190000",
"190000",
"190000",
"190000",
"190000",
"190000",
"190000",
"190000",
"190000",
"190000",
"190000",
"190000",
"190000",
"190000",
"190000",
"190000",
"190000",
"190000",
"190000",
"190000",
"190000",
"190000",
"190000",
"190000",
"190000",
"190000",
"190000",
"190000",
"190000",
"190000",
"190000",
"190000",
"190000",
"190000",
"190000",
"190000",
"190000",
"190000",
"190000",
"190000",
"190000",
"190000",
"190000",
"190000",
"190000",
"190000",
"190000",
"190000",
"190000",
"190000",
"190000",
"190000",
"190000",
"190000",
"190000",
"190000",
"190000",
"190000",
"190000",
"190000",
"190000",
"190000",
"190000",
"190000",
"190000",
"190000",
"190000",
"190000",
"190000",
"190000",
"190000",
"190000",
"190000",
"190000",
"190000",
"190000",
"190000",
"190000",
"190000",
"190000",
"190000",
"190000",
"190000",
"190000",
"190000",
"190000",
"190000",
"190000",
"190000",
"190000",
"190000",
"190000",
"190000",
"190000",
"190000",
"190000",
"190000",
"190000",
"190000",
"190000",
"190000",
"190000",
"190000",
"190000",
"190000",
"190000",
"190000",
"190000",
"190000",
"190000",
"190000",
"190000",
"190000",
"190000",
"190000",
"190000",
"190000",
"190000",
"190000",
"190000",
"190000",
"190000",
"190000",
"190000",
"190000",
"190000",
"190000",
"190000",
"190000",
"190000",
"190000",
"190000",
"190000",
"190000",
"190000",
"190000",
"190000",
"190000",
"190000",
"190000",
"190000",
"190000",
"190000",
"190000",
"190000",
"190000",
"190000",
"190000",
"190000",
"190000",
"190000",
"190000",
"190000",
"190000",
"190000",
"190000",
"190000",
"190000",
"190000",
"190000",
"190000",
"190000",
"190000",
"190000",
"190000",
"190000",
"190000",
"190000",
"190000",
"190000",
"190000",
"190000",
"190000",
"190000",
"190000",
"190000",
"190000",
"190000",
"190000",
"190000",
"190000",
"190000",
"190000",
"190000",
"190000",
"190000",
"190000",
"190000",
"190000",
"190000",
"190000",
"190000",
"190000",
"190000",
"190000",
"190000",
"190000",
"190000",
"190000",
"190000",
"190000",
"190000",
"190000",
"190000",
"190000",
"190000",
"190000",
"190000",
"190000",
"190000",
"190000",
"190000",
"190000",
"190000",
"190000",
"190000",
"190000",
"190000",
"190000",
"190000",
"190000",
"190000",
"190000",
"190000",
"190000",
"190000",
"190000",
"190000",
"190000",
"190000",
"190000",
"190000",
"190000",
"190000",
"190000",
"190000",
"190000",
"190000",
"190000",
"190000",
"190000",
"190000",
"190000",
"190000",
"190000",
"190000",
"190000",
"190000",
"190000",
"190000",
"190000",
"190000",
"190000",
"190000",
"190000",
"190000",
"190000",
"190000",
"190000",
"190000",
"190000",
"190000",
"190000",
"190000",
"190000",
"190000",
"190000",
"190000",
"190000",
"190000",
"190000",
"190000",
"190000",
"190000",
"190000",
"190000",
"190000",
"190000",
"190000",
"190000",
"190000",
"190000",
"190000",
"190000",
"190000",
"190000",
"190000",
"190000",
"190000",
"190000",
"190000",
"190000",
"190000",
"190000",
"190000",
"190000",
"190000",
"190000",
"190000",
"190000",
"190000",
"190000",
"190000",
"190000",
"190000",
"190000",
"190000",
"190000",
"190000",
"190000",
"190000",
"190000",
"190000",
"190000",
"190000",
"190000",
"190000",
"190000",
"190000",
"190000",
"190000",
"190000",
"190000",
"190000",
"190000",
"190000",
"190000",
"190000",
"190000",
"190000",
"190000",
"190000",
"190000",
"190000",
"190000",
"190000",
"190000",
"190000",
"190000",
"190000",
"190000",
"190000",
"190000",
"190000",
"190000",
"190000",
"190000",
"190000",
"190000",
"190000",
"190000",
"190000",
"190000",
"190000",
"190000",
"190000",
"190000",
"190000",
"190000",
"190000",
"190000",
"190000",
"190000",
"190000",
"190000",
"190000",
"190000",
"190000",
"190000",
"190000",
"190000",
"190000",
"190000",
"190000",
"190000",
"190000",
"190000",
"190000",
"190000",
"190000",
"190000",
"190000",
"190000",
"190000",
"190000",
"190000",
"190000",
"190000",
"190000",
"190000",
"190000",
"190000",
"190000",
"190000",
"190000",
"190000",
"190000",
"190000",
"190000",
"190000",
"190000",
"190000",
"190000",
"190000",
"190000",
"190000",
"190000",
"190000",
"190000",
"190000",
"190000",
"190000",
"190000",
"190000",
"190000",
"190000",
"190000",
"190000",
"190000",
"190000",
"190000",
"190000",
"190000",
"190000",
"190000",
"190000",
"190000",
"190000",
"190000",
"190000",
"190000",
"190000",
"190000",
"190000",
"190000",
"190000",
"190000",
"190000",
"190000",
"190000",
"190000",
"190000",
"190000",
"190000",
"190000",
"190000",
"190000",
"190000",
"190000",
"190000",
"190000",
"190000",
"190000",
"190000",
"190000",
"190000",
"190000",
"190000",
"190000",
"190000",
"190000",
"190000",
"190000",
"190000",
"190000",
"190000",
"190000",
"190000",
"190000",
"190000",
"190000",
"190000",
"190000",
"190000",
"190000",
"190000",
"190000",
"190000",
"190000",
"190000",
"190000",
"190000",
"190000",
"190000",
"190000",
"190000",
"190000",
"190000",
"190000",
"190000",
"190000",
"190000",
"190000",
"190000",
"190000",
"190000",
"190000",
"190000",
"190000",
"190000",
"190000",
"190000",
"190000",
"190000",
"190000",
"190000",
"190000",
"190000",
"190000",
"190000",
"190000",
"190000",
"190000",
"190000",
"190000",
"190000",
"190000",
"190000",
"190000",
"190000",
"190000",
"190000",
"190000",
"190000",
"190000",
"190000",
"190000",
"190000",
"190000",
"190000",
"190000",
"190000",
"190000",
"190000",
"190000",
"190000",
"190000",
"190000",
"190000",
"190000",
"190000",
"190000",
"190000",
"190000",
"190000",
"190000",
"190000",
"190000",
"190000",
"190000",
"190000",
"190000",
"190000",
"190000",
"190000",
"190000",
"190000",
"190000",
"190000",
"190000",
"190000",
"190000",
"190000",
"190000",
"190000",
"190000",
"190000",
"190000",
"190000",
"190000",
"190000",
"190000",
"190000",
"190000",
"190000",
"190000",
"190000",
"190000",
"190000",
"190000",
"190000",
"190000",
"190000",
"190000",
"190000",
"190000",
"190000",
"190000",
"190000",
"190000",
"190000",
"190000",
"190000",
"190000",
"190000",
"190000",
"190000",
"190000",
"190000",
"190000",
"190000",
"190000",
"190000",
"190000",
"190000",
"190000",
"190000",
"190000",
"190000",
"190000",
"190000",
"190000",
"190000",
"190000",
"190000",
"190000",
"190000",
"190000",
"190000",
"190000",
"190000",
"190000",
"190000",
"190000",
"190000",
"190000",
"190000",
"190000",
"190000",
"190000",
"190000",
"190000",
"190000",
"190000",
"190000",
"190000",
"190000",
"190000",
"190000",
"190000",
"190000",
"190000",
"190000",
"190000",
"190000",
"190000",
"190000",
"190000",
"190000",
"190000",
"190000",
"190000",
"190000",
"190000",
"190000",
"190000",
"190000",
"190000",
"190000",
"190000",
"190000",
"190000",
"190000",
"190000",
"190000",
"190000",
"190000",
"190000",
"190000",
"190000",
"190000",
"190000",
"190000",
"190000",
"190000",
"190000",
"190000",
"190000",
"190000",
"190000",
"190000",
"190000",
"190000",
"190000",
"190000",
"190000",
"190000",
"190000",
"190000",
"190000",
"190000",
"190000",
"190000",
"190000",
"190000",
"190000",
"190000",
"190000",
"190000",
"190000",
"190000",
"190000",
"190000",
"190000",
"190000",
"190000",
"190000",
"190000",
"190000",
"190000",
"190000",
"190000",
"190000",
"190000",
"190000",
"190000",
"190000",
"190000",
"190000",
"190000",
"190000",
"190000",
"190000",
"190000",
"190000",
"190000",
"190000",
"190000",
"190000",
"190000",
"190000",
"190000",
"190000",
"190000",
"190000",
"190000",
"190000",
"190000",
"190000",
"190000",
"90000",
"90000",
"90000",
"90000",
"90000",
"90000",
"90000",
"90000",
"90000",
"90000",
"90000",
"90000",
"90000",
"90000",
"90000",
"90000",
"90000",
"90000",
"90000",
"90000",
"90000",
"90000",
"90000",
"90000",
"90000",
"90000",
"90000",
"90000",
"90000",
"90000",
"90000",
"90000",
"90000",
"90000",
"90000",
"90000",
"90000",
"90000",
"90000",
"90000",
"90000",
"90000",
"90000",
"90000",
"90000",
"90000",
"90000",
"90000",
"90000",
"90000",
"90000",
"90000",
"90000",
"90000",
"90000",
"90000",
"90000",
"90000",
"90000",
"90000",
"90000",
"90000",
"90000",
"90000",
"90000",
"90000",
"90000",
"90000",
"90000",
"90000",
"90000",
"90000",
"90000",
"90000",
"90000",
"90000",
"90000",
"90000",
"90000",
"90000",
"90000",
"90000",
"90000",
"90000",
"90000",
"90000",
"90000",
"90000",
"90000",
"90000",
"90000",
"90000",
"90000",
"900000000",
"90000",
"90000",
"90000",
"90000",
"90000",
"90000",
"90000",
"90000",
"90000",
"90000",
"90000",
"90000",
"90000",
"90000",
"90000",
"90000",
"90000",
"90000",
"90000",
"90000",
"90000",
"90000",
"90000",
"90000",
"90000",
"90000",
"90000",
"90000",
"90000",
"90000",
"90000",
"90000",
"90000",
"90000",
"90000",
"90000",
"90000",
"90000",
"90000",
"90000",
"90000",
"90000",
"90000",
"90000",
"90000",
"90000",
"90000",
"90000",
"90000",
"90000",
"90000",
"90000",
"90000",
"90000",
"90000",
"90000",
"90000",
"90000",
"90000",
"90000",
"90000",
"90000",
"90000",
"90000",
"90000",
"90000",
"90000",
"90000",
"90000",
"90000",
"90000",
"90000",
"90000",
"90000",
"90000",
"90000",
"90000",
"90000",
"90000",
"90000",
"90000",
"90000",
"90000",
"90000",
"90000",
"90000",
"90000",
"90000",
"90000",
"90000",
"90000",
"90000",
"90000",
"90000",
"90000",
"90000",
"90000",
"90000",
"90000",
"90000",
"90000",
"90000",
"90000",
"90000",
"90000",
"90000",
"90000",
"90000",
"90000",
"90000",
"90000",
"90000",
"90000",
"90000",
"90000",
"90000",
"90000",
"90000",
"90000",
"90000",
"90000",
"90000",
"90000",
"90000",
"90000",
"90000",
"90000",
"90000",
"90000",
"90000",
"90000",
"90000",
"90000",
"90000",
"90000",
"90000",
"90000",
"90000",
"90000",
"90000",
"90000",
"90000",
"90000",
"90000",
"90000",
"90000",
"90000",
"90000",
"90000",
"90000",
"90000",
"90000",
"90000",
"90000",
"90000",
"90000",
"90000",
"90000",
"90000",
"90000",
"90000",
"90000",
"90000",
"90000",
"90000",
"90000",
"90000",
"90000",
"90000",
"90000",
"90000",
"90000",
"90000",
"90000",
"90000",
"90000",
"90000",
"90000",
"90000",
"90000",
"90000",
"90000",
"90000",
"90000",
"90000",
"90000",
"90000",
"90000",
"90000",
"90000",
"90000",
"90000",
"90000",
"90000",
"90000",
"90000",
"90000",
"90000",
"90000",
"90000",
"90000",
"90000",
"90000",
"90000",
"90000",
"90000",
"90000",
"90000",
"90000",
"90000",
"90000",
"90000",
"90000",
"90000",
"90000",
"90000",
"90000",
"90000",
"90000",
"90000",
"90000",
"90000",
"90000",
"90000",
"90000",
"90000",
"90000",
"90000",
"90000",
"90000",
"90000",
"90000",
"90000",
"90000",
"90000",
"90000",
"90000",
"90000",
"90000",
"90000",
"90000",
"90000",
"90000",
"90000",
"90000",
"90000",
"90000",
"90000",
"90000",
"90000",
"90000",
"90000",
"90000",
"90000",
"90000",
"90000",
"90000",
"90000",
"90000",
"90000",
"90000",
"90000",
"90000",
"90000",
"90000",
"90000",
"90000",
"90000",
"90000",
"90000",
"90000",
"90000",
"90000",
"90000",
"90000",
"90000",
"90000",
"90000",
"90000",
"90000",
"90000",
"90000",
"90000",
"90000",
"90000",
"90000",
"90000",
"90000",
"90000",
"90000",
"90000",
"90000",
"90000",
"90000",
"90000",
"90000",
"90000",
"90000",
"90000",
"90000",
"90000",
"90000",
"90000",
"90000",
"90000",
"90000",
"90000",
"90000",
"90000",
"90000",
"90000",
"90000",
"90000",
"90000",
"90000",
"90000",
"90000",
"90000",
"90000",
"90000",
"90000",
"90000",
"90000",
"90000",
"90000",
"90000",
"90000",
"90000",
"90000",
"90000",
"90000",
"90000",
"90000",
"90000",
"90000",
"90000",
"90000",
"90000",
"90000",
"90000",
"90000",
"90000",
"90000",
"90000",
"90000",
"90000",
"90000",
"90000",
"90000",
"90000",
"90000",
"90000",
"90000",
"90000",
"90000",
"90000",
"90000",
"90000",
"90000",
"90000",
"90000",
"90000",
"90000",
"90000",
"90000",
"90000",
"90000",
"90000",
"90000",
"90000",
"90000",
"90000",
"90000",
"90000",
"90000",
"90000",
"90000",
"90000",
"90000",
"90000",
"90000",
"90000",
"90000",
"90000",
"90000",
"90000",
"90000",
"90000",
"90000",
"90000",
"90000",
"90000",
"90000",
"90000",
"90000",
"90000",
"90000",
"90000",
"90000",
"90000",
"90000",
"90000",
"90000",
"90000",
"90000",
"90000",
"90000",
"90000",
"90000",
"90000",
"90000",
"90000",
"90000",
"90000",
"90000",
"90000",
"90000",
"90000",
"90000",
"90000",
"90000",
"90000",
"90000",
"90000",
"90000",
"90000",
"90000",
"90000",
"90000",
"90000",
"90000",
"90000",
"90000",
"90000",
"90000",
"90000",
"90000",
"90000",
"90000",
"90000",
"90000",
"90000",
"90000",
"90000",
"90000",
"90000",
"90000",
"90000",
"90000",
"90000",
"90000",
"90000",
"90000",
"90000",
"90000",
"90000",
"90000",
"90000",
"90000",
"90000",
"90000",
"90000",
"90000",
"90000",
"90000",
"90000",
"90000",
"90000",
"90000",
"90000",
"90000",
"90000",
"90000",
"90000",
"90000",
"90000",
"90000",
"90000",
"90000",
"90000",
"90000",
"90000",
"90000",
"90000",
"90000",
"90000",
"90000",
"90000",
"90000",
"90000",
"90000",
"90000",
"90000",
"90000",
"90000",
"90000",
"90000",
"90000",
"90000",
"90000",
"90000",
"90000",
"90000",
"90000",
"90000",
"235000",
"90000",
"90000",
"90000",
"90000",
"90000",
"90000",
"90000",
"90000",
"90000",
"90000",
"90000",
"90000",
"90000",
"90000",
"90000",
"90000",
"90000",
"90000",
"90000",
"90000",
"90000",
"90000",
"90000",
"90000",
"90000",
"90000",
"90000",
"90000",
"90000",
"90000",
"90000",
"90000",
"90000",
"90000",
"90000",
"90000",
"90000",
"90000",
"90000",
"90000",
"90000",
"90000",
"90000",
"90000",
"90000",
"90000",
"90000",
"90000",
"90000",
"90000",
"90000",
"90000",
"90000",
"90000",
"90000",
"90000",
"90000",
"90000",
"90000",
"90000",
"90000",
"90000",
"90000",
"90000",
"90000",
"90000",
"90000",
"90000",
"90000",
"90000",
"90000",
"90000",
"90000",
"90000",
"90000",
"90000",
"90000",
"90000",
"90000",
"90000",
"90000",
"90000",
"90000",
"90000",
"90000",
"90000",
"90000",
"90000",
"90000",
"90000",
"90000",
"90000",
"90000",
"90000",
"90000",
"90000",
"90000",
"90000",
"90000",
"90000",
"90000",
"90000",
"90000",
"90000",
"90000",
"90000",
"90000",
"90000",
"90000",
"90000",
"90000",
"90000",
"90000",
"90000",
"90000",
"90000",
"90000",
"90000",
"90000",
"90000",
"90000",
"90000",
"90000",
"90000",
"90000",
"90000",
"90000",
"90000",
"90000",
"90000",
"90000",
"90000",
"90000",
"90000",
"90000",
"90000",
"90000",
"90000",
"90000",
"90000",
"90000",
"90000",
"90000",
"90000",
"90000",
"90000",
"90000",
"90000",
"90000",
"90000",
"90000",
"90000",
"90000",
"90000",
"90000",
"90000",
"90000",
"90000",
"90000",
"90000",
"90000",
"90000",
"90000",
"90000",
"90000",
"90000",
"90000",
"90000",
"90000",
"90000",
"90000",
"90000",
"90000",
"90000",
"90000",
"90000",
"90000",
"90000",
"90000",
"90000",
"90000",
"90000",
"90000",
"90000",
"90000",
"90000",
"90000",
"90000",
"90000",
"90000",
"90000",
"90000",
"175000",
"179000",
"175000",
"398000",
"298000",
"298000",
"283100",
"490000",
"490000",
"490000",
"490000",
"650000",
"450000",
"518000",
"598000",
"390000",
"390000",
"390000",
"390000",
"390000",
"390000",
"232200",
"499000",
"635000",
"435000",
"725000",
"499000",
"299000",
"299000",
"456000",
"399000",
"399000",
"369000",
"499000",
"440000",
"499000",
"499000",
"499000",
"499000",
"379000",
"429000",
"499000",
"429000",
"499000",
"399000",
"399000",
"456000",
"499000",
"378100",
"499000",
"299000",
"555000",
"349000",
"555000",
"399000",
"499000",
"456000",
"558000",
"299000",
"499000",
"499000",
"499000",
"499000",
"469000",
"299000",
"350000",
"359000",
"429000",
"369000",
"369000",
"299000",
"299000",
"299000",
"369000",
"349000",
"269000",
"299000",
"299000",
"299000",
"299000",
"299000",
"299000",
"229000",
"259000",
"199000",
"499000",
"299000",
"299000",
"299000",
"400000",
"400000",
"400000",
"280000",
"280000",
"280000",
"450000",
"450000",
"450000",
"799000",
"799000",
"460000",
"450000",
"490000",
"490000",
"700000",
"513200",
"419000",
"130500",
"126000",
"115500",
"115500",
"424500",
"115500",
"115500",
"157500",
"121500",
"154000",
"120000",
"250000",
"328000",
"120000",
"128000",
"128000",
"320000",
"294000",
"128000",
"400000",
"128000",
"278000",
"128000",
"112000",
"158000",
"144000",
"328000",
"128000",
"128000",
"128000",
"278000",
"148000",
"320000",
"120000",
"278000",
"143268,1",
"738621,25",
"495996,9",
"143268,1",
"738621,25",
"301064",
"143268,1",
"143916,83",
"376285,72",
"567697,29",
"747505,39",
"386137,15",
"245964,19",
"221674,43",
"397261,3",
"186450,48",
"366668,03",
"202641,43",
"210129,43",
"195090,29",
"211600,39",
"171402,7",
"252445,28",
"252445,28",
"195840,22",
"216801,56",
"257258,58",
"216375,68",
"373514,29",
"343421,43",
"216375,68",
"251184,3",
"355294,55",
"249841,43",
"249841,43",
"339511,9",
"327031,26",
"151471,49",
"294447,2",
"228644,46",
"151499,89",
"148376,76",
"393202,86",
"211600,39",
"228644,46",
"125010,12",
"125549,58",
"366668,03",
"180533,65",
"180533,65",
"180533,65",
"350000",
"350000",
"350000",
"217000",
"217000",
"237000",
"107000",
"130000",
"130000",
"166000",
"163000",
"250000",
"131000",
"251000",
"119000",
"119000",
"216000",
"183000",
"123000",
"190000",
"104000",
"246000",
"127000",
"126000",
"121000",
"250000",
"107000",
"107000",
"107000",
"107000",
"186000",
"184000",
"107000",
"246000",
"184000",
"181000",
"623000",
"183000",
"189000",
"183000",
"191000",
"193000",
"194000",
"255000",
"230000",
"310000",
"262000",
"313000",
"270000",
"273000",
"279000",
"279000",
"304000",
"279000",
"182000",
"273000",
"310000",
"370000",
"242000",
"188000",
"275000",
"315000",
"255000",
"166000",
"250000",
"255000",
"230000",
"188000",
"302000",
"222000",
"262000",
"302000",
"166000",
"188000",
"231000",
"315000",
"275000",
"230000",
"188000",
"271000",
"370000",
"237000",
"295000",
"310000",
"184000",
"166000",
"188000",
"255000",
"310000",
"193000",
"302000",
"250000",
"279000",
"302000",
"231000",
"310000",
"193000",
"277000",
"230000",
"286000",
"279000",
"311000",
"322000",
"317000",
"164000",
"295000",
"302000",
"230000",
"279000",
"279000",
"295000",
"279000",
"164000",
"166000",
"151000",
"277000",
"244000",
"286000",
"164000",
"166000",
"286000",
"322000",
"239000",
"226000",
"271000",
"224000",
"164000",
"284000",
"166000",
"240452",
"240452",
"240452",
"240452",
"348654",
"228000",
"228000",
"308000",
"308000",
"308000",
"214000",
"250000",
"398000",
"209000",
"209000",
"209000",
"207000",
"300000",
"300000",
"227000",
"229000",
"180000",
"180000",
"180000",
"150000",
"150000",
"150000",
"150000",
"150000",
"340200",
"286200",
"232200",
"232200",
"232200",
"358200",
"232200",
"322200",
"232200",
"398000",
"286200",
"398000",
"286200",
"398000",
"286200",
"398000",
"358200",
"198000",
"178200",
"598000",
"682100",
"558000",
"658000",
"473100",
"492100",
"358200",
"340100",
"340100",
"322200",
"299000",
"322200",
"358200",
"448200",
"448200",
"484200",
"492100",
"338000",
"412200",
"438000",
"318000",
"340100",
"338000",
"338000",
"378100",
"378100",
"378100",
"340100",
"340100",
"358200",
"322200",
"458000",
"398000",
"358200",
"398000",
"322200",
"598000",
"359100",
"399000",
"502200",
"518000",
"358200",
"338000",
"318000",
"318000",
"318000",
"318000",
"338000",
"318000",
"340100",
"358000",
"358000",
"304200",
"286200",
"302100",
"286200",
"286200",
"286200",
"398000",
"590000",
"398000",
"398000",
"378100",
"498000",
"378100",
"398000",
"198000",
"558000",
"398000",
"518000",
"659000",
"518000",
"518000",
"659000",
"398000",
"399000",
"398000",
"398000",
"398000",
"500000",
"598000",
"398000",
"358200",
"484200",
"340100",
"398000",
"378100",
"302100",
"378000",
"318000",
"286200",
"232200",
"466200",
"558000",
"398000",
"300000",
"280000",
"210000",
"280000",
"165000",
"280000",
"310000",
"310000",
"310000",
"310000",
"310000",
"280000",
"240000",
"360000",
"240000",
"240000",
"290000",
"296000",
"385000",
"460000",
"455000",
"419000",
"449000",
"385000",
"650000",
"500000",
"750000",
"399000",
"432000",
"656000",
"762000",
"720000",
"709000",
"709000",
"720000",
"720000",
"798000",
"314000",
"780000",
"720000",
"773000",
"652000",
"716000",
"652000",
"773000",
"420000",
"780000",
"420000",
"420000",
"773000",
"122000",
"328000",
"238000",
"332000",
"258000",
"420000",
"760000",
"699000",
"568000",
"760000",
"680000",
"760000",
"769000",
"668000",
"599000",
"599000",
"238000",
"420000",
"238000",
"238000",
"798000",
"798000",
"148000",
"728000",
"148000",
"492000",
"395000",
"198000",
"114000",
"398000",
"238000",
"298000",
"298000",
"136000",
"330000",
"343000",
"764000",
"778000",
"778000",
"349000",
"349000",
"529000",
"529000",
"298000",
"298000",
"382000",
"426000",
"290000",
"294000",
"388000",
"310000",
"320000",
"258000",
"320000",
"314000",
"490000",
"490000",
"430000",
"430000",
"510000",
"430000",
"390000",
"170000",
"156000",
"198000",
"198000",
"278000",
"146000",
"146000",
"146000",
"278000",
"278000",
"278000",
"278000",
"246000",
"289000",
"246000",
"450000",
"375000",
"304000",
"375000",
"375000",
"430000",
"278000",
"778000",
"778000",
"778000",
"778000",
"778000",
"778000",
"198000",
"218000",
"338000",
"249000",
"598000",
"720000",
"232200",
"519000",
"519000",
"398000",
"519000",
"398000",
"398000",
"258000",
"258000",
"258000",
"258000",
"258000",
"389000",
"489000",
"549000",
"269000",
"379000",
"400000",
"400000",
"400000",
"719000",
"300000",
"390000",
"358200",
"343000",
"349000",
"349000",
"412200",
"448200",
"210000",
"210000",
"209000",
"209000",
"219000",
"219000",
"209000",
"209000",
"209000",
"320000",
"500000",
"350000",
"298500",
"266803,5",
"550000",
"550000",
"550000",
"550000",
"500000",
"350000",
"300000",
"450000",
"450000",
"320000",
"320000",
"450000",
"450000",
"400000",
"490000",
"422000",
"400000",
"252000",
"400000",
"400000",
"450000",
"400000",
"422000",
"400000",
"450000",
"400000",
"450000",
"350000",
"350000",
"200000",
"400000",
"400000",
"338000",
"350000",
"360000",
"360000",
"300000",
"350000",
"450000",
"350000",
"350000",
"401000",
"320000",
"450000",
"350000",
"350000",
"350000",
"420000",
"380000",
"350000",
"279000",
"198000",
"198000",
"166000",
"198000",
"198000",
"198000",
"198000",
"198000",
"166000",
"198000",
"198000",
"198000",
"198000",
"198000",
"198000",
"198000",
"198000",
"166000",
"198000",
"219000",
"219000",
"219000",
"219000",
"226443",
"163435",
"185721",
"499000",
"491000",
"499000",
"499000",
"599000",
"718200",
"799000",
"799000",
"620000",
"650000",
"650000",
"699000",
"750000",
"350000",
"280000",
"599000",
"299000",
"750000",
"750000",
"568100",
"699000",
"599000",
"699000",
"599000",
"199800",
"199800",
"290000",
"790000",
"350000",
"230000",
"230000",
"230000",
"390000",
"520000",
"520000",
"295000",
"410000",
"390000",
"142200",
"142200",
"106200",
"142200",
"142200",
"106200",
"500000",
"500000",
"500000",
"259000",
"399000",
"400000",
"480000",
"450000",
"400000",
"400000",
"400000",
"400000",
"400000",
"400000",
"400000",
"400000",
"400000",
"466000",
"450000",
"450000",
"450000",
"450000",
"270000",
"300000",
"319000",
"319000",
"245000",
"245000",
"319000",
"278000",
"278000",
"278000",
"289000",
"239000",
"239000",
"300000",
"300000",
"289000",
"255000",
"209000",
"330000",
"538200",
"538200",
"540000",
"540000",
"540000",
"540000",
"540000",
"540000",
"198000",
"540000",
"354000",
"229000",
"150000",
"110000",
"350000",
"310000",
"550000",
"350000",
"318000",
"158000",
"460000",
"310000",
"299000",
"468000",
"348000",
"349000",
"220000",
"220000",
"165000",
"625000",
"165000",
"310000",
"165000",
"165000",
"165000",
"380000",
"500000",
"625000",
"198000",
"198000",
"198000",
"198000",
"198000",
"198000",
"198000",
"250000",
"250000",
"259000",
"283100",
"250000",
"250000",
"250000",
"230000",
"230000",
"250000",
"240000",
"188100",
"180000",
"230000",
"240000",
"229000",
"188100",
"219000",
"219000",
"229000",
"229000",
"219000",
"229000",
"259000",
"249000",
"249000",
"249000",
"249000",
"249000",
"198000",
"259000",
"259000",
"249000",
"249000",
"249000",
"229000",
"264100",
"249000",
"229000",
"259000",
"229000",
"269000",
"229000",
"229000",
"239000",
"239000",
"239000",
"239000",
"239000",
"188100",
"239000",
"239000",
"239000",
"239000",
"239000",
"239000",
"239000",
"188100",
"230000",
"230000",
"249000",
"230000",
"239000",
"230000",
"239000",
"199500",
"229000",
"249000",
"188100",
"249000",
"249000",
"188100",
"259000",
"249000",
"249000",
"198000",
"674000",
"550000",
"438000",
"438000",
"438000",
"458000",
"338000",
"338000",
"298000",
"298000",
"200000",
"298000",
"250000",
"280000",
"358000",
"338000",
"300000",
"240000",
"300000",
"240000",
"300000",
"250000",
"280000",
"478000",
"478000",
"450000",
"350000",
"330000",
"268500",
"268000",
"400000",
"258000",
"359000",
"359000",
"342000",
"336000",
"336000",
"399000",
"669000",
"669000",
"669000",
"629000",
"669000",
"499000",
"489000",
"519000",
"479000",
"579000",
"579000",
"579000",
"519000",
"489000",
"479000",
"649000",
"109000",
"350000",
"419000",
"638000",
"539000",
"549000",
"589000",
"459000",
"578000",
"529000",
"214200",
"638000",
"489000",
"549000",
"350000",
"599000",
"400000",
"690000",
"288000",
"158000",
"208000",
"218000",
"208000",
"178000",
"178000",
"218000",
"218000",
"208000",
"268000",
"258000",
"338000",
"158000",
"188000",
"208000",
"218000",
"218000",
"218000",
"258000",
"218000",
"228000",
"228000",
"228000",
"218000",
"218000",
"218000",
"248000",
"235000",
"235000",
"342000",
"207000",
"280000",
"280000",
"280000",
"198000",
"252000",
"198000",
"198000",
"248000",
"238000",
"238000",
"298000",
"270000",
"218000",
"309000",
"475000",
"399000",
"264000",
"264000",
"230000",
"270000",
"264000",
"230000",
"264000",
"270000",
"339000",
"545000",
"198000",
"309000",
"258000",
"258000",
"309000",
"309000",
"309000",
"304000",
"304000",
"309000",
"309000",
"253168",
"309000",
"298000",
"474000",
"550000",
"466000",
"406000",
"495000",
"495000",
"338000",
"338000",
"235000",
"235000",
"275000",
"275000",
"708000",
"670000",
"465000",
"465000",
"278000",
"228000",
"465000",
"258000",
"198000",
"198000",
"198000",
"234000",
"198000",
"178000",
"278000",
"278000",
"396000",
"198000",
"260000",
"485000",
"198000",
"260000",
"385000",
"365000",
"236000",
"445000",
"198000",
"198000",
"449000",
"485000",
"198000",
"242000",
"198000",
"242000",
"242000",
"252000",
"242000",
"394000",
"358000",
"198000",
"228000",
"309000",
"309000",
"465000",
"236000",
"278000",
"278000",
"328000",
"316000",
"328000",
"198000",
"258000",
"328000",
"432000",
"418000",
"465000",
"496000",
"140000",
"193000",
"223000",
"223000",
"223000",
"190000",
"584000",
"650000",
"348000",
"460000",
"469000",
"387800",
"367800",
"460000",
"356000",
"314000",
"570000",
"478000",
"406000",
"760000",
"550000",
"550000",
"338000",
"257000",
"334000",
"415800",
"450000",
"558000",
"650000",
"550000",
"410000",
"440000",
"400000",
"402000",
"550000",
"550000",
"550000",
"373800",
"550000",
"550000",
"420000",
"550000",
"304000",
"450000",
"550000",
"550000",
"550000",
"550000",
"550000",
"420000",
"650000",
"314000",
"284000",
"502000",
"600000",
"318000",
"350000",
"600000",
"498000",
"450000",
"550000",
"500000",
"600000",
"420000",
"718000",
"358200",
"358200",
"699000",
"699000",
"479000",
"698000",
"249000",
"249000",
"249000",
"249000",
"130000",
"130000",
"118000",
"499000",
"599000",
"454100",
"500000",
"499000",
"499000",
"155000",
"449000",
"298000",
"549000",
"349000",
"498000",
"449000",
"698000",
"698000",
"698000",
"698000",
"286200",
"598000",
"538200",
"454100",
"430200",
"320000",
"179000",
"179000",
"179000",
"579000",
"569000",
"439000",
"580000",
"605000",
"580000",
"140000",
"140000",
"305000",
"350000",
"486000",
"219000",
"420000",
"420000",
"499000",
"349000",
"569000",
"719000",
"450000",
"486000",
"439000",
"243000",
"243000",
"539000",
"199000",
"289000",
"199000",
"199000",
"199000",
"199000",
"289000",
"279000",
"538200",
"520000",
"549000",
"400000",
"780000",
"520000",
"718200",
"650000",
"589000",
"394200",
"669000",
"169000",
"180000",
"180000",
"180000",
"180000",
"180000",
"180000",
"180000",
"180000",
"199000",
"120000",
"277900",
"273800",
"277900",
"277900",
"277900",
"749000",
"358200",
"358200",
"277900",
"568100",
"568100",
"568100",
"277900",
"277900",
"277900",
"277900",
"600000",
"500000",
"280000",
"280000",
"231800",
"237800",
"231800",
"231800",
"568100",
"400000",
"400000",
"268200",
"400000",
"550000",
"550000",
"300000",
"300000",
"200000",
"198000",
"281800",
"281800",
"281800",
"300000",
"264000",
"264000",
"340100",
"500000",
"300000",
"500000",
"568100",
"277900",
"410000",
"358200",
"277900",
"300000",
"264000",
"358000",
"249800",
"358000",
"358000",
"358000",
"79000",
"450000",
"450000",
"450000",
"450000",
"358200",
"358000",
"400000",
"500000",
"498000",
"300000",
"300000",
"370000",
"400000",
"400000",
"400000",
"388000",
"400000",
"400000",
"578000",
"578000",
"500000",
"400000",
"376000",
"110000",
"110000",
"600000",
"498000",
"300000",
"220000",
"448200",
"358200",
"99000",
"500000",
"500000",
"500000",
"300000",
"350000",
"350000",
"170000",
"280000",
"250000",
"230000",
"160000",
"160000",
"500000",
"300000",
"384000",
"300000",
"188100",
"188100",
"300000",
"149000",
"650000",
"500000",
"550000",
"500000",
"650000",
"300000",
"376000",
"341000",
"198000",
"500000",
"297000",
"297000",
"297000",
"398000",
"358200",
"398000",
"600000",
"700000",
"190000",
"297000",
"500000",
"500000",
"297000",
"297000",
"358200",
"549000",
"358200",
"350000",
"350000",
"198000",
"359000",
"350000",
"161800",
"181800",
"500000",
"181800",
"400000",
"299800",
"394200",
"560000",
"412000",
"342900",
"412000",
"342900",
"650000",
"300000",
"350000",
"450000",
"400000",
"400000",
"400000",
"500000",
"700000",
"322000",
"322000",
"500000",
"500000",
"500000",
"475000",
"232200",
"232200",
"232200",
"310000",
"295000",
"365000",
"375000",
"390000",
"395000",
"500000",
"500000",
"500000",
"500000",
"190000",
"148000",
"148000",
"190000",
"349800",
"400000",
"400000",
"500000",
"500000",
"500000",
"500000",
"500000",
"500000",
"500000",
"300000",
"349800",
"198000",
"198000",
"198000",
"198000",
"310000",
"249000",
"500000",
"300000",
"214200",
"214200",
"214200",
"214200",
"300000",
"365000",
"200000",
"200000",
"200000",
"200000",
"200000",
"200000",
"200000",
"200000",
"200000",
"400000",
"249000",
"300000",
"300000",
"300000",
"300000",
"300000",
"358000",
"356000",
"412200",
"412200",
"412200",
"318000",
"398000",
"398000",
"300000",
"398000",
"529910",
"529910",
"358200",
"358200",
"250200",
"400000",
"348900",
"412200",
"290000",
"418000",
"250000",
"290000",
"300000",
"549000",
"232200",
"230000",
"232200",
"232200",
"283100",
"298000",
"283100",
"283100",
"400000",
"400000",
"378100",
"378100",
"350000",
"400000",
"400000",
"645000",
"685000",
"169000",
"235000",
"300000",
"300000",
"300000",
"300000",
"625000",
"358200",
"300000",
"400000",
"300000",
"284000",
"284000",
"284000",
"300000",
"318000",
"300000",
"250000",
"250000",
"600000",
"458000",
"498000",
"200000",
"200000",
"200000",
"300000",
"350000",
"300000",
"300000",
"300000",
"300000",
"350000",
"232200",
"232200",
"500000",
"500000",
"214200",
"214200",
"214200",
"188100",
"400000",
"300000",
"298000",
"189000",
"189000",
"189000",
"178200",
"178200",
"178200",
"283100",
"358000",
"400000",
"250000",
"232200",
"274000",
"400000",
"400000",
"400000",
"245100",
"245100",
"230000",
"450000",
"397100",
"283100",
"300000",
"432000",
"504000",
"500000",
"340100",
"283100",
"300000",
"435100",
"300000",
"358200",
"358200",
"210000",
"349000",
"349000",
"300000",
"350000",
"350000",
"400000",
"500000",
"370000",
"370000",
"219000",
"299000",
"231800",
"298000",
"231800",
"173800",
"400000",
"249000",
"279000",
"278000",
"279000",
"279000",
"200000",
"300000",
"320000",
"200000",
"200000",
"200000",
"200000",
"200000",
"200000",
"200000",
"500000",
"450000",
"350000",
"349000",
"350000",
"350000",
"389000",
"389000",
"369000",
"299000",
"350000",
"350000",
"350000",
"300000",
"300000",
"300000",
"400000",
"400000",
"350000",
"350000",
"350000",
"300000",
"300000",
"499000",
"399000",
"399000",
"499000",
"369000",
"278000",
"232200",
"270000",
"270000",
"278000",
"278000",
"270000",
"279000",
"258000",
"218000",
"200000",
"200000",
"200000",
"270000",
"270000",
"270000",
"792000",
"350000",
"400000",
"399000",
"400000",
"249000",
"249000",
"249000",
"259000",
"259000",
"259000",
"440000",
"396000",
"504000",
"400000",
"350000",
"300000",
"300000",
"300000",
"118000",
"283100",
"300000",
"283100",
"250000",
"283100",
"300000",
"200000",
"200000",
"300000",
"369000",
"283100",
"250000",
"250000",
"200000",
"400000",
"289000",
"169000",
"169000",
"169000",
"429000",
"429000",
"369000",
"289000",
"429000",
"429000",
"369000",
"389000",
"219000",
"169000",
"169000",
"169000",
"300000",
"300000",
"250000",
"300000",
"300000",
"300000",
"300000",
"250000",
"250000",
"250000",
"300000",
"350000",
"350000",
"298000",
"298000",
"298000",
"400000",
"298000",
"300000",
"399000",
"500000",
"500000",
"450000",
"280000",
"300000",
"220000",
"280000",
"450000",
"450000",
"450000",
"450000",
"450000",
"369000",
"290000",
"290000",
"169000",
"169000",
"169000",
"169000",
"169000",
"269000",
"349000",
"439900",
"439900",
"439900",
"350000",
"350000",
"350000",
"300000",
"189000",
"256000",
"370000",
"446000",
"722000",
"650000",
"660000",
"596000",
"168000",
"326000",
"324000",
"252000",
"648000",
"508000",
"508000",
"598000",
"706000",
"404000",
"324000",
"632000",
"548000",
"302000",
"512000",
"460000",
"546000",
"592000",
"370000",
"546000",
"406000",
"722000",
"578000",
"680000",
"406000",
"434000",
"464000",
"654000",
"796000",
"406000",
"464000",
"764000",
"464000",
"662000",
"576000",
"642000",
"458000",
"400000",
"652000",
"602000",
"500000",
"618000",
"652000",
"654000",
"258000",
"297000",
"260000",
"641538",
"317000",
"270769",
"297000",
"727692",
"253000",
"297000",
"253000",
"197000",
"258000",
"72000",
"280000",
"247692",
"273000",
"180000",
"247692",
"270000",
"297000",
"630000",
"202000",
"186154",
"798000",
"202000",
"210000",
"210000",
"72000",
"242000",
"298000",
"297000",
"280000",
"435000",
"298000",
"297000",
"363000",
"317000",
"197000",
"222000",
"222000",
"228000",
"220000",
"222000",
"220000",
"228000",
"171000",
"226000",
"222000",
"220500",
"292500",
"484500",
"267000",
"312000",
"288000",
"220500",
"124500",
"301500",
"256500",
"180000",
"271500",
"255000",
"486000",
"157500",
"104000",
"124500",
"206000",
"220500",
"204000",
"256500",
"134000",
"178000",
"226000",
"138000",
"246000",
"132000",
"228000",
"316500",
"157500",
"257400",
"284000",
"182000",
"201000",
"255000",
"271500",
"306000",
"271500",
"282000",
"246000",
"224000",
"216000",
"220500",
"330000",
"186000",
"184000",
"316500",
"255000",
"206000",
"264000",
"240000",
"264000",
"310000",
"320000",
"214000",
"206000",
"216000",
"276000",
"524000",
"256000",
"502000",
"458000",
"226000",
"226000",
"322000",
"210000",
"228000",
"618000",
"634000",
"456000",
"486000",
"304000",
"304000",
"326000",
"324000",
"388000",
"162000",
"166000",
"162000",
"228000",
"172000",
"476000",
"414000",
"410000",
"202000",
"400000",
"414000",
"384000",
"228000",
"228000",
"286000",
"400000",
"260000",
"272000",
"342000",
"470000",
"246000",
"226000",
"308000",
"234000",
"234000",
"230000",
"220000",
"230000",
"312000",
"312000",
"230000",
"234000",
"570000",
"340000",
"173000",
"340000",
"175000",
"372000",
"564000",
"108000",
"508000",
"470000",
"220000",
"220000",
"214000",
"284000",
"264000",
"278000",
"222000",
"284000",
"220000",
"233708",
"233708",
"165476",
"163901",
"184396",
"181303",
"168438",
"163901",
"163901",
"168438",
"164592",
"165476",
"165476",
"165476",
"165476",
"171340",
"171340",
"171340",
"171340",
"171340",
"190953",
"184396",
"171340",
"176889",
"165476",
"184396",
"184396",
"184396",
"176889",
"136403",
"136403",
"136403",
"159989",
"158160",
"147692",
"310000",
"365000",
"500000",
"299000",
"359000",
"359000",
"359000",
"359000",
"359000",
"359000",
"450000",
"605000",
"606000",
"704000",
"549000",
"768000",
"649000",
"129000",
"109000",
"109000",
"77000",
"113000",
"113000",
"113000",
"109000",
"135000",
"109000",
"79000",
"80000",
"224000",
"224000",
"132000",
"607000",
"109000",
"206000",
"103000",
"354000",
"398000",
"534000",
"222000",
"116000",
"214000",
"368000",
"214000",
"214000",
"254000",
"212000",
"260000",
"260000",
"174000",
"170000",
"180000",
"270000",
"132000",
"132000",
"132000",
"260000",
"260000",
"268000",
"180000",
"182000",
"180000",
"156000",
"580000",
"226000",
"478000",
"184000",
"180000",
"180000",
"299000",
"221000",
"135000",
"623000",
"364000",
"589000",
"432000",
"544000",
"216000",
"756000",
"432000",
"140000",
"450000",
"591000",
"537000",
"756000",
"397000",
"180000",
"601000",
"544000",
"484000",
"260000",
"484000",
"182000",
"122000",
"722000",
"254000",
"216000",
"128000",
"128000",
"180000",
"150000",
"778000",
"778000",
"778000",
"778000",
"500000",
"500000",
"778000",
"283100",
"180000",
"234000",
"222000",
"156000",
"222000",
"266000",
"232000",
"232000",
"162000",
"340000",
"228000",
"99000",
"240000",
"234000",
"207000",
"230000",
"235500",
"264000",
"408000",
"78000",
"232000",
"99000",
"139500",
"360000",
"190000",
"234000",
"120000",
"120000",
"112500",
"180000",
"186000",
"249000",
"240000",
"264000",
"100000",
"220000",
"186000",
"216000",
"186000",
"490000",
"260000",
"211500",
"192000",
"120000",
"228000",
"188000",
"260000",
"120000",
"207000",
"232000",
"320000",
"228000",
"260000",
"240000",
"162000",
"190000",
"247500",
"266000",
"99000",
"140000",
"320000",
"188000",
"194000",
"216000",
"180000",
"188000",
"246000",
"253500",
"222000",
"400000",
"186000",
"228000",
"280000",
"264000",
"280000",
"186000",
"180000",
"180000",
"216000",
"247500",
"232000",
"133500",
"222000",
"222000",
"120000",
"280000",
"246000",
"216000",
"222000",
"216000",
"99000",
"316000",
"280000",
"230000",
"300000",
"340000",
"186000",
"266000",
"99000",
"192000",
"216000",
"400000",
"498000",
"300000",
"216000",
"212000",
"212000",
"198000",
"176000",
"212000",
"234000",
"234000",
"280000",
"212000",
"176000",
"214000",
"186000",
"192000",
"246000",
"316000",
"224000",
"228000",
"266000",
"176000",
"228000",
"188000",
"316800",
"316800",
"212000",
"281200",
"714400",
"264600",
"192600",
"136000",
"266000",
"320000",
"186000",
"198000",
"402000",
"279000",
"279000",
"349000",
"479000",
"479000",
"400000",
"379000",
"699000",
"700000",
"300000",
"419000",
"380000",
"320000",
"349000",
"499000",
"320000",
"320000",
"157500",
"207000",
"200000",
"280000",
"237000",
"210000",
"399000",
"320000",
"250000",
"320000",
"320000",
"320000",
"619000",
"669000",
"550000",
"350000",
"198000",
"380000",
"442800",
"550000",
"650000",
"450000",
"350000",
"250000",
"250000",
"250000",
"178200",
"196200",
"320000",
"320000",
"320000",
"320000",
"560000",
"449000",
"229000",
"474600",
"474600",
"430000",
"420000",
"799000",
"489000",
"635000",
"275000",
"530100",
"480900",
"452700",
"398000",
"300000",
"398000",
"398000",
"430000",
"377894",
"509000",
"509000",
"509000",
"433000",
"435000",
"435000",
"478000",
"482000",
"436000",
"229000",
"339000",
"229000",
"283100",
"398000",
"399000",
"399000",
"399000",
"398000",
"399000",
"769000",
"720000",
"750000",
"630000",
"499000",
"619000",
"539000",
"450000",
"770000",
"790000",
"520000",
"530000",
"530000",
"530000",
"530000",
"530000",
"530000",
"799000",
"799000",
"250000",
"250000",
"250000",
"550000",
"550000",
"550000",
"140000",
"140000",
"140000",
"140000",
"140000",
"140000",
"140000",
"140000",
"140000",
"140000",
"140000",
"140000",
"140000",
"140000",
"140000",
"140000",
"140000",
"140000",
"140000",
"140000",
"140000",
"140000",
"140000",
"140000",
"140000",
"140000",
"140000",
"140000",
"140000",
"140000",
"140000",
"140000",
"140000",
"140000",
"140000",
"140000",
"140000",
"140000",
"140000",
"140000",
"140000",
"140000",
"140000",
"140000",
"140000",
"140000",
"140000",
"140000",
"140000",
"140000",
"140000",
"140000",
"140000",
"140000",
"140000",
"140000",
"140000",
"140000",
"140000",
"140000",
"140000",
"140000",
"140000",
"140000",
"140000",
"140000",
"140000",
"140000",
"140000",
"140000",
"140000",
"140000",
"140000",
"140000",
"140000",
"140000",
"140000",
"140000",
"140000",
"140000",
"140000",
"140000",
"140000",
"140000",
"140000",
"140000",
"140000",
"140000",
"140000",
"140000",
"140000",
"140000",
"140000",
"140000",
"140000",
"140000",
"140000",
"140000",
"140000",
"140000",
"140000",
"140000",
"140000",
"140000",
"140000",
"140000",
"140000",
"140000",
"140000",
"140000",
"140000",
"140000",
"140000",
"140000",
"140000",
"140000",
"140000",
"140000",
"140000",
"140000",
"140000",
"140000",
"140000",
"140000",
"140000",
"140000",
"140000",
"140000",
"140000",
"140000",
"140000",
"140000",
"140000",
"140000",
"140000",
"140000",
"140000",
"140000",
"140000",
"140000",
"140000",
"140000",
"140000",
"140000",
"140000",
"140000",
"140000",
"140000",
"140000",
"140000",
"140000",
"140000",
"140000",
"140000",
"140000",
"140000",
"140000",
"140000",
"140000",
"140000",
"140000",
"140000",
"140000",
"140000",
"140000",
"140000",
"140000",
"140000",
"140000",
"140000",
"140000",
"140000",
"140000",
"140000",
"140000",
"140000",
"140000",
"140000",
"140000",
"140000",
"140000",
"140000",
"140000",
"140000",
"140000",
"140000",
"140000",
"140000",
"140000",
"140000",
"140000",
"140000",
"140000",
"140000",
"140000",
"140000",
"140000",
"140000",
"140000",
"140000",
"140000",
"140000",
"140000",
"140000",
"140000",
"140000",
"140000",
"140000",
"140000",
"140000",
"140000",
"140000",
"140000",
"140000",
"140000",
"140000",
"140000",
"140000",
"140000",
"140000",
"140000",
"140000",
"140000",
"140000",
"140000",
"140000",
"140000",
"140000",
"140000",
"140000",
"140000",
"140000",
"140000",
"140000",
"140000",
"140000",
"140000",
"140000",
"140000",
"140000",
"140000",
"140000",
"140000",
"140000",
"140000",
"140000",
"140000",
"140000",
"140000",
"140000",
"140000",
"140000",
"140000",
"140000",
"140000",
"140000",
"140000",
"140000",
"140000",
"140000",
"140000",
"140000",
"140000",
"140000",
"140000",
"140000",
"140000",
"140000",
"140000",
"140000",
"140000",
"340000",
"450000",
"400000",
"300000",
"300000",
"350000",
"350000",
"350000",
"350000",
"400000",
"500000",
"500000",
"400000",
"350000",
"450000",
"300000",
"300000",
"300000",
"300000",
"300000",
"300000",
"300000",
"250000",
"300000",
"270000",
"270000",
"350000",
"350000",
"270000",
"250000",
"270000",
"270000",
"270000",
"270000",
"450000",
"450000",
"450000",
"300000",
"350000",
"280000",
"465500",
"398000",
"418000",
"398000",
"550000",
"398000",
"398000",
"608000",
"350000",
"750000",
"410000",
"450000",
"420000",
"570000",
"540000",
"390000",
"398000",
"398000",
"698000",
"400000",
"498000",
"700000",
"498000",
"500000",
"500000",
"500000",
"698000",
"638000",
"638000",
"410000",
"518000",
"760000",
"498000",
"498000",
"498000",
"498000",
"598000",
"598000",
"469000",
"638000",
"600000",
"650000",
"658000",
"719000",
"398000",
"489000",
"739000",
"749000",
"216000",
"378000",
"378000",
"399000",
"420000",
"720000",
"780000",
"780000",
"720000",
"720000",
"720000",
"720000",
"720000",
"780000",
"720000",
"500000",
"789000",
"720000",
"720000",
"710000",
"710000",
"510000",
"710000",
"430000",
"295000",
"378000",
"630000",
"450000",
"450000",
"418000",
"711000",
"798000",
"490000",
"510000",
"510000",
"470000",
"558000",
"450000",
"650000",
"710000",
"398000",
"350000",
"250000",
"250000",
"199000",
"399000",
"466200",
"378000",
"350000",
"290000",
"169000",
"169000",
"169000",
"169000",
"650000",
"450000",
"300000",
"300000",
"300000",
"300000",
"300000",
"450000",
"450000",
"200000",
"250000",
"270000",
"200000",
"200000",
"350000",
"250000",
"250000",
"400000",
"450000",
"400000",
"159000",
"169000",
"209000",
"209000",
"180000",
"190000",
"250000",
"459000",
"459000",
"399000",
"358000",
"358000",
"358000",
"399000",
"358000",
"298000",
"268200",
"268200",
"279000",
"268200",
"358200",
"438000",
"190000",
"505600",
"507200",
"549100",
"282600",
"236800",
"273600",
"323000",
"236800",
"318600",
"225600",
"330600",
"227200",
"156800",
"323000",
"283100",
"165300",
"257400",
"246600",
"163200",
"216000",
"344000",
"323000",
"338200",
"336300",
"332500",
"294000",
"288000",
"522500",
"290000",
"334000",
"276000",
"276000",
"294000",
"171700",
"279000",
"170000",
"384000",
"385500",
"278000",
"282000",
"296000",
"296000",
"330000",
"336000",
"278000",
"290000",
"296000",
"336000",
"334000",
"252000",
"298000",
"326800",
"316800",
"336600",
"241200",
"248400",
"322200",
"147000",
"270000",
"268500",
"271500",
"222000",
"264000",
"280500",
"156000",
"145500",
"145500",
"382500",
"171700",
"170000",
"231000",
"228000",
"228000",
"229500",
"228000",
"228000",
"439200",
"173400",
"168300",
"408000",
"292000",
"260000",
"260000",
"408000",
"260000",
"260000",
"288000",
"246000",
"408000",
"408000",
"536000",
"456000",
"374000",
"374000",
"400000",
"292000",
"292000",
"660000",
"292000",
"275000",
"275000",
"300000",
"400000",
"179998",
"199998",
"259998",
"380000",
"300000",
"300000",
"300000",
"179998",
"179998",
"259998",
"179998",
"179998",
"179998",
"360000",
"280000",
"280000",
"280000",
"280000",
"199998",
"199998",
"179998",
"179998",
"319998",
"199998",
"199998",
"199998",
"199998",
"239998",
"239998",
"239998",
"300000",
"179998",
"179998",
"179998",
"179998",
"179998",
"179998",
"179998",
"179998",
"360000",
"380000",
"179998",
"179998",
"179998",
"179998",
"299998",
"419000",
"199998",
"179998",
"159998",
"159000",
"281000",
"262000",
"262000",
"262000",
"228000",
"89000",
"100000",
"128000",
"372000",
"270000",
"304000",
"304000",
"304000",
"304000",
"134000",
"490000",
"284000",
"284000",
"208000",
"681000",
"341000",
"275000",
"284000",
"208000",
"382000",
"159000",
"164000",
"314000",
"314000",
"246000",
"248000",
"258000",
"230000",
"370000",
"462000",
"292000",
"292000",
"324000",
"430000",
"292000",
"292000",
"292000",
"216000",
"168000",
"168000",
"168000",
"630000",
"216000",
"168000",
"216000",
"216000",
"216000",
"388000",
"584000",
"584000",
"456000",
"604000",
"462000",
"216000",
"306000",
"258000",
"258000",
"258000",
"428000",
"730000",
"308000",
"308000",
"308000",
"244000",
"250000",
"236000",
"434000",
"290000",
"228000",
"244000",
"244000",
"308000",
"448000",
"562000",
"562000",
"322000",
"250000",
"282000",
"288000",
"294000",
"306000",
"322000",
"280000",
"338000",
"328000",
"334000",
"310000",
"342000",
"344000",
"236000",
"236000",
"310000",
"344000",
"488000",
"322000",
"284000",
"322000",
"326000",
"280000",
"364000",
"326000",
"286000",
"382000",
"316000",
"598000",
"334000",
"326000",
"334000",
"336000",
"326000",
"310000",
"334000",
"524000",
"546000",
"546000",
"250000",
"193000",
"180000",
"125000",
"183000",
"125000",
"192000",
"192000",
"125000",
"175000",
"183000",
"194000",
"206000",
"188000",
"203000",
"161000",
"206000",
"161000",
"161000",
"161000",
"189000",
"169000",
"198000",
"198000",
"167000",
"162000",
"192000",
"188000",
"280000",
"194000",
"208000",
"206000",
"182000",
"188000",
"149000",
"149000",
"307000",
"188000",
"188000",
"188000",
"145000",
"188000",
"145000",
"205000",
"190000",
"169000",
"169000",
"201000",
"206000",
"205000",
"209000",
"205000",
"190000",
"161000",
"203000",
"183000",
"182000",
"245000",
"245000",
"299000",
"315000",
"315000",
"160000",
"209000",
"309000",
"298000",
"698000",
"738000",
"798000",
"759000",
"799000",
"799000",
"799000",
"598000",
"439000",
"799000",
"698000",
"718000",
"598000",
"689000",
"439000",
"399000",
"599000",
"399000",
"678000",
"598000",
"558000",
"558000",
"538000",
"439000",
"598000",
"698000",
"718000",
"698000",
"579000",
"678000",
"698000",
"699000",
"518000",
"578000",
"678000",
"698000",
"749000",
"739000",
"369000",
"690000",
"500000",
"500000",
"620000",
"720000",
"635000",
"364000",
"415000",
"414999",
"389000",
"679000",
"228000",
"389000",
"600000",
"489000",
"269000",
"185000",
"185000",
"269000",
"599000",
"500000",
"460000",
"250000",
"540000",
"200000",
"200000",
"200000",
"200000",
"200000",
"200000",
"170000",
"170000",
"170000",
"170000",
"170000",
"170000",
"170000",
"170000",
"170000",
"170000",
"170000",
"170000",
"170000",
"170000",
"170000",
"170000",
"170000",
"170000",
"170000",
"170000",
"170000",
"170000",
"170000",
"170000",
"170000",
"170000",
"170000",
"170000",
"170000",
"170000",
"170000",
"170000",
"170000",
"170000",
"170000",
"170000",
"170000",
"170000",
"170000",
"170000",
"170000",
"170000",
"170000",
"170000",
"170000",
"170000",
"170000",
"170000",
"170000",
"170000",
"170000",
"170000",
"170000",
"170000",
"170000",
"170000",
"170000",
"170000",
"170000",
"170000",
"170000",
"170000",
"170000",
"170000",
"170000",
"170000",
"170000",
"170000",
"170000",
"170000",
"170000",
"170000",
"170000",
"170000",
"170000",
"170000",
"135000",
"135000",
"295000",
"333000",
"150000",
"150000",
"333000",
"333000",
"333000",
"275000",
"275000",
"450000",
"398000",
"358000",
"398000",
"592000",
"592000",
"400000",
"400000",
"180000",
"180000",
"180000"]