["37",
"40",
"40",
"30",
"41",
"41",
"19",
"38",
"34",
"38",
"41",
"41",
"39",
"51",
"66",
"41",
"60",
"65",
"58",
"58",
"41",
"36",
"27",
"22",
"43",
"40",
"43",
"43",
"43",
"41",
"35",
"48",
"41",
"42",
"31",
"60",
"45",
"49",
"45",
"60",
"60",
"49",
"40",
"54",
"54",
"50",
"50",
"51",
"38",
"47",
"42",
"46",
"46",
"19",
"19",
"47",
"43",
"49",
"46",
"34",
"43",
"44",
"44",
"47",
"35",
"43",
"49",
"36",
"33",
"50",
"50",
"44",
"0",
"10",
"0",
"33",
"0",
"0",
"0",
"0",
"0",
"27",
"47",
"44",
"0",
"6",
"0",
"13",
"15",
"15",
"15",
"15",
"15",
"15",
"15",
"15",
"15",
"15",
"15",
"15",
"15",
"15",
"15",
"15",
"15",
"15",
"15",
"15",
"15",
"15",
"15",
"15",
"15",
"15",
"15",
"15",
"15",
"15",
"15",
"15",
"15",
"15",
"15",
"15",
"15",
"15",
"15",
"15",
"15",
"15",
"15",
"15",
"15",
"15",
"15",
"15",
"15",
"15",
"15",
"15",
"15",
"15",
"15",
"15",
"15",
"15",
"15",
"6",
"15",
"15",
"15",
"15",
"15",
"15",
"15",
"15",
"15",
"15",
"15",
"15",
"15",
"15",
"15",
"15",
"15",
"15",
"15",
"15",
"15",
"15",
"15",
"15",
"15",
"15",
"15",
"15",
"15",
"15",
"15",
"15",
"15",
"15",
"15",
"15",
"15",
"15",
"15",
"15",
"15",
"15",
"15",
"15",
"15",
"15",
"15",
"15",
"15",
"15",
"15",
"15",
"15",
"15",
"15",
"15",
"15",
"15",
"15",
"15",
"15",
"15",
"15",
"15",
"15",
"15",
"15",
"15",
"15",
"15",
"15",
"15",
"15",
"15",
"15",
"15",
"15",
"15",
"15",
"15",
"15",
"15",
"15",
"15",
"15",
"15",
"15",
"15",
"15",
"15",
"15",
"15",
"15",
"15",
"15",
"15",
"15",
"15",
"15",
"15",
"15",
"15",
"15",
"15",
"15",
"15",
"15",
"15",
"15",
"15",
"15",
"15",
"15",
"15",
"15",
"15",
"15",
"15",
"15",
"15",
"15",
"15",
"15",
"15",
"15",
"15",
"15",
"15",
"15",
"15",
"15",
"15",
"15",
"15",
"15",
"15",
"15",
"15",
"15",
"15",
"15",
"15",
"15",
"15",
"15",
"15",
"15",
"15",
"15",
"15",
"15",
"15",
"15",
"15",
"15",
"15",
"15",
"15",
"15",
"15",
"15",
"15",
"15",
"15",
"15",
"15",
"15",
"15",
"15",
"15",
"15",
"15",
"15",
"15",
"15",
"15",
"15",
"15",
"15",
"15",
"15",
"15",
"15",
"15",
"15",
"15",
"15",
"15",
"15",
"15",
"15",
"15",
"15",
"15",
"15",
"15",
"15",
"15",
"15",
"15",
"15",
"15",
"15",
"15",
"15",
"15",
"15",
"15",
"15",
"15",
"15",
"15",
"15",
"15",
"15",
"15",
"15",
"15",
"15",
"15",
"15",
"15",
"15",
"15",
"15",
"15",
"15",
"15",
"15",
"15",
"15",
"15",
"15",
"15",
"15",
"15",
"15",
"15",
"15",
"15",
"15",
"15",
"15",
"15",
"15",
"15",
"15",
"15",
"15",
"15",
"15",
"15",
"15",
"15",
"15",
"15",
"15",
"15",
"15",
"15",
"15",
"15",
"15",
"15",
"15",
"15",
"15",
"15",
"15",
"15",
"15",
"15",
"15",
"15",
"15",
"15",
"15",
"15",
"15",
"15",
"15",
"15",
"15",
"15",
"15",
"15",
"15",
"15",
"15",
"15",
"15",
"15",
"15",
"15",
"15",
"15",
"15",
"15",
"15",
"15",
"15",
"15",
"15",
"15",
"15",
"15",
"15",
"15",
"15",
"15",
"15",
"15",
"15",
"15",
"15",
"15",
"15",
"15",
"15",
"15",
"15",
"15",
"15",
"15",
"15",
"15",
"15",
"15",
"15",
"15",
"15",
"15",
"15",
"15",
"15",
"15",
"15",
"15",
"15",
"15",
"15",
"15",
"15",
"15",
"15",
"15",
"15",
"15",
"15",
"15",
"15",
"15",
"15",
"15",
"15",
"15",
"15",
"15",
"15",
"15",
"15",
"15",
"15",
"15",
"15",
"15",
"15",
"15",
"15",
"15",
"15",
"15",
"15",
"15",
"15",
"15",
"15",
"15",
"15",
"15",
"15",
"15",
"15",
"15",
"15",
"15",
"15",
"15",
"15",
"15",
"15",
"15",
"15",
"15",
"15",
"15",
"15",
"15",
"15",
"15",
"15",
"15",
"15",
"15",
"15",
"15",
"15",
"15",
"15",
"15",
"15",
"15",
"15",
"15",
"15",
"15",
"15",
"15",
"15",
"15",
"15",
"15",
"15",
"15",
"15",
"15",
"15",
"15",
"15",
"15",
"15",
"15",
"15",
"15",
"15",
"15",
"15",
"15",
"15",
"15",
"15",
"15",
"15",
"15",
"15",
"15",
"15",
"15",
"15",
"15",
"15",
"15",
"15",
"15",
"15",
"15",
"15",
"15",
"15",
"15",
"15",
"15",
"15",
"15",
"15",
"15",
"15",
"15",
"15",
"15",
"15",
"15",
"15",
"15",
"15",
"15",
"15",
"15",
"15",
"15",
"15",
"15",
"15",
"15",
"15",
"15",
"15",
"15",
"15",
"15",
"15",
"15",
"15",
"15",
"15",
"15",
"15",
"15",
"15",
"15",
"15",
"15",
"15",
"15",
"15",
"15",
"15",
"15",
"15",
"15",
"15",
"15",
"15",
"15",
"15",
"15",
"15",
"15",
"15",
"15",
"15",
"15",
"15",
"15",
"15",
"15",
"15",
"15",
"15",
"15",
"15",
"15",
"15",
"15",
"15",
"15",
"15",
"15",
"15",
"15",
"15",
"15",
"15",
"15",
"15",
"15",
"15",
"15",
"15",
"15",
"15",
"15",
"15",
"15",
"15",
"15",
"15",
"15",
"15",
"15",
"15",
"15",
"15",
"15",
"15",
"15",
"15",
"15",
"15",
"15",
"15",
"15",
"15",
"15",
"15",
"15",
"15",
"15",
"15",
"15",
"15",
"15",
"15",
"15",
"15",
"15",
"15",
"15",
"15",
"15",
"15",
"15",
"15",
"15",
"15",
"15",
"15",
"15",
"15",
"15",
"15",
"15",
"15",
"15",
"15",
"15",
"15",
"15",
"15",
"15",
"15",
"15",
"15",
"15",
"15",
"15",
"15",
"15",
"15",
"15",
"15",
"15",
"15",
"15",
"15",
"15",
"15",
"15",
"15",
"15",
"15",
"15",
"15",
"15",
"15",
"15",
"15",
"15",
"15",
"15",
"15",
"15",
"15",
"15",
"15",
"15",
"15",
"15",
"15",
"15",
"15",
"15",
"15",
"15",
"15",
"15",
"15",
"15",
"15",
"15",
"15",
"15",
"15",
"15",
"15",
"15",
"15",
"15",
"15",
"15",
"15",
"15",
"15",
"15",
"15",
"15",
"15",
"15",
"15",
"15",
"15",
"15",
"15",
"15",
"15",
"15",
"15",
"15",
"15",
"15",
"15",
"15",
"15",
"15",
"15",
"15",
"15",
"15",
"15",
"15",
"15",
"15",
"15",
"15",
"15",
"15",
"15",
"15",
"15",
"15",
"15",
"15",
"15",
"15",
"15",
"15",
"15",
"15",
"15",
"15",
"15",
"15",
"15",
"15",
"15",
"15",
"15",
"15",
"15",
"15",
"15",
"15",
"15",
"15",
"15",
"15",
"15",
"15",
"15",
"15",
"15",
"15",
"15",
"15",
"15",
"15",
"15",
"15",
"15",
"15",
"15",
"15",
"15",
"15",
"15",
"15",
"15",
"15",
"15",
"15",
"15",
"15",
"15",
"15",
"15",
"15",
"15",
"15",
"15",
"15",
"15",
"15",
"15",
"15",
"15",
"15",
"15",
"15",
"15",
"15",
"15",
"15",
"15",
"15",
"15",
"15",
"15",
"15",
"15",
"15",
"15",
"15",
"15",
"15",
"15",
"15",
"15",
"15",
"15",
"15",
"15",
"15",
"15",
"15",
"15",
"15",
"15",
"15",
"15",
"15",
"15",
"15",
"15",
"15",
"15",
"15",
"15",
"15",
"15",
"15",
"15",
"15",
"15",
"15",
"15",
"15",
"15",
"15",
"15",
"15",
"15",
"15",
"15",
"15",
"15",
"15",
"15",
"15",
"15",
"15",
"15",
"15",
"15",
"15",
"15",
"15",
"15",
"15",
"15",
"15",
"15",
"15",
"15",
"6",
"15",
"15",
"15",
"15",
"15",
"15",
"15",
"15",
"15",
"15",
"15",
"15",
"15",
"15",
"15",
"15",
"15",
"15",
"15",
"15",
"15",
"15",
"15",
"15",
"15",
"15",
"15",
"15",
"15",
"15",
"15",
"15",
"15",
"15",
"15",
"15",
"15",
"15",
"15",
"15",
"15",
"15",
"15",
"15",
"15",
"15",
"15",
"15",
"15",
"15",
"15",
"15",
"15",
"15",
"15",
"15",
"15",
"15",
"15",
"15",
"15",
"15",
"15",
"15",
"15",
"15",
"15",
"15",
"15",
"15",
"15",
"15",
"15",
"15",
"15",
"15",
"15",
"15",
"15",
"15",
"15",
"15",
"15",
"15",
"15",
"15",
"15",
"15",
"15",
"15",
"15",
"15",
"15",
"15",
"15",
"15",
"15",
"15",
"15",
"15",
"15",
"15",
"15",
"15",
"15",
"15",
"15",
"15",
"15",
"15",
"15",
"15",
"15",
"15",
"15",
"15",
"15",
"15",
"15",
"15",
"15",
"15",
"15",
"15",
"15",
"15",
"15",
"15",
"15",
"15",
"15",
"15",
"15",
"15",
"15",
"15",
"15",
"15",
"15",
"15",
"15",
"15",
"15",
"15",
"15",
"15",
"15",
"15",
"15",
"15",
"15",
"15",
"15",
"15",
"15",
"15",
"15",
"15",
"15",
"15",
"15",
"15",
"15",
"15",
"15",
"15",
"15",
"15",
"15",
"15",
"15",
"15",
"15",
"15",
"15",
"15",
"15",
"15",
"15",
"15",
"15",
"15",
"15",
"15",
"15",
"15",
"15",
"15",
"15",
"15",
"15",
"15",
"15",
"15",
"15",
"15",
"15",
"15",
"15",
"15",
"15",
"15",
"15",
"15",
"15",
"15",
"15",
"15",
"15",
"15",
"15",
"15",
"15",
"15",
"15",
"15",
"15",
"15",
"15",
"15",
"15",
"15",
"15",
"15",
"15",
"15",
"15",
"15",
"15",
"15",
"15",
"15",
"15",
"15",
"15",
"15",
"15",
"15",
"15",
"15",
"15",
"15",
"15",
"15",
"15",
"15",
"15",
"15",
"15",
"15",
"15",
"15",
"15",
"15",
"15",
"15",
"15",
"15",
"15",
"15",
"15",
"15",
"15",
"15",
"15",
"15",
"15",
"15",
"15",
"15",
"15",
"15",
"15",
"15",
"15",
"15",
"15",
"15",
"15",
"15",
"15",
"15",
"15",
"15",
"15",
"15",
"15",
"15",
"15",
"15",
"15",
"15",
"15",
"15",
"15",
"15",
"15",
"15",
"15",
"15",
"15",
"15",
"15",
"15",
"15",
"15",
"15",
"15",
"15",
"15",
"15",
"15",
"15",
"15",
"15",
"15",
"15",
"15",
"15",
"15",
"15",
"15",
"15",
"15",
"15",
"15",
"15",
"15",
"15",
"15",
"15",
"15",
"15",
"15",
"15",
"15",
"15",
"15",
"15",
"15",
"15",
"15",
"15",
"15",
"15",
"15",
"15",
"15",
"15",
"15",
"15",
"15",
"15",
"15",
"15",
"15",
"15",
"15",
"15",
"15",
"15",
"15",
"15",
"15",
"15",
"15",
"15",
"15",
"15",
"15",
"15",
"15",
"15",
"15",
"15",
"15",
"15",
"15",
"15",
"15",
"15",
"15",
"15",
"15",
"15",
"15",
"15",
"15",
"15",
"15",
"15",
"15",
"15",
"15",
"15",
"15",
"15",
"15",
"15",
"15",
"15",
"15",
"15",
"15",
"15",
"15",
"15",
"15",
"15",
"15",
"15",
"15",
"15",
"15",
"15",
"15",
"15",
"15",
"15",
"15",
"15",
"15",
"15",
"15",
"15",
"15",
"15",
"15",
"15",
"15",
"15",
"15",
"15",
"15",
"15",
"15",
"15",
"15",
"15",
"15",
"15",
"15",
"15",
"15",
"15",
"15",
"15",
"15",
"15",
"15",
"15",
"15",
"15",
"15",
"15",
"15",
"15",
"15",
"15",
"15",
"15",
"15",
"15",
"15",
"15",
"15",
"15",
"15",
"15",
"15",
"15",
"15",
"15",
"15",
"15",
"15",
"15",
"15",
"15",
"15",
"15",
"15",
"15",
"15",
"15",
"15",
"15",
"15",
"15",
"15",
"15",
"15",
"15",
"15",
"15",
"15",
"15",
"15",
"15",
"15",
"15",
"15",
"15",
"15",
"15",
"15",
"15",
"15",
"15",
"15",
"15",
"15",
"15",
"15",
"15",
"15",
"15",
"15",
"15",
"15",
"15",
"15",
"15",
"15",
"15",
"15",
"15",
"15",
"15",
"15",
"15",
"15",
"15",
"15",
"15",
"15",
"15",
"15",
"15",
"15",
"15",
"15",
"15",
"15",
"15",
"15",
"15",
"15",
"15",
"15",
"15",
"15",
"15",
"15",
"15",
"15",
"15",
"15",
"15",
"15",
"15",
"15",
"15",
"15",
"15",
"15",
"15",
"15",
"15",
"15",
"15",
"15",
"15",
"15",
"15",
"15",
"15",
"15",
"15",
"15",
"15",
"15",
"15",
"15",
"15",
"15",
"15",
"15",
"15",
"15",
"15",
"15",
"15",
"15",
"15",
"15",
"15",
"15",
"15",
"15",
"15",
"15",
"15",
"15",
"15",
"15",
"15",
"15",
"15",
"15",
"15",
"15",
"15",
"15",
"15",
"15",
"15",
"15",
"15",
"15",
"15",
"15",
"15",
"15",
"15",
"15",
"15",
"15",
"15",
"15",
"15",
"15",
"15",
"15",
"15",
"15",
"15",
"15",
"15",
"15",
"15",
"15",
"15",
"15",
"15",
"15",
"15",
"15",
"15",
"15",
"15",
"15",
"15",
"15",
"15",
"15",
"15",
"15",
"15",
"15",
"15",
"15",
"15",
"15",
"15",
"15",
"15",
"15",
"15",
"15",
"15",
"15",
"15",
"15",
"15",
"15",
"15",
"15",
"15",
"15",
"15",
"15",
"15",
"15",
"15",
"15",
"15",
"15",
"15",
"15",
"15",
"15",
"15",
"15",
"15",
"15",
"15",
"15",
"15",
"15",
"15",
"15",
"15",
"15",
"15",
"15",
"15",
"15",
"15",
"15",
"15",
"15",
"15",
"15",
"15",
"15",
"15",
"15",
"15",
"15",
"15",
"15",
"15",
"15",
"15",
"15",
"15",
"15",
"15",
"15",
"15",
"15",
"15",
"15",
"15",
"15",
"15",
"15",
"15",
"15",
"15",
"15",
"15",
"15",
"15",
"15",
"15",
"15",
"15",
"15",
"15",
"15",
"15",
"15",
"15",
"15",
"15",
"15",
"15",
"15",
"15",
"15",
"15",
"15",
"15",
"15",
"15",
"15",
"15",
"15",
"15",
"15",
"15",
"15",
"15",
"15",
"15",
"15",
"15",
"15",
"15",
"15",
"15",
"15",
"15",
"15",
"15",
"15",
"15",
"15",
"15",
"15",
"15",
"15",
"15",
"15",
"15",
"15",
"15",
"15",
"15",
"15",
"15",
"15",
"15",
"15",
"15",
"15",
"15",
"15",
"15",
"15",
"15",
"15",
"15",
"15",
"15",
"15",
"15",
"15",
"15",
"15",
"15",
"15",
"15",
"15",
"15",
"15",
"15",
"15",
"15",
"15",
"15",
"15",
"15",
"15",
"15",
"15",
"15",
"15",
"15",
"15",
"15",
"15",
"15",
"15",
"15",
"15",
"15",
"15",
"15",
"15",
"15",
"15",
"15",
"15",
"15",
"15",
"15",
"15",
"15",
"15",
"15",
"15",
"15",
"15",
"15",
"15",
"15",
"15",
"15",
"15",
"15",
"15",
"15",
"15",
"15",
"15",
"15",
"15",
"15",
"15",
"15",
"15",
"15",
"15",
"15",
"15",
"15",
"15",
"15",
"15",
"15",
"15",
"15",
"15",
"15",
"15",
"15",
"15",
"15",
"15",
"15",
"15",
"15",
"15",
"15",
"15",
"15",
"15",
"15",
"15",
"15",
"15",
"15",
"15",
"15",
"15",
"15",
"15",
"15",
"15",
"15",
"15",
"15",
"15",
"15",
"15",
"15",
"15",
"15",
"15",
"15",
"15",
"15",
"15",
"15",
"15",
"15",
"15",
"15",
"15",
"15",
"15",
"15",
"15",
"15",
"15",
"15",
"15",
"15",
"15",
"15",
"15",
"15",
"15",
"15",
"15",
"15",
"15",
"15",
"15",
"15",
"15",
"15",
"15",
"15",
"15",
"15",
"15",
"15",
"15",
"15",
"15",
"15",
"15",
"15",
"15",
"15",
"15",
"15",
"15",
"15",
"15",
"15",
"15",
"15",
"15",
"15",
"15",
"15",
"15",
"15",
"15",
"15",
"15",
"15",
"15",
"15",
"15",
"15",
"15",
"15",
"15",
"15",
"15",
"15",
"15",
"15",
"15",
"15",
"15",
"15",
"15",
"15",
"15",
"15",
"15",
"15",
"15",
"15",
"15",
"15",
"15",
"15",
"15",
"15",
"15",
"15",
"15",
"15",
"15",
"15",
"15",
"15",
"15",
"15",
"15",
"15",
"15",
"15",
"15",
"15",
"15",
"15",
"15",
"15",
"15",
"15",
"15",
"15",
"15",
"15",
"15",
"15",
"15",
"15",
"15",
"15",
"15",
"15",
"15",
"15",
"15",
"15",
"15",
"15",
"15",
"15",
"15",
"15",
"15",
"15",
"15",
"15",
"15",
"15",
"15",
"15",
"15",
"15",
"15",
"15",
"15",
"15",
"15",
"15",
"15",
"15",
"15",
"15",
"15",
"15",
"15",
"15",
"15",
"15",
"15",
"15",
"15",
"15",
"15",
"15",
"15",
"15",
"15",
"15",
"15",
"15",
"15",
"15",
"15",
"15",
"15",
"15",
"15",
"15",
"15",
"15",
"15",
"15",
"15",
"15",
"15",
"15",
"15",
"15",
"15",
"15",
"15",
"15",
"15",
"15",
"15",
"15",
"15",
"15",
"15",
"15",
"15",
"15",
"15",
"15",
"15",
"15",
"15",
"15",
"15",
"15",
"15",
"15",
"15",
"15",
"15",
"15",
"15",
"15",
"15",
"15",
"15",
"15",
"15",
"15",
"15",
"15",
"15",
"15",
"15",
"15",
"15",
"15",
"15",
"15",
"15",
"15",
"15",
"15",
"15",
"15",
"15",
"15",
"15",
"15",
"15",
"15",
"15",
"15",
"15",
"15",
"15",
"15",
"15",
"15",
"15",
"15",
"15",
"15",
"15",
"15",
"15",
"15",
"15",
"15",
"15",
"15",
"15",
"15",
"15",
"15",
"15",
"15",
"15",
"15",
"15",
"15",
"15",
"15",
"15",
"15",
"15",
"15",
"15",
"15",
"15",
"15",
"15",
"15",
"15",
"15",
"15",
"15",
"15",
"15",
"15",
"15",
"15",
"15",
"15",
"15",
"15",
"15",
"15",
"15",
"15",
"15",
"15",
"15",
"15",
"15",
"15",
"15",
"15",
"15",
"15",
"15",
"15",
"15",
"15",
"15",
"15",
"15",
"15",
"15",
"15",
"15",
"15",
"15",
"15",
"15",
"15",
"15",
"15",
"15",
"15",
"15",
"15",
"15",
"15",
"15",
"15",
"15",
"15",
"15",
"15",
"15",
"15",
"15",
"15",
"15",
"15",
"15",
"15",
"15",
"15",
"15",
"15",
"15",
"15",
"15",
"15",
"15",
"15",
"15",
"15",
"15",
"15",
"15",
"15",
"15",
"15",
"15",
"15",
"15",
"15",
"15",
"15",
"15",
"15",
"15",
"15",
"15",
"15",
"15",
"15",
"15",
"15",
"15",
"15",
"15",
"15",
"15",
"15",
"15",
"15",
"15",
"15",
"15",
"15",
"15",
"15",
"15",
"15",
"15",
"15",
"15",
"15",
"15",
"15",
"15",
"15",
"15",
"15",
"15",
"15",
"15",
"15",
"15",
"15",
"15",
"15",
"15",
"15",
"15",
"15",
"15",
"15",
"15",
"15",
"15",
"15",
"15",
"15",
"15",
"15",
"15",
"15",
"15",
"15",
"15",
"15",
"15",
"15",
"15",
"15",
"15",
"15",
"15",
"15",
"15",
"15",
"15",
"15",
"15",
"15",
"15",
"15",
"15",
"15",
"15",
"15",
"15",
"15",
"15",
"15",
"15",
"15",
"15",
"15",
"15",
"15",
"15",
"15",
"15",
"15",
"15",
"15",
"15",
"15",
"15",
"15",
"15",
"15",
"15",
"15",
"15",
"15",
"15",
"15",
"15",
"15",
"15",
"15",
"15",
"15",
"15",
"15",
"15",
"15",
"15",
"15",
"15",
"15",
"15",
"15",
"15",
"15",
"15",
"15",
"15",
"15",
"15",
"15",
"15",
"15",
"15",
"15",
"15",
"15",
"15",
"15",
"15",
"15",
"15",
"15",
"15",
"15",
"15",
"15",
"15",
"15",
"15",
"15",
"15",
"15",
"15",
"15",
"15",
"15",
"15",
"15",
"15",
"15",
"15",
"15",
"15",
"15",
"15",
"15",
"15",
"15",
"15",
"15",
"15",
"15",
"15",
"15",
"15",
"15",
"15",
"15",
"15",
"15",
"15",
"15",
"15",
"15",
"15",
"15",
"15",
"15",
"15",
"15",
"15",
"15",
"15",
"15",
"15",
"15",
"15",
"15",
"15",
"15",
"15",
"15",
"15",
"15",
"15",
"15",
"15",
"15",
"15",
"15",
"15",
"15",
"15",
"15",
"15",
"15",
"15",
"15",
"15",
"15",
"15",
"15",
"15",
"15",
"15",
"15",
"15",
"15",
"15",
"15",
"15",
"15",
"15",
"15",
"15",
"15",
"15",
"15",
"15",
"15",
"15",
"15",
"15",
"15",
"15",
"15",
"15",
"15",
"15",
"15",
"15",
"15",
"15",
"15",
"15",
"15",
"15",
"15",
"15",
"15",
"15",
"15",
"15",
"15",
"15",
"15",
"15",
"15",
"15",
"15",
"15",
"15",
"15",
"15",
"15",
"15",
"15",
"12",
"12",
"12",
"12",
"12",
"12",
"12",
"12",
"12",
"12",
"12",
"12",
"12",
"12",
"12",
"12",
"12",
"12",
"12",
"12",
"12",
"12",
"15",
"15",
"15",
"15",
"15",
"15",
"15",
"15",
"15",
"15",
"15",
"15",
"15",
"15",
"15",
"15",
"15",
"15",
"15",
"15",
"15",
"15",
"15",
"15",
"15",
"15",
"15",
"15",
"12",
"12",
"12",
"12",
"12",
"12",
"12",
"12",
"12",
"12",
"12",
"12",
"12",
"12",
"12",
"12",
"12",
"12",
"11",
"12",
"12",
"12",
"12",
"12",
"15",
"15",
"15",
"15",
"15",
"15",
"15",
"15",
"15",
"15",
"15",
"15",
"15",
"15",
"15",
"15",
"15",
"15",
"15",
"15",
"15",
"15",
"15",
"15",
"15",
"15",
"15",
"12",
"12",
"12",
"12",
"12",
"12",
"12",
"12",
"12",
"12",
"12",
"12",
"12",
"12",
"15",
"15",
"15",
"15",
"15",
"15",
"15",
"15",
"15",
"15",
"15",
"15",
"15",
"15",
"15",
"15",
"15",
"15",
"15",
"15",
"15",
"15",
"12",
"12",
"12",
"12",
"12",
"12",
"12",
"12",
"12",
"12",
"12",
"12",
"12",
"15",
"15",
"15",
"15",
"15",
"15",
"15",
"15",
"15",
"15",
"15",
"15",
"15",
"15",
"15",
"12",
"12",
"12",
"12",
"12",
"12",
"12",
"12",
"12",
"12",
"12",
"12",
"12",
"12",
"12",
"12",
"12",
"12",
"12",
"12",
"12",
"15",
"15",
"15",
"15",
"15",
"15",
"15",
"15",
"15",
"15",
"15",
"15",
"15",
"15",
"12",
"12",
"12",
"12",
"12",
"12",
"12",
"12",
"12",
"12",
"12",
"12",
"12",
"12",
"12",
"12",
"12",
"12",
"12",
"12",
"12",
"12",
"12",
"12",
"12",
"12",
"12",
"12",
"12",
"12",
"12",
"12",
"12",
"12",
"12",
"12",
"12",
"12",
"12",
"12",
"15",
"15",
"15",
"15",
"15",
"15",
"15",
"15",
"15",
"15",
"15",
"15",
"15",
"12",
"12",
"12",
"12",
"12",
"12",
"12",
"12",
"12",
"12",
"12",
"12",
"12",
"12",
"12",
"12",
"12",
"12",
"12",
"12",
"12",
"12",
"12",
"12",
"12",
"12",
"12",
"12",
"12",
"12",
"12",
"12",
"12",
"12",
"12",
"12",
"12",
"12",
"12",
"12",
"12",
"12",
"12",
"12",
"12",
"15",
"15",
"15",
"15",
"15",
"15",
"15",
"15",
"15",
"15",
"15",
"15",
"15",
"15",
"15",
"15",
"15",
"15",
"15",
"12",
"12",
"12",
"12",
"12",
"12",
"12",
"12",
"12",
"12",
"12",
"12",
"12",
"12",
"12",
"12",
"12",
"12",
"12",
"12",
"12",
"12",
"12",
"12",
"12",
"12",
"12",
"12",
"12",
"12",
"12",
"12",
"12",
"12",
"12",
"15",
"15",
"15",
"15",
"15",
"15",
"15",
"15",
"15",
"15",
"15",
"15",
"15",
"15",
"15",
"15",
"15",
"15",
"15",
"15",
"15",
"15",
"15",
"15",
"15",
"15",
"15",
"15",
"12",
"12",
"12",
"12",
"12",
"12",
"12",
"12",
"12",
"12",
"12",
"12",
"12",
"12",
"12",
"12",
"12",
"12",
"12",
"12",
"12",
"12",
"12",
"12",
"12",
"12",
"12",
"12",
"12",
"12",
"12",
"12",
"12",
"12",
"12",
"12",
"12",
"12",
"12",
"12",
"12",
"12",
"12",
"15",
"15",
"15",
"15",
"15",
"15",
"15",
"15",
"15",
"15",
"15",
"15",
"15",
"15",
"12",
"12",
"12",
"12",
"12",
"12",
"12",
"12",
"12",
"12",
"12",
"12",
"12",
"12",
"12",
"12",
"12",
"12",
"12",
"12",
"12",
"12",
"12",
"12",
"12",
"12",
"12",
"12",
"12",
"12",
"12",
"12",
"12",
"12",
"10",
"10",
"10",
"11",
"11",
"9",
"11",
"11",
"11",
"11",
"9",
"11",
"11",
"11",
"11",
"11",
"11",
"11",
"11",
"11",
"11",
"11",
"11",
"11",
"11",
"11",
"11",
"11",
"11",
"11",
"11",
"11",
"11",
"11",
"11",
"25",
"0",
"0",
"0",
"0",
"35",
"35",
"35",
"35",
"35",
"35",
"27",
"27",
"22",
"34",
"37",
"23",
"37",
"42",
"0",
"31",
"41",
"0",
"0",
"0",
"0",
"0",
"0",
"0",
"0",
"0",
"0",
"0",
"0",
"0",
"0",
"0",
"0",
"0",
"0",
"0",
"0",
"0",
"0",
"0",
"0",
"0",
"0",
"0",
"0",
"0",
"0",
"0",
"0",
"37",
"37",
"44",
"28",
"22",
"28",
"31",
"35",
"27",
"27",
"27",
"27",
"27",
"27",
"27",
"40",
"40",
"40",
"40",
"40",
"40",
"30",
"25",
"25",
"34",
"43",
"43",
"30",
"30",
"24",
"13",
"10",
"24",
"26",
"26",
"9",
"20",
"14",
"34",
"24",
"24",
"14",
"27",
"27",
"26",
"26",
"26",
"26",
"26",
"40",
"37",
"40",
"19",
"38",
"24",
"40",
"36",
"29",
"30",
"30",
"28",
"31",
"29",
"32",
"35",
"30",
"30",
"38",
"41",
"31",
"30",
"29",
"35",
"27",
"33",
"29",
"29",
"32",
"38",
"38",
"30",
"29",
"33",
"34",
"31",
"30",
"28",
"39",
"28",
"28",
"28",
"29",
"31",
"33",
"33",
"39",
"41",
"41",
"28",
"29",
"29",
"39",
"33",
"30",
"28",
"37",
"30",
"32",
"32",
"38",
"28",
"35",
"35",
"35",
"41",
"39",
"28",
"33",
"31",
"26",
"33",
"25",
"32",
"28",
"30",
"35",
"28",
"31",
"33",
"35",
"36",
"35",
"30",
"33",
"37",
"38",
"47",
"37",
"38",
"40",
"9",
"9",
"12",
"5",
"30",
"23",
"25",
"50",
"46",
"33",
"33",
"33",
"33",
"33",
"50",
"50",
"50",
"33",
"37",
"34",
"34",
"34",
"34",
"34",
"34",
"34",
"34",
"34",
"34",
"34",
"34",
"30",
"30",
"30",
"30",
"34",
"34",
"34",
"33",
"33",
"30",
"30",
"30",
"30",
"30",
"30",
"30",
"30",
"30",
"30",
"30",
"30",
"30",
"30",
"30",
"30",
"30",
"30",
"30",
"30",
"30",
"30",
"30",
"30",
"30",
"30",
"30",
"30",
"30",
"30",
"33",
"34",
"33",
"33",
"34",
"33",
"30",
"25",
"25",
"30",
"30",
"30",
"30",
"30",
"30",
"30",
"30",
"30",
"38",
"38",
"40",
"32",
"0",
"25",
"25",
"25",
"50",
"50",
"50",
"50",
"45",
"50",
"33",
"31",
"38",
"39",
"25",
"25",
"25",
"25",
"25",
"25",
"30",
"25",
"25",
"25",
"25",
"10",
"25",
"25",
"25",
"25",
"25",
"25",
"25",
"25",
"10",
"29",
"29",
"25",
"25",
"25",
"25",
"25",
"25",
"25",
"25",
"25",
"25",
"25",
"29",
"0",
"0",
"25",
"25",
"25",
"65",
"0",
"50",
"43",
"46",
"43",
"32",
"34",
"34",
"37",
"27",
"27",
"20",
"24",
"10",
"31",
"45",
"34",
"10",
"14",
"21",
"21",
"23",
"23",
"30",
"30",
"38",
"25",
"55",
"32",
"50",
"48",
"31",
"43",
"41",
"48",
"34",
"23",
"36",
"36",
"36",
"36",
"0",
"35",
"44",
"40",
"44",
"41",
"45",
"45",
"45",
"50",
"50",
"48",
"52",
"71",
"50",
"40",
"50",
"46",
"40",
"44",
"47",
"48",
"57",
"46",
"48",
"46",
"49",
"66",
"47",
"47",
"23",
"56",
"57",
"55",
"71",
"68",
"55",
"55",
"55",
"55",
"51",
"51",
"42",
"38",
"48",
"46",
"50",
"54",
"40",
"39",
"39",
"39",
"39",
"55",
"66",
"66",
"50",
"45",
"50",
"54",
"78",
"54",
"53",
"53",
"47",
"28",
"28",
"43",
"35",
"35",
"34",
"31",
"36",
"36",
"50",
"34",
"34",
"13",
"13",
"36",
"36",
"40",
"36",
"36",
"37",
"37",
"37",
"37",
"37",
"37",
"37",
"50",
"36",
"36",
"28",
"28",
"10",
"32",
"28",
"10",
"30",
"30",
"37",
"27",
"36",
"30",
"34",
"46",
"27",
"34",
"34",
"42",
"42",
"31",
"24",
"34",
"27",
"31",
"27",
"22",
"46",
"43",
"25",
"35",
"34",
"34",
"40",
"35",
"43",
"28",
"40",
"34",
"34",
"33",
"34",
"44",
"45",
"24",
"0",
"0",
"0",
"0",
"0",
"0",
"0",
"0",
"20",
"10",
"11",
"20",
"21",
"21",
"37",
"37",
"37",
"32",
"31",
"50",
"35",
"27",
"27",
"36",
"40",
"0",
"0",
"0",
"0",
"47",
"30",
"30",
"30",
"30",
"30",
"30",
"30",
"30",
"30",
"30",
"30",
"30",
"30",
"30",
"30",
"30",
"55",
"46",
"22",
"22",
"22",
"22",
"28",
"45",
"39",
"39",
"33",
"0",
"0",
"0",
"43",
"42",
"34",
"33",
"30",
"30",
"30",
"30",
"30",
"30",
"30",
"30",
"30",
"30",
"30",
"30",
"46",
"30",
"33",
"33",
"33",
"33",
"46",
"30",
"30",
"30",
"32",
"32",
"35",
"33",
"17",
"19",
"37",
"34",
"47",
"28",
"46",
"31",
"29",
"31",
"24",
"41",
"37",
"20",
"25",
"25",
"46",
"36",
"46",
"32",
"33",
"33",
"33",
"22",
"33",
"33",
"33",
"33",
"50",
"50",
"5",
"15",
"15",
"15",
"14",
"46",
"40",
"11",
"34",
"0",
"0",
"33",
"0",
"50",
"42",
"52",
"10",
"44",
"59",
"47",
"33",
"40",
"46",
"34",
"56",
"37",
"31",
"31",
"47",
"50",
"43",
"34",
"59",
"40",
"42",
"46",
"30",
"18",
"40",
"23",
"20",
"52",
"26",
"29",
"26",
"29",
"31",
"43",
"42",
"41",
"44",
"43",
"23",
"42",
"52",
"36",
"29",
"50",
"50",
"50",
"49",
"55",
"0",
"15",
"50",
"21",
"34",
"50",
"14",
"32",
"32",
"54",
"17",
"0",
"47",
"20",
"46",
"47",
"50",
"40",
"30",
"50",
"50",
"0",
"0",
"0",
"0",
"51",
"40",
"40",
"51",
"51",
"40",
"40",
"51",
"46",
"46",
"42",
"42",
"42",
"43",
"40",
"40",
"42",
"42",
"41",
"42",
"47",
"42",
"50",
"0",
"0",
"0",
"0",
"0",
"44",
"44",
"34",
"39",
"43",
"49",
"39",
"42",
"36",
"43",
"43",
"26",
"43",
"30",
"30",
"30",
"36",
"49",
"34",
"31",
"29",
"42",
"42",
"42",
"33",
"33",
"37",
"28",
"40",
"40",
"40",
"40",
"40",
"40",
"42",
"39",
"34",
"34",
"36",
"33",
"23",
"27",
"46",
"50",
"40",
"40",
"40",
"50",
"40",
"33",
"30",
"28",
"34",
"42",
"0",
"0",
"28",
"35",
"46",
"46",
"48",
"48",
"36",
"36",
"32",
"25",
"37",
"27",
"34",
"34",
"37",
"34",
"37",
"31",
"32",
"37",
"27",
"37",
"35",
"39",
"38",
"37",
"37",
"30",
"30",
"30",
"0",
"45",
"19",
"0",
"0",
"16",
"0",
"0",
"0",
"38",
"10",
"19",
"19",
"0",
"17",
"31",
"0",
"39",
"17",
"20",
"29",
"17",
"34",
"27",
"34",
"0",
"29",
"16",
"17",
"0",
"33",
"16",
"34",
"17",
"27",
"29",
"29",
"0",
"39",
"20",
"23",
"16",
"34",
"22",
"19",
"19",
"19",
"51",
"50",
"18",
"31",
"35",
"23",
"23",
"23",
"23",
"23",
"23",
"37",
"35",
"47",
"47",
"31",
"19",
"19",
"19",
"32",
"27",
"44",
"35",
"50",
"16",
"28",
"24",
"50",
"50",
"46",
"24",
"24",
"43",
"43",
"34",
"35",
"35",
"44",
"53",
"47",
"33",
"33",
"50",
"33",
"13",
"0",
"54",
"58",
"48",
"48",
"46",
"57",
"52",
"0",
"0",
"30",
"0",
"39",
"55",
"0",
"0",
"0",
"42",
"42",
"30",
"47",
"30",
"42",
"12",
"29",
"50",
"50",
"42",
"42",
"48",
"42",
"42",
"48",
"42",
"60",
"56",
"46",
"42",
"35",
"54",
"53",
"50",
"42",
"48",
"42",
"48",
"42",
"48",
"48",
"48",
"42",
"48",
"42",
"42",
"45",
"45",
"50",
"37",
"8",
"11",
"8",
"12",
"11",
"8",
"7",
"7",
"11",
"10",
"10",
"4",
"7",
"10",
"10",
"7",
"10",
"7",
"44",
"44",
"44",
"44",
"33",
"45",
"49",
"29",
"29",
"28",
"28",
"28",
"5",
"5",
"0",
"0",
"60",
"60",
"47",
"0",
"0",
"0",
"0",
"0",
"0",
"0",
"0",
"0",
"0",
"0",
"0",
"0",
"22",
"14",
"14",
"23",
"23",
"23",
"23",
"23",
"23",
"19",
"19",
"19",
"19",
"19",
"19",
"19",
"19",
"21",
"21",
"33",
"33",
"39",
"37",
"45",
"47",
"28",
"50",
"45",
"45",
"50",
"36",
"29",
"36",
"37",
"35",
"31",
"39",
"42",
"31",
"36",
"48",
"52",
"52",
"52",
"0",
"0",
"0",
"0",
"0",
"0",
"0",
"0",
"0",
"0",
"0",
"0",
"0",
"0",
"0",
"0",
"0",
"0",
"0",
"0",
"0",
"0",
"0",
"0",
"0",
"0",
"0",
"0",
"0",
"0",
"0",
"0",
"0",
"0",
"0",
"0",
"0",
"0",
"0",
"26",
"26",
"26",
"26",
"26",
"26",
"44",
"30",
"28",
"44",
"30",
"25",
"40",
"25",
"0",
"40",
"0",
"35",
"50",
"0",
"50",
"50",
"50",
"50",
"50",
"0",
"50",
"50",
"50",
"50",
"0",
"50",
"50",
"0",
"50",
"50",
"50",
"50",
"0",
"50",
"50",
"50",
"50",
"50",
"50",
"50",
"50",
"50",
"50",
"50",
"50",
"50",
"50",
"50",
"50",
"50",
"50",
"50",
"50",
"50",
"50",
"50",
"0",
"50",
"50",
"50",
"50",
"50",
"50",
"50",
"50",
"50",
"50",
"50",
"50",
"50",
"0",
"50",
"50",
"50",
"50",
"50",
"50",
"50",
"50",
"50",
"50",
"50",
"50",
"50",
"50",
"50",
"50",
"50",
"50",
"50",
"50",
"50",
"50",
"50",
"50",
"50",
"50",
"50",
"50",
"50",
"50",
"50",
"50",
"50",
"50",
"50",
"50",
"50",
"50",
"50",
"50",
"0",
"50",
"50",
"50",
"50",
"50",
"50",
"50",
"50",
"50",
"50",
"50",
"50",
"50",
"50",
"50",
"50",
"50",
"50",
"50",
"50",
"50",
"50",
"50",
"50",
"50",
"50",
"50",
"50",
"0",
"50",
"50",
"50",
"50",
"50",
"50",
"50",
"50",
"50",
"50",
"50",
"0",
"50",
"50",
"50",
"50",
"50",
"50",
"0",
"0",
"50",
"50",
"50",
"50",
"50",
"0",
"50",
"50",
"50",
"20",
"20",
"50",
"40",
"20",
"10",
"32",
"32",
"32",
"34",
"30",
"25",
"20",
"53",
"0",
"20",
"30",
"20",
"31",
"27",
"0",
"13",
"45",
"34",
"42",
"7",
"46",
"50",
"0",
"0",
"0",
"0",
"0",
"0",
"0",
"0",
"0",
"0",
"0",
"0",
"0",
"50",
"50",
"47",
"33",
"33",
"0",
"0",
"50",
"0",
"0",
"40",
"0",
"0",
"0",
"0",
"0",
"0",
"36",
"0",
"0",
"0",
"0",
"50",
"0",
"0",
"0",
"14",
"14",
"10",
"5",
"25",
"0",
"0",
"47",
"0",
"28",
"10",
"15",
"13",
"44",
"18",
"55",
"55",
"55",
"41",
"50",
"40",
"20",
"0",
"0",
"0",
"0",
"0",
"0",
"0",
"50",
"38",
"50",
"37",
"42",
"50",
"50",
"53",
"37",
"47",
"50",
"0",
"40",
"21",
"23",
"43",
"10",
"18",
"33",
"33",
"33",
"33",
"33",
"46",
"43",
"27",
"21",
"34",
"32",
"15",
"23",
"23",
"23",
"23",
"23",
"23",
"27",
"19",
"32",
"43",
"43",
"36",
"25",
"25",
"25",
"40",
"50",
"50",
"50",
"50",
"50",
"0",
"0",
"0",
"0",
"0",
"0",
"0",
"0",
"0",
"33",
"33",
"33",
"33",
"33",
"33",
"36",
"36",
"36",
"48",
"44",
"31",
"13",
"33",
"14",
"10",
"10",
"10",
"10",
"0",
"0",
"5",
"5",
"0",
"50",
"13",
"27",
"27",
"19",
"19",
"19",
"19",
"19",
"19",
"42",
"42",
"11",
"12",
"12",
"13",
"13",
"34",
"34",
"34",
"48",
"56",
"8",
"14",
"17",
"22",
"23",
"17",
"53",
"40",
"53",
"27",
"28",
"44",
"37",
"13",
"13",
"8",
"13",
"13",
"30",
"30",
"0",
"0",
"0",
"0",
"0",
"0",
"0",
"0",
"0",
"52",
"36",
"36",
"36",
"36",
"36",
"36",
"44",
"47",
"29",
"27",
"47",
"44",
"50",
"20",
"20",
"43",
"36",
"36",
"42",
"42",
"48",
"48",
"29",
"0",
"50",
"50",
"25",
"23",
"23",
"23",
"23",
"14",
"24",
"22",
"19",
"19",
"17",
"27",
"19",
"19",
"15",
"19",
"40",
"39",
"40",
"25",
"25",
"51",
"22",
"35",
"40",
"35",
"10",
"35",
"34",
"35",
"10",
"38",
"10",
"10",
"10",
"54",
"45",
"42",
"40",
"41",
"42",
"34",
"34",
"34",
"34",
"34",
"34",
"34",
"34",
"42",
"39",
"39",
"39",
"42",
"42",
"43",
"41",
"41",
"42",
"42",
"42",
"39",
"42",
"42",
"42",
"36",
"42",
"36",
"36",
"44",
"44",
"41",
"39",
"39",
"34",
"42",
"39",
"42",
"39",
"40",
"40",
"43",
"36",
"36",
"36",
"36",
"36",
"36",
"50",
"50",
"50",
"33",
"50",
"44",
"50",
"50",
"50",
"33",
"36",
"36",
"36",
"36",
"36",
"36",
"39",
"39",
"36",
"36",
"36",
"39",
"39",
"14",
"42",
"42",
"38",
"50",
"50",
"50",
"50",
"50",
"60",
"45",
"45",
"42",
"50",
"50",
"50",
"56",
"56",
"42",
"42",
"50",
"50",
"50",
"50",
"50",
"18",
"33",
"50",
"50",
"50",
"50",
"50",
"50",
"50",
"50",
"50",
"20",
"33",
"33",
"33",
"20",
"50",
"50",
"50",
"50",
"50",
"50",
"50",
"50",
"33",
"50",
"33",
"33",
"33",
"33",
"33",
"33",
"33",
"33",
"33",
"33",
"50",
"50",
"33",
"33",
"33",
"33",
"33",
"33",
"33",
"33",
"33",
"33",
"50",
"50",
"50",
"50",
"50",
"33",
"33",
"50",
"33",
"33",
"50",
"50",
"50",
"33",
"33",
"50",
"50",
"50",
"33",
"50",
"50",
"33",
"33",
"50",
"33",
"33",
"33",
"50",
"50",
"50",
"50",
"50",
"33",
"50",
"33",
"50",
"50",
"50",
"50",
"50",
"50",
"33",
"33",
"50",
"50",
"50",
"33",
"50",
"50",
"33",
"50",
"50",
"50",
"50",
"50",
"50",
"50",
"50",
"50",
"50",
"33",
"33",
"33",
"33",
"50",
"50",
"50",
"50",
"50",
"50",
"50",
"50",
"50",
"50",
"33",
"50",
"33",
"50",
"50",
"50",
"50",
"50",
"33",
"50",
"50",
"50",
"33",
"38",
"53",
"45",
"46",
"47",
"42",
"42",
"46",
"54",
"55",
"39",
"39",
"35",
"50",
"18",
"18",
"25",
"25",
"38",
"45",
"29",
"45",
"45",
"37",
"23",
"28",
"28",
"22",
"49",
"33",
"40",
"34",
"39",
"41",
"41",
"28",
"41",
"39",
"45",
"45",
"45",
"46",
"29",
"49",
"17",
"22",
"38",
"38",
"37",
"37",
"37",
"55",
"33",
"33",
"27",
"36",
"50",
"37",
"37",
"38",
"47",
"40",
"29",
"40",
"40",
"31",
"31",
"31",
"46",
"43",
"52",
"43",
"27",
"27",
"44",
"47",
"46",
"43",
"32",
"20",
"31",
"27",
"41",
"30",
"27",
"49",
"40",
"40",
"31",
"36",
"28",
"33",
"27",
"47",
"47",
"45",
"35",
"36",
"36",
"32",
"34",
"34",
"37",
"44",
"39",
"48",
"48",
"33",
"44",
"29",
"29",
"35",
"46",
"25",
"39",
"43",
"39",
"36",
"35",
"29",
"29",
"43",
"36",
"30",
"49",
"40",
"32",
"47",
"0",
"37",
"36",
"24",
"47",
"0",
"47",
"43",
"50",
"45",
"49",
"50",
"36",
"44",
"0",
"0",
"49",
"40",
"43",
"50",
"10",
"10",
"10",
"0",
"0",
"50",
"50",
"10",
"10",
"10",
"10",
"10",
"10",
"10",
"50",
"50",
"0",
"36",
"36",
"36",
"39",
"50",
"50",
"35",
"32",
"10",
"10",
"10",
"10",
"26",
"27",
"50",
"50",
"39",
"19",
"14",
"19",
"19",
"14",
"19",
"19",
"21",
"21",
"21",
"21",
"21",
"10",
"10",
"10",
"10",
"0",
"50",
"51",
"23",
"20",
"47",
"50",
"0",
"0",
"0",
"0",
"0",
"0",
"35",
"35",
"38",
"38",
"19",
"30",
"30",
"30",
"30",
"50",
"50",
"40",
"37",
"37",
"37",
"37",
"37",
"43",
"43",
"43",
"43",
"43",
"43",
"43",
"46",
"46",
"30",
"30",
"43",
"43",
"43",
"43",
"37",
"14",
"5",
"5",
"8",
"14",
"14",
"14",
"50",
"50",
"45",
"45",
"34",
"43",
"36",
"14",
"50",
"17",
"23",
"23",
"46",
"46",
"16",
"50",
"50",
"50",
"50",
"50",
"50",
"50",
"21",
"22",
"21",
"21",
"21",
"21",
"21",
"21",
"21",
"21",
"21",
"21",
"21",
"22",
"21",
"21",
"15",
"50",
"50",
"50",
"50",
"50",
"50",
"50",
"27",
"50",
"57",
"57",
"36",
"45",
"28",
"28",
"39",
"21",
"15",
"27",
"27",
"27",
"25",
"31",
"31",
"31",
"34",
"27",
"23",
"26",
"25",
"32",
"28",
"28",
"16",
"28",
"35",
"25",
"35",
"44",
"44",
"29",
"40",
"35",
"28",
"28",
"28",
"28",
"28",
"25",
"26",
"25",
"26",
"33",
"33",
"27",
"27",
"33",
"33",
"33",
"45",
"45",
"13",
"0",
"46",
"46",
"46",
"49",
"22",
"37",
"42",
"38",
"34",
"30",
"43",
"47",
"20",
"31",
"31",
"29",
"43",
"25",
"25",
"25",
"48",
"42",
"50",
"54",
"54",
"50",
"47",
"50",
"25",
"31",
"45",
"51",
"37",
"33",
"33",
"33",
"18",
"39",
"48",
"33",
"43",
"28",
"28",
"47",
"43",
"28",
"28",
"26",
"28",
"28",
"30",
"30",
"31",
"19",
"32",
"33",
"32",
"30",
"53",
"28",
"28",
"29",
"33",
"50",
"34",
"34",
"34",
"38",
"41",
"29",
"21",
"28",
"34",
"24",
"28",
"29",
"45",
"49",
"46",
"55",
"35",
"28",
"35",
"23",
"35",
"28",
"36",
"35",
"35",
"35",
"20",
"26",
"23",
"25",
"22",
"27",
"23",
"23",
"30",
"27",
"30",
"29",
"26",
"28",
"26",
"26",
"35",
"26",
"29",
"0",
"29",
"30",
"35",
"38",
"30",
"30",
"22",
"34",
"29",
"42",
"47",
"47",
"40",
"7",
"14",
"14",
"20",
"44",
"29",
"29",
"27",
"50",
"40",
"41",
"41",
"37",
"46",
"50",
"44",
"50",
"49",
"50",
"32",
"32",
"47",
"47",
"47",
"47",
"47",
"47",
"27",
"27",
"28",
"35",
"0",
"8",
"8",
"25",
"55",
"47",
"35",
"35",
"45",
"29",
"35",
"35",
"29",
"42",
"37",
"31",
"43",
"43",
"43",
"43",
"43",
"0",
"0",
"0",
"0",
"0",
"28",
"0",
"28",
"0",
"0",
"0",
"7",
"27",
"0",
"0",
"0",
"0",
"0",
"0",
"10",
"50",
"50",
"0",
"43",
"40",
"25",
"35",
"25",
"35",
"25",
"40",
"25",
"38",
"25",
"22",
"34",
"34",
"38",
"38",
"40",
"30",
"30",
"40",
"29",
"15",
"25",
"38",
"30",
"36",
"29",
"29",
"25",
"23",
"21",
"20",
"20",
"25",
"25",
"25",
"25",
"33",
"33",
"25",
"29",
"25",
"29",
"25",
"23",
"55",
"55",
"56",
"55",
"55",
"55",
"55",
"55",
"55",
"55",
"55",
"55",
"55",
"23",
"30",
"10",
"23",
"24",
"31",
"20",
"0",
"31",
"37",
"0",
"31",
"16",
"6",
"6",
"5",
"30",
"0",
"0",
"56",
"47",
"50",
"59",
"49",
"42",
"43",
"45",
"50",
"36",
"62",
"32",
"50",
"43",
"43",
"50",
"43",
"37",
"37",
"43",
"43",
"43",
"0",
"41",
"10",
"47",
"47",
"0",
"6",
"6",
"6",
"0",
"0",
"0",
"35",
"0",
"0",
"0",
"0",
"0",
"0",
"0",
"0",
"0",
"0",
"0",
"40",
"38",
"0",
"0",
"38",
"38",
"40",
"41",
"41",
"41",
"41",
"34",
"48",
"54",
"28",
"28",
"32",
"37",
"37",
"43",
"43",
"30",
"30",
"40",
"34",
"37",
"47",
"42",
"43",
"41",
"47",
"48",
"60",
"42",
"47",
"55",
"35",
"30",
"26",
"36",
"49",
"32",
"42",
"14",
"30",
"30",
"38",
"12",
"38",
"38",
"12",
"44",
"38",
"47",
"47",
"44",
"47",
"47",
"47",
"47",
"47",
"47",
"44",
"44",
"44",
"44",
"44",
"44",
"44",
"44",
"44",
"44",
"33",
"33",
"33",
"33",
"33",
"33",
"33",
"33",
"33",
"33",
"41",
"47",
"50",
"50",
"50",
"50",
"50",
"50",
"50",
"50",
"50",
"50",
"50",
"50",
"50",
"50",
"50",
"50",
"50",
"50",
"50",
"50",
"30",
"30",
"30",
"30",
"30",
"30",
"30",
"30",
"30",
"30",
"30",
"37",
"37",
"37",
"37",
"37",
"37",
"37",
"37",
"37",
"37",
"37",
"37",
"37",
"37",
"48",
"50",
"50",
"50",
"46",
"48",
"50",
"50",
"48",
"50",
"50",
"50",
"48",
"50",
"50",
"50",
"50",
"20",
"50",
"50",
"50",
"50",
"50",
"50",
"50",
"50",
"50",
"50",
"50",
"50",
"15",
"15",
"15",
"15",
"15",
"15",
"15",
"15",
"15",
"15",
"15",
"15",
"15",
"15",
"15",
"15",
"15",
"50",
"50",
"50",
"50",
"21",
"21",
"16",
"46",
"0",
"0",
"32",
"15",
"41",
"30",
"38",
"30",
"18",
"34",
"75",
"75",
"75",
"75",
"75",
"75",
"50",
"50",
"43",
"54",
"50",
"50",
"50",
"50",
"47",
"45",
"43",
"30",
"30",
"30",
"30",
"30",
"30",
"30",
"30",
"30",
"30",
"31",
"0",
"0",
"0",
"0",
"0",
"0",
"0",
"15",
"24",
"44",
"32",
"29",
"22",
"17",
"19",
"25",
"25",
"15",
"25",
"17",
"32",
"19",
"19",
"29",
"22",
"15",
"7",
"31",
"9",
"11",
"17",
"22",
"23",
"32",
"26",
"17",
"16",
"17",
"18",
"17",
"19",
"17",
"17",
"21",
"32",
"20",
"23",
"21",
"21",
"21",
"21",
"21",
"45",
"24",
"28",
"60",
"38",
"33",
"33",
"33",
"33",
"52",
"52",
"52",
"52",
"52",
"52",
"52",
"54",
"34",
"34",
"28",
"19",
"44",
"33",
"33",
"40",
"42",
"43",
"47",
"41",
"44",
"40",
"50",
"40",
"21",
"31",
"31",
"45",
"31",
"33",
"31",
"27",
"27",
"28",
"10",
"20",
"20",
"23",
"18",
"27",
"20",
"23",
"23",
"17",
"17",
"23",
"16",
"19",
"23",
"23",
"30",
"22",
"23",
"23",
"25",
"25",
"16",
"20",
"22",
"28",
"18",
"27",
"10",
"16",
"13",
"13",
"17",
"17",
"12",
"5",
"14",
"19",
"24",
"24",
"16",
"13",
"15",
"5",
"17",
"14",
"15",
"29",
"15",
"5",
"9",
"12",
"33",
"11",
"20",
"11",
"20",
"11",
"11",
"7",
"33",
"0",
"9",
"25",
"25",
"20",
"50",
"34",
"18",
"19",
"48",
"10",
"50",
"44",
"44",
"44",
"33",
"27",
"33",
"8",
"33",
"0",
"0",
"0",
"9",
"9",
"0",
"0",
"10",
"0",
"5",
"0",
"0",
"0",
"10",
"7",
"11",
"10",
"0",
"11",
"13",
"5",
"9",
"9",
"43",
"43",
"15",
"5",
"5",
"5",
"11",
"5",
"15",
"13",
"12",
"12",
"5",
"13",
"11",
"6",
"9",
"13",
"9",
"10",
"8",
"7",
"5",
"7",
"10",
"5",
"8",
"5",
"11",
"33",
"24",
"26",
"16",
"22",
"20",
"25",
"18",
"0",
"0",
"0",
"0",
"0",
"41",
"46",
"50",
"50",
"29",
"21",
"34",
"0",
"27",
"50",
"17",
"32",
"34",
"50",
"21",
"32",
"50",
"8",
"40",
"38",
"0"]