["10",
"10",
"0",
"0",
"0",
"0",
"0",
"0",
"0",
"0",
"0",
"0",
"0",
"0",
"0",
"0",
"0",
"0",
"0",
"0",
"0",
"0",
"0",
"15",
"15",
"15",
"15",
"15",
"15",
"15",
"15",
"6",
"0",
"15",
"9",
"15",
"5",
"0",
"15",
"15",
"15",
"15",
"15",
"0",
"15",
"15",
"47",
"34",
"37",
"47",
"42",
"42",
"42",
"47",
"38",
"25",
"38",
"38",
"38",
"35",
"35",
"47",
"39",
"47",
"47",
"47",
"42",
"44",
"32",
"32",
"33",
"33",
"35",
"34",
"36",
"36",
"47",
"37",
"35",
"31",
"35",
"31",
"30",
"31",
"25",
"24",
"30",
"30",
"21",
"31",
"25",
"23",
"25",
"23",
"25",
"23",
"35",
"19",
"19",
"19",
"19",
"15",
"15",
"46",
"50",
"42",
"10",
"42",
"47",
"36",
"39",
"39",
"10",
"37",
"37",
"37",
"37",
"31",
"35",
"36",
"30",
"51",
"40",
"46",
"46",
"40",
"36",
"41",
"36",
"17",
"31",
"30",
"10",
"20",
"0",
"0",
"0",
"0",
"0",
"0",
"0",
"0",
"0",
"0",
"0",
"0",
"0",
"0",
"0",
"0",
"0",
"0",
"0",
"0",
"0",
"0",
"0",
"0",
"0",
"0",
"0",
"0",
"0",
"0",
"0",
"0",
"0",
"0",
"0",
"0",
"0",
"0",
"0",
"0",
"0",
"0",
"0",
"0",
"0",
"0",
"0",
"0",
"0",
"0",
"0",
"0",
"0",
"10",
"0",
"10",
"10",
"0",
"10",
"0",
"0",
"0",
"0",
"0",
"0",
"0",
"0",
"0",
"0",
"0",
"0",
"0",
"0",
"0",
"0",
"0",
"0",
"0",
"0",
"0",
"0",
"0",
"0",
"0",
"0",
"0",
"0",
"0",
"0",
"0",
"0",
"0",
"0",
"0",
"0",
"0",
"0",
"0",
"0",
"0",
"0",
"0",
"0",
"10",
"0",
"19",
"10",
"0",
"0",
"0",
"0",
"66",
"50",
"54",
"34",
"50",
"52",
"55",
"40",
"44",
"35",
"35",
"45",
"33",
"0",
"0",
"0",
"18",
"0",
"0",
"0",
"0",
"0",
"0",
"0",
"0",
"0",
"25",
"0",
"27",
"0",
"0",
"33",
"50",
"50",
"50",
"0",
"37",
"50",
"37",
"37",
"34",
"34",
"34",
"37",
"17",
"31",
"42",
"30",
"30",
"30",
"30",
"48",
"51",
"51",
"48",
"52",
"52",
"53",
"53",
"53",
"53",
"53",
"53",
"53",
"53",
"53",
"53",
"53",
"53",
"53",
"53",
"53",
"53",
"53",
"53",
"53",
"53",
"53",
"53",
"53",
"53",
"53",
"53",
"54",
"53",
"53",
"53",
"53",
"53",
"53",
"53",
"53",
"53",
"53",
"54",
"53",
"53",
"53",
"53",
"53",
"53",
"53",
"54",
"53",
"53",
"53",
"53",
"53",
"53",
"53",
"53",
"53",
"53",
"53",
"54",
"53",
"54",
"53",
"54",
"53",
"53",
"53",
"53",
"53",
"0",
"17",
"17",
"21",
"23",
"45",
"44",
"45",
"4",
"7",
"0",
"0",
"0",
"0",
"0",
"0",
"22",
"22",
"22",
"22",
"22",
"22",
"20",
"20",
"20",
"20",
"20",
"20",
"20",
"20",
"20",
"20",
"20",
"20",
"20",
"53",
"33",
"30",
"35",
"36",
"34",
"34",
"32",
"22",
"36",
"36",
"53",
"37",
"35",
"37",
"37",
"37",
"37",
"37",
"37",
"37",
"37",
"24",
"37",
"37",
"35",
"42",
"48",
"36",
"36",
"31",
"33",
"25",
"38",
"30",
"30",
"24",
"43",
"23",
"21",
"43",
"43",
"29",
"28",
"28",
"36",
"37",
"37",
"37",
"37",
"37",
"30",
"30",
"26",
"25",
"42",
"42",
"45",
"62",
"27",
"34",
"43",
"43",
"50",
"37",
"28",
"36",
"26",
"29",
"30",
"41",
"26",
"24",
"34",
"33",
"29",
"34",
"38",
"35",
"35",
"39",
"45",
"41",
"41",
"28",
"33",
"33",
"33",
"35",
"39",
"18",
"35",
"36",
"25",
"33",
"33",
"40",
"44",
"42",
"34",
"42",
"27",
"27",
"35",
"43",
"43",
"34",
"43",
"30",
"43",
"36",
"36",
"27",
"27",
"33",
"43",
"29",
"29",
"35",
"45",
"45",
"36",
"41",
"7",
"15",
"6",
"25",
"19",
"6",
"45",
"15",
"27",
"12",
"15",
"19",
"19",
"31",
"25",
"4",
"19",
"8",
"28",
"25",
"12",
"28",
"40",
"30",
"23",
"23",
"0",
"26",
"10",
"19",
"26",
"26",
"22",
"15",
"8",
"8",
"21",
"23",
"23",
"23",
"23",
"31",
"27",
"31",
"25",
"33",
"29",
"32",
"31",
"26",
"25",
"26",
"26",
"28",
"10",
"25",
"25",
"10",
"26",
"28",
"28",
"29",
"24",
"40",
"25",
"22",
"22",
"28",
"25",
"25",
"26",
"25",
"28",
"26",
"25",
"29",
"30",
"28",
"29",
"0",
"0",
"0",
"0",
"0",
"0",
"0",
"0",
"0",
"0",
"0",
"0",
"0",
"0",
"40",
"49",
"64",
"57",
"36",
"36",
"30",
"30",
"30",
"30",
"36",
"30",
"3",
"11",
"11",
"11",
"3",
"10",
"10",
"10",
"10",
"10",
"10",
"10",
"10",
"10",
"10",
"10",
"10",
"10",
"10",
"10",
"10",
"10",
"10",
"10",
"5",
"0",
"0",
"0",
"10",
"10",
"0",
"10",
"10",
"10",
"10",
"10",
"10",
"10",
"10",
"10",
"10",
"10",
"10",
"10",
"10",
"5",
"5",
"10",
"10",
"10",
"34",
"20",
"20",
"46",
"46",
"30",
"30",
"30",
"30",
"30",
"30",
"30",
"30",
"30",
"30",
"30",
"30",
"30",
"30",
"30",
"30",
"30",
"30",
"30",
"30",
"30",
"30",
"30",
"30",
"30",
"30",
"30",
"30",
"30",
"30",
"30",
"30",
"30",
"30",
"30",
"30",
"30",
"30",
"30",
"30",
"30",
"30",
"30",
"30",
"30",
"30",
"30",
"30",
"30",
"30",
"30",
"30",
"30",
"30",
"30",
"30",
"30",
"30",
"30",
"30",
"30",
"30",
"50",
"50",
"42",
"49",
"41",
"41",
"41",
"48",
"41",
"42",
"45",
"41",
"42",
"41",
"41",
"41",
"48",
"28",
"28",
"28",
"28",
"28",
"28",
"28",
"28",
"28",
"41",
"41",
"35",
"42",
"41",
"41",
"42",
"41",
"42",
"38",
"41",
"41",
"41",
"42",
"41",
"42",
"42",
"42",
"41",
"0",
"0",
"0",
"0",
"0",
"0",
"0",
"0",
"0",
"0",
"0",
"0",
"0",
"0",
"0",
"0",
"45",
"47",
"22",
"22",
"22",
"10",
"10",
"23",
"26",
"26",
"26",
"10",
"26",
"26",
"26",
"18",
"18",
"26",
"26",
"53",
"43",
"53",
"50",
"43",
"26",
"50",
"27",
"27",
"27",
"19",
"41",
"35",
"28",
"28",
"28",
"23",
"35",
"48",
"48",
"42",
"25",
"34",
"34",
"28",
"31",
"49",
"28",
"22",
"28",
"34",
"45",
"29",
"27",
"48",
"48",
"48",
"48",
"48",
"48",
"52",
"52",
"61",
"30",
"9",
"7",
"9",
"7",
"8",
"9",
"9",
"8",
"8",
"9",
"8",
"9",
"8",
"8",
"9",
"8",
"28",
"23",
"23",
"21",
"23",
"10",
"21",
"38",
"38",
"21",
"21",
"49",
"49",
"10",
"49",
"44",
"44",
"44",
"49",
"49",
"49",
"49",
"48",
"48",
"48",
"38",
"0",
"0",
"0",
"22",
"21",
"36",
"10",
"10",
"21",
"21",
"23",
"33",
"43",
"23",
"32",
"25",
"25",
"46",
"44",
"40",
"50",
"33",
"30",
"4",
"43",
"43",
"43",
"43",
"46",
"46",
"43",
"43",
"43",
"50",
"47",
"47",
"43",
"43",
"43",
"43",
"43",
"43",
"47",
"43",
"43",
"0",
"43",
"43",
"48",
"48",
"48",
"47",
"47",
"47",
"47",
"47",
"43",
"43",
"43",
"43",
"43",
"45",
"36",
"35",
"35",
"45",
"36",
"36",
"35",
"36",
"36",
"36",
"23",
"27",
"23",
"21",
"27",
"27",
"36",
"15",
"42",
"42",
"15",
"42",
"42",
"42",
"33",
"46",
"33",
"21",
"21",
"46",
"21",
"39",
"39",
"39",
"33",
"33",
"33",
"42",
"48",
"45",
"44",
"44",
"48",
"48",
"48",
"45",
"44",
"45",
"44",
"45",
"45",
"45",
"48",
"48",
"48",
"45",
"45",
"44",
"49",
"39",
"50",
"48",
"35",
"50",
"37",
"17",
"36",
"42",
"0",
"0",
"0",
"0",
"0",
"0",
"0",
"0",
"0",
"0",
"0",
"0",
"0",
"46",
"47",
"47",
"49",
"49",
"49",
"45",
"45",
"45",
"34",
"52",
"36",
"49",
"44",
"43",
"47",
"47",
"43",
"43",
"45",
"45",
"42",
"43",
"47",
"43",
"43",
"47",
"43",
"47",
"42",
"42",
"42",
"40",
"40",
"39",
"46",
"44",
"44",
"10",
"10",
"10",
"10",
"10",
"10",
"10",
"10",
"0",
"10",
"0",
"10",
"10",
"10",
"0",
"10",
"10",
"10",
"10",
"10",
"10",
"10",
"10",
"10",
"10",
"10",
"10",
"10",
"25",
"25",
"10",
"50",
"0",
"28",
"13",
"10",
"13",
"13",
"37",
"57",
"40",
"40",
"40",
"40",
"22",
"13",
"19",
"34",
"24",
"9",
"15",
"44",
"44",
"17",
"31",
"31",
"24",
"38",
"33",
"38",
"18",
"24",
"18",
"40",
"41",
"41",
"33",
"19",
"12",
"31",
"19",
"11",
"31",
"26",
"17",
"13",
"17",
"17",
"15",
"31",
"15",
"17",
"19",
"17",
"13",
"31",
"0",
"24",
"48",
"10",
"10",
"10",
"10",
"10",
"10",
"10",
"10",
"9",
"10",
"10",
"10",
"55",
"47",
"55",
"55",
"50",
"67",
"50",
"50",
"50",
"56",
"50",
"53",
"50",
"50",
"55",
"55",
"55",
"55",
"55",
"55",
"55",
"55",
"55",
"55",
"55",
"55",
"55",
"55",
"55",
"55",
"55",
"55",
"55",
"55",
"55",
"55",
"55",
"55",
"55",
"55",
"55",
"55",
"55",
"55",
"55",
"44",
"44",
"53",
"43",
"43",
"21",
"29",
"34",
"29",
"37",
"28",
"38",
"36",
"24",
"24",
"31",
"23",
"28",
"28",
"42",
"37",
"25",
"13",
"36",
"29",
"29",
"31",
"31",
"22",
"38",
"29",
"22",
"17",
"17",
"17",
"22",
"17",
"22",
"22",
"17",
"17",
"17",
"0",
"13",
"13",
"16",
"13",
"35",
"35",
"31",
"38",
"38",
"40",
"40",
"40",
"50",
"27",
"27",
"27",
"27",
"27",
"46",
"43",
"43",
"46",
"25",
"45",
"36",
"27",
"27",
"27",
"27",
"27",
"28",
"27",
"27",
"27",
"27",
"27",
"35",
"24",
"24",
"0",
"24",
"10",
"24",
"24",
"24",
"24",
"0",
"24",
"24",
"24",
"24",
"50",
"47",
"45",
"40",
"48",
"30",
"42",
"42",
"42",
"42",
"42",
"49",
"50",
"50",
"48",
"15",
"47",
"41",
"35",
"44",
"0",
"0",
"0",
"0",
"26",
"24",
"0",
"0",
"0",
"0",
"0",
"0",
"0",
"0",
"0",
"0",
"0",
"0",
"0",
"0",
"0",
"0",
"56",
"52",
"41",
"28",
"0",
"0",
"0",
"0",
"0",
"0",
"0",
"0",
"0",
"0",
"0",
"39",
"0",
"30",
"0",
"30",
"39",
"0",
"40",
"0",
"30",
"0",
"20",
"28",
"30",
"30",
"30",
"45",
"20",
"0",
"38",
"0",
"30",
"0",
"0",
"0",
"0",
"0",
"0",
"0",
"10",
"11",
"11",
"11",
"11",
"11",
"11",
"11",
"11",
"20",
"22",
"11",
"10",
"10",
"10",
"10",
"22",
"25",
"22",
"22",
"15",
"15",
"15",
"15",
"15",
"22",
"22",
"15",
"15",
"11",
"20",
"20",
"0",
"50",
"0",
"0",
"0",
"0",
"0",
"0",
"0",
"0",
"0",
"0",
"0",
"0",
"0",
"0",
"0",
"0",
"0",
"0",
"0",
"0",
"0",
"0",
"0",
"0",
"0",
"0",
"0",
"0",
"0",
"0",
"28",
"36",
"0",
"44",
"0",
"0",
"0",
"0",
"50",
"50",
"50",
"50",
"50",
"34",
"0",
"0",
"0",
"44",
"44",
"55",
"50",
"50",
"50",
"10",
"34",
"0",
"38",
"38",
"45",
"48",
"50",
"44",
"50",
"55",
"55",
"0",
"0",
"37",
"42",
"37",
"0",
"37",
"50",
"53",
"53",
"58",
"32",
"32",
"55",
"27",
"10",
"0",
"0",
"0",
"0",
"0",
"0",
"13",
"13",
"13",
"13",
"47",
"50",
"26",
"26",
"10",
"5",
"17",
"50",
"40",
"41",
"50",
"50",
"29",
"34",
"40",
"40",
"50",
"50",
"50",
"50",
"50",
"50",
"50",
"50",
"50",
"50",
"50",
"50",
"27",
"25",
"48",
"48",
"28",
"55",
"45",
"28",
"24",
"40",
"40",
"40",
"45",
"50",
"50",
"30",
"34",
"0",
"50",
"50",
"50",
"50",
"49",
"50",
"50",
"50",
"49",
"50",
"50",
"30",
"50",
"50",
"49",
"49",
"50",
"50",
"50",
"46",
"46",
"0",
"0",
"0",
"40",
"0",
"50",
"50",
"50",
"50",
"50",
"50",
"50",
"50",
"50",
"50",
"50",
"55",
"50",
"50",
"44",
"55",
"50",
"50",
"25",
"26",
"26",
"10",
"12",
"50",
"55",
"55",
"50",
"50",
"50",
"50",
"50",
"10",
"50",
"50",
"50",
"43",
"44",
"21",
"21",
"50",
"50",
"40",
"40",
"40",
"40",
"40",
"50",
"29",
"50",
"50",
"33",
"50",
"50",
"50",
"50",
"50",
"50",
"50",
"50",
"50",
"50",
"50",
"50",
"50",
"50",
"50",
"50",
"50",
"40",
"50",
"50",
"50",
"50",
"43",
"54",
"46",
"53",
"53",
"45",
"51",
"45",
"51",
"45",
"53",
"0",
"0",
"0",
"0",
"0",
"0",
"0",
"0",
"0",
"0",
"0",
"0",
"0",
"0",
"0",
"0",
"0",
"0",
"0",
"0",
"0",
"0",
"0",
"0",
"0",
"0",
"0",
"0",
"0",
"0",
"0",
"0",
"0",
"0",
"0",
"0",
"0",
"0",
"0",
"0",
"0",
"0",
"0",
"0",
"21",
"22",
"21",
"21",
"21",
"50",
"50",
"50",
"50",
"50",
"50",
"50",
"50",
"50",
"50",
"50",
"50",
"50",
"50",
"50",
"50",
"50",
"50",
"50",
"50",
"50",
"50",
"21",
"22",
"21",
"21",
"22",
"50",
"50",
"50",
"50",
"50",
"50",
"50",
"50",
"50",
"50",
"50",
"50",
"50",
"50",
"50",
"50",
"50",
"50",
"50",
"50",
"50",
"50",
"50",
"50",
"50",
"50",
"50",
"50",
"50",
"50",
"50",
"50",
"50",
"50",
"50",
"50",
"50",
"50",
"50",
"50",
"50",
"50",
"50",
"50",
"50",
"50",
"50",
"50",
"50",
"50",
"50",
"50",
"50",
"50",
"50",
"50",
"50",
"50",
"50",
"50",
"50",
"50",
"50",
"50",
"50",
"50",
"50",
"50",
"50",
"50",
"50",
"50",
"50",
"50",
"50",
"50",
"50",
"50",
"50",
"50",
"50",
"50",
"50",
"50",
"50",
"50",
"50",
"50",
"50",
"50",
"50",
"19",
"50",
"50",
"50",
"50",
"50",
"0",
"0",
"10",
"10",
"10",
"10",
"5",
"10",
"10",
"5",
"10",
"0",
"10",
"10",
"10",
"10",
"0",
"0",
"0",
"0",
"49",
"49",
"49",
"49",
"49",
"10",
"0",
"0",
"10",
"0",
"0",
"0",
"10",
"0",
"0",
"0",
"50",
"50",
"50",
"50",
"5",
"5",
"10",
"10",
"10",
"10",
"10",
"10",
"10",
"0",
"10",
"0",
"10",
"50",
"40",
"40",
"33",
"30",
"30",
"33",
"50",
"50",
"50",
"50",
"50",
"33",
"50",
"50",
"33",
"33",
"50",
"50",
"50",
"10",
"50",
"50",
"50",
"50",
"50",
"50",
"50",
"33",
"50",
"50",
"33",
"50",
"50",
"33",
"33",
"50",
"50",
"50",
"50",
"50",
"50",
"50",
"50",
"33",
"50",
"50",
"50",
"50",
"50",
"33",
"50",
"50",
"50",
"50",
"50",
"50",
"33",
"50",
"50",
"33",
"50",
"50",
"50",
"50",
"50",
"33",
"50",
"50",
"50",
"50",
"50",
"33",
"33",
"50",
"50",
"50",
"50",
"50",
"33",
"50",
"50",
"50",
"50",
"50",
"50",
"33",
"50",
"33",
"50",
"50",
"50",
"50",
"50",
"50",
"50",
"50",
"50",
"50",
"33",
"50",
"50",
"50",
"50",
"50",
"50",
"50",
"50",
"10",
"50",
"33",
"33",
"50",
"50",
"50",
"50",
"50",
"50",
"50",
"50",
"50",
"50",
"50",
"50",
"33",
"50",
"50",
"50",
"50",
"50",
"50",
"50",
"50",
"50",
"50",
"50",
"50",
"50",
"50",
"50",
"50",
"50",
"50",
"50",
"50",
"50",
"50",
"50",
"50",
"50",
"50",
"50",
"50",
"50",
"50",
"50",
"50",
"50",
"50",
"50",
"50",
"50",
"50",
"50",
"50",
"50",
"50",
"50",
"50",
"50",
"20",
"9",
"9",
"9",
"38",
"34",
"13",
"9",
"34",
"38",
"34",
"38",
"48",
"39",
"38",
"40",
"42",
"40",
"50",
"40",
"39",
"42",
"40",
"50",
"38",
"41",
"28",
"50",
"34",
"42",
"46",
"36",
"46",
"0",
"0",
"0",
"50",
"10",
"10",
"0",
"10",
"13",
"0",
"5",
"10",
"10",
"10",
"10",
"10",
"0",
"10",
"5",
"10",
"10",
"0",
"0",
"0",
"0",
"0",
"0",
"11",
"0",
"29",
"0",
"0",
"0",
"7",
"7",
"0",
"0",
"36",
"50",
"33",
"50",
"33",
"33",
"50",
"50",
"50",
"50",
"33",
"33",
"33",
"50",
"50",
"33",
"50",
"50",
"0",
"0",
"0",
"0",
"14",
"14",
"0",
"0",
"26",
"12",
"40",
"0",
"25",
"25",
"7",
"7",
"7",
"7",
"21",
"0",
"5",
"0",
"0",
"5",
"0",
"5",
"21",
"21",
"5",
"5",
"5",
"18",
"0",
"0",
"6",
"0",
"21",
"21",
"21",
"22",
"5",
"5",
"5",
"49",
"49",
"0",
"5",
"20",
"22",
"20",
"0",
"20",
"0",
"20",
"0",
"0",
"0",
"0",
"0",
"0",
"20",
"25",
"49",
"28",
"27",
"27",
"29",
"7",
"7",
"7",
"10",
"17",
"17",
"19",
"19",
"5",
"5",
"5",
"26",
"31",
"5",
"5",
"5",
"5",
"5",
"50",
"50",
"50",
"50",
"50",
"50",
"50",
"50",
"50",
"50",
"50",
"0",
"0",
"0",
"0",
"0",
"0",
"10",
"0",
"0",
"0",
"0",
"0",
"0",
"0",
"0",
"0",
"0",
"0",
"0",
"0",
"0",
"0",
"0",
"0",
"0",
"0",
"0",
"0",
"0",
"0",
"0",
"0",
"0",
"0",
"0",
"46",
"45",
"50",
"50",
"40",
"50",
"45",
"50",
"50",
"45",
"45",
"40",
"33",
"45",
"38",
"38",
"33",
"45",
"45",
"45",
"33",
"33",
"40",
"40",
"34",
"49",
"47",
"38",
"47",
"50",
"53",
"30",
"50",
"36",
"50",
"41",
"44",
"41",
"48",
"10",
"10",
"10",
"10",
"10",
"10",
"10",
"18",
"10",
"10",
"10",
"10",
"10",
"10",
"16",
"10",
"10",
"10",
"10",
"24",
"10",
"28",
"10",
"0",
"0",
"0",
"0",
"0",
"0",
"0",
"0",
"0",
"0",
"0",
"0",
"0",
"0",
"0",
"0",
"0",
"50",
"0",
"0",
"0",
"0",
"0",
"0",
"0",
"0",
"0",
"0",
"0",
"0",
"0",
"0",
"0",
"0",
"0",
"0",
"0",
"0",
"0",
"0",
"0",
"0",
"0",
"0",
"0",
"0",
"0",
"0",
"0",
"0",
"0",
"0",
"0",
"0",
"0",
"0",
"0",
"0",
"0",
"0",
"0",
"0",
"0",
"0",
"0",
"0",
"0",
"0",
"0",
"0",
"0",
"0",
"0",
"0",
"0",
"0",
"0",
"0",
"0",
"0",
"0",
"0",
"0",
"0",
"0",
"0",
"0",
"0",
"0",
"0",
"0",
"0",
"0",
"0",
"0",
"0",
"0",
"0",
"0",
"0",
"0",
"0",
"0",
"0",
"0",
"0",
"0",
"0",
"0",
"0",
"0",
"0",
"0",
"0",
"0",
"0",
"0",
"0",
"0",
"0",
"0",
"10",
"10",
"10",
"10",
"0",
"0",
"0",
"0",
"0",
"0",
"10",
"10",
"0",
"7",
"50",
"0",
"50",
"0",
"10",
"10",
"10",
"10",
"0",
"40",
"40",
"40",
"0",
"40",
"40",
"40",
"40",
"40",
"40",
"40",
"40",
"40",
"40",
"40",
"40",
"40",
"40",
"40",
"40",
"40",
"40",
"0",
"40",
"40",
"40",
"40",
"40",
"38",
"0",
"40",
"10",
"10",
"0",
"10",
"10",
"40",
"0",
"0",
"0",
"0",
"0",
"48",
"0",
"0",
"43",
"35",
"36",
"38",
"29",
"29",
"30",
"23",
"23",
"43",
"43",
"43",
"44",
"44",
"36",
"37",
"38",
"38",
"32",
"31",
"40",
"40",
"40",
"47",
"32",
"28",
"25",
"40",
"24",
"40",
"40",
"40",
"40",
"40",
"27",
"26",
"27",
"27",
"27",
"27",
"28",
"28",
"26",
"25",
"24",
"25",
"24",
"24",
"24",
"24",
"24",
"24",
"24",
"23",
"23",
"23",
"29",
"28",
"25",
"26",
"26",
"26",
"26",
"40",
"25",
"24",
"28",
"28",
"43",
"57",
"27",
"27",
"27",
"27",
"27",
"27",
"33",
"24",
"0",
"0",
"18",
"17",
"19",
"55",
"36",
"36",
"36",
"42",
"50",
"50",
"55",
"50",
"50",
"50",
"55",
"50",
"55",
"55",
"50",
"50",
"50",
"50",
"55",
"55",
"55",
"50",
"50",
"50",
"50",
"50",
"55",
"55",
"55",
"50",
"50",
"50",
"50",
"55",
"55",
"50",
"55",
"50",
"55",
"55",
"50",
"50",
"55",
"50",
"55",
"55",
"55",
"50",
"55",
"50",
"55",
"50",
"37",
"30",
"30",
"30",
"30",
"30",
"30",
"30",
"40",
"41",
"41",
"40",
"0",
"0",
"0",
"0",
"0",
"0",
"0",
"0",
"0",
"10",
"0",
"0",
"0",
"0",
"0",
"0",
"0",
"42",
"54",
"42",
"14",
"38",
"47",
"44",
"44",
"50",
"50",
"50",
"44",
"44",
"44",
"38",
"44",
"33",
"41",
"41",
"50",
"50",
"50",
"15",
"15",
"16",
"16",
"16",
"16",
"15",
"15",
"15",
"15",
"10",
"10",
"50",
"50",
"50",
"45",
"50",
"50",
"43",
"50",
"50",
"50",
"50",
"50",
"50",
"45",
"50",
"42",
"50",
"50",
"43",
"50",
"50",
"50",
"50",
"50",
"50",
"50",
"50",
"41",
"45",
"50",
"50",
"50",
"50",
"50",
"50",
"62",
"50",
"50",
"50",
"50",
"50",
"40",
"45",
"45",
"45",
"45",
"45",
"45",
"50",
"44",
"49",
"35",
"50",
"42",
"50",
"50",
"49",
"50",
"50",
"50",
"50",
"50",
"50",
"50",
"39",
"50",
"50",
"50",
"50",
"41",
"50",
"43",
"42",
"50",
"50",
"50",
"40",
"40",
"50",
"50",
"50",
"41",
"45",
"50",
"50",
"50",
"45",
"50",
"50",
"41",
"50",
"45",
"50",
"50",
"50",
"50",
"43",
"50",
"21",
"22",
"50",
"20",
"50",
"50",
"50",
"50",
"50",
"50",
"50",
"50",
"50",
"50",
"20",
"50",
"50",
"50",
"50",
"50",
"50",
"50",
"15",
"15",
"15",
"15",
"15",
"15",
"36",
"36",
"47",
"44",
"46",
"18",
"50",
"50",
"50",
"44",
"46",
"46",
"44",
"30",
"46",
"46",
"46",
"46",
"37",
"37",
"37",
"37",
"37",
"30",
"19",
"10",
"10",
"10",
"10",
"40",
"19",
"40",
"40",
"19",
"10",
"10",
"18",
"18",
"18",
"34",
"30",
"0",
"0",
"0",
"0",
"0",
"0",
"0",
"0",
"0",
"0",
"0",
"0",
"0",
"50",
"32",
"32",
"0",
"0",
"0",
"0",
"19",
"13",
"20",
"13",
"13",
"13",
"0",
"0",
"13",
"43",
"36",
"46",
"13",
"53",
"51",
"42",
"41",
"50",
"41"]