["152100",
"152100",
"152100",
"169000",
"152100",
"152100",
"169000",
"152100",
"26000",
"56000",
"76000",
"144040,87",
"144040,87",
"130824,38",
"116172,95",
"119571,48",
"121402,9",
"125518,9",
"122346,94",
"122346,94",
"122346,94",
"122346,94",
"186869",
"111448",
"108360",
"108360",
"185844",
"163642",
"163642",
"163642",
"208528",
"180803",
"141315",
"141315",
"82000",
"83000",
"86000",
"89000",
"87000",
"85000",
"86000",
"242000",
"129200",
"129200",
"153850",
"94350",
"129200",
"153850",
"131750",
"151300",
"129200",
"79900",
"129200",
"129200",
"79900",
"125800",
"96050",
"389000",
"69000",
"69000",
"75000",
"699000",
"161697",
"158173",
"199919",
"115464",
"160455",
"179214",
"195441",
"154176",
"169565",
"164182",
"237957",
"79000",
"99000",
"119000",
"119000",
"119000",
"107100",
"59000",
"269000",
"188100",
"188100",
"359000",
"359000",
"126000",
"126000",
"120000",
"60000",
"60000",
"60000",
"60000",
"60000",
"60000",
"60000",
"80000",
"80000",
"80000",
"80000",
"80000",
"80000",
"80000",
"80000",
"80000",
"188100",
"116100",
"89000",
"179000",
"134100",
"170100",
"71100",
"58000",
"89100",
"80750",
"90000",
"149000",
"99000",
"99000",
"89000",
"142000",
"81000",
"150000",
"189000",
"189000",
"179000",
"179000",
"179000",
"185000",
"63000",
"72000",
"72000",
"72000",
"76500",
"140600",
"269000",
"308000",
"277000",
"262000",
"265000",
"308000",
"302000",
"262000",
"277000",
"274000",
"255000",
"277000",
"265000",
"268000",
"308000",
"308000",
"262000",
"265000",
"306000",
"179000",
"121000",
"134000",
"137000",
"72000",
"92000",
"74000",
"156000",
"118000",
"122000",
"116000",
"112000",
"87000",
"68000",
"309000",
"308000",
"244000",
"265000",
"308000",
"247000",
"308000",
"299000",
"308000",
"247000",
"268000",
"247000",
"247000",
"302000",
"306000",
"262000",
"247000",
"247000",
"309000",
"302000",
"309000",
"260000",
"260000",
"262000",
"251000",
"260000",
"260000",
"266000",
"255000",
"260000",
"265000",
"244000",
"260000",
"244000",
"260000",
"244000",
"244000",
"260000",
"260000",
"260000",
"244000",
"244000",
"268000",
"277000",
"244000",
"268000",
"274000",
"260000",
"277000",
"277000",
"244000",
"274000",
"277000",
"277000",
"299000",
"277000",
"306000",
"244000",
"308000",
"244000",
"308000",
"265000",
"308000",
"308000",
"262000",
"262000",
"265000",
"262000",
"255000",
"302000",
"309000",
"299000",
"111000",
"162000",
"105000",
"198000",
"198000",
"112000",
"112000",
"190000",
"109000",
"101000",
"149000",
"131000",
"131000",
"89000",
"135000",
"227000",
"101000",
"131000",
"131000",
"254000",
"243000",
"243000",
"112000",
"110000",
"79000",
"107000",
"133000",
"208000",
"189000",
"60000",
"302000",
"99000",
"207000",
"99000",
"215000",
"114000",
"99000",
"99000",
"50000",
"50000",
"146000",
"151000",
"139000",
"154000",
"62000",
"50000",
"91000",
"79000",
"435000",
"174000",
"110000",
"133000",
"79000",
"133000",
"197000",
"197000",
"79000",
"89000",
"148000",
"106000",
"74000",
"148000",
"106000",
"148000",
"169000",
"88000",
"88000",
"88000",
"74000",
"88000",
"164000",
"91000",
"102000",
"200000",
"200000",
"115000",
"119000",
"116000",
"344000",
"110000",
"110000",
"177000",
"105000",
"92000",
"109000",
"151000",
"109000",
"107000",
"109000",
"151000",
"109000",
"151000",
"111000",
"111000",
"55000",
"109000",
"109000",
"110000",
"109000",
"110000",
"104000",
"110000",
"100000",
"151000",
"110000",
"151000",
"151000",
"110000",
"107000",
"109000",
"110000",
"100000",
"151000",
"101000",
"110000",
"110000",
"110000",
"110000",
"107000",
"110000",
"110000",
"110000",
"114000",
"69000",
"110000",
"111000",
"115000",
"174000",
"151000",
"107000",
"112000",
"116000",
"96000",
"85000",
"97000",
"97000",
"85000",
"85000",
"97000",
"245000",
"123000",
"99000",
"290000",
"271000",
"271000",
"286000",
"271000",
"290000",
"271000",
"290000",
"322000",
"271000",
"79000",
"79000",
"79000",
"79000",
"79000",
"79000",
"271000",
"313000",
"320000",
"322000",
"322000",
"316000",
"323000",
"274000",
"277000",
"274000",
"240000",
"100000",
"100000",
"100000",
"92887",
"92887",
"92887",
"92887",
"92887",
"92887",
"92887",
"92887",
"92887",
"92887",
"92887",
"92887",
"92887",
"92887",
"92887",
"188656",
"227074",
"177066",
"211622",
"200000",
"129000",
"129000",
"129000",
"129000",
"129000",
"129000",
"129000",
"147000",
"269100",
"76000",
"76000",
"76000",
"76000",
"76000",
"76000",
"76000",
"157000",
"103000",
"102000",
"104000",
"102000",
"93000",
"162000",
"90000",
"102000",
"167000",
"99000",
"126000",
"100000",
"163000",
"92000",
"99000",
"99000",
"99000",
"190000",
"147000",
"125000",
"174000",
"88000",
"201000",
"201000",
"93000",
"87000",
"91000",
"88000",
"167000",
"121000",
"110000",
"114000",
"114000",
"80000",
"94000",
"99000",
"135000",
"121000",
"94000",
"83000",
"189000",
"81000",
"69000",
"99000",
"99000",
"96000",
"99000",
"115000",
"114000",
"116000",
"110000",
"93000",
"99000",
"188000",
"188000",
"93000",
"95000",
"93000",
"134000",
"133000",
"95000",
"83000",
"115000",
"93000",
"106000",
"106000",
"136000",
"158000",
"127000",
"55000",
"48000",
"55000",
"55000",
"53000",
"53000",
"53000",
"55000",
"55000",
"63000",
"60000",
"63000",
"63000",
"55000",
"53000",
"99000",
"99000",
"599000"]