["1 Giây Mua",
"1 Giây Mua",
"ADAM",
"ADAM",
"ADAM",
"ADAM",
"ADAM",
"ADAM",
"ADAM",
"ADAM",
"ADAM",
"ADAM",
"ADAM",
"ADAM",
"ADAM",
"ADAM",
"ADAM",
"ADAM",
"ADAM",
"ADAM",
"ADAM",
"ADAM",
"ADAM",
"ADAM",
"ADAM",
"ADAM",
"ADAM",
"ADAM",
"ADAM",
"ADAM",
"ADAM",
"ADAM",
"ADAM",
"ADAM",
"ADAM",
"ADAM",
"ADAM",
"ADAM",
"ADAM",
"ADAM",
"ADAM",
"ADAM",
"ADAM",
"ADEP",
"ADEP",
"ADEP",
"ADEP",
"ADEP",
"ADEP",
"ADEP",
"ADEP",
"ADEP",
"ADEP",
"ADEP",
"ZAZA",
"ADEP",
"Adidas",
"Adidas",
"Adidas",
"Adidas",
"Adidas",
"Adidas",
"Adidas",
"Adidas",
"Adidas",
"Adidas",
"Adidas",
"Adidas",
"Adidas",
"Adidas",
"Adda",
"Adda",
"AIGNER",
"Akio",
"Akio",
"ALERA",
"ALERA",
"ALERA",
"ALERA",
"ALERA",
"ALERA",
"ALERA",
"ALERA",
"ALERA",
"ALERA",
"ALERA",
"ALERA",
"ALERA",
"ALERA",
"ALERA",
"Aldo",
"Alessandro luigi",
"Alessandro luigi",
"Alessandro luigi",
"Alessandro luigi",
"Alessandro luigi",
"Alessandro luigi",
"Alessandro luigi",
"Alessandro luigi",
"Alessandro luigi",
"Alessandro luigi",
"Alessandro luigi",
"Alessandro luigi",
"Alessandro luigi",
"Alessandro luigi",
"Alessandro luigi",
"Alessandro luigi",
"Amada",
"Amiro",
"Amiro",
"Amiro",
"Amiro",
"ANANAS",
"ANANAS",
"ANANAS",
"ANANAS",
"ANANAS",
"ANANAS",
"ANANAS",
"ANANAS",
"ANANAS",
"ANANAS",
"ANANAS",
"ANANAS",
"ANANAS",
"ANANAS",
"ANANAS",
"ANANAS",
"ANANAS",
"ANANAS",
"ANANAS",
"ANANAS",
"ANANAS",
"ANANAS",
"ANANAS",
"ANANAS",
"ANANAS",
"ANANAS",
"ANANAS",
"ANANAS",
"ANANAS",
"ANANAS",
"ANANAS",
"ANANAS",
"ANANAS",
"ANANAS",
"ANANAS",
"ANANAS",
"ANANAS",
"ANANAS",
"ANANAS",
"ANANAS",
"ANANAS",
"ANANAS",
"ANANAS",
"ANANAS",
"ANANAS",
"ANANAS",
"ANANAS",
"ANANAS",
"ANANAS",
"ANANAS",
"ANANAS",
"ANANAS",
"ANANAS",
"ANANAS",
"ANANAS",
"ANANAS",
"ANANAS",
"ANANAS",
"ANANAS",
"Aqua Sportswear",
"Aqua Sportswear",
"Aqua Sportswear",
"Aqua Sportswear",
"Aqua Sportswear",
"Aqua Sportswear",
"Aqua Sportswear",
"Aqua Sportswear",
"Aqua Sportswear",
"Aqua Sportswear",
"Aqua Sportswear",
"Aqua Sportswear",
"Aqua Sportswear",
"Aqua Sportswear",
"Aqua Sportswear",
"Aqua Sportswear",
"Aqua Sportswear",
"Aqua Sportswear",
"Aqua Sportswear",
"Aqua Sportswear",
"Aqua Sportswear",
"Aqua Sportswear",
"Aqua Sportswear",
"Aqua Sportswear",
"Aqua Sportswear",
"Aqua Sportswear",
"Aqua Sportswear",
"Aqua Sportswear",
"Aqua Sportswear",
"Aqua Sportswear",
"Aqua Sportswear",
"Aqua Sportswear",
"Aqua Sportswear",
"Aqua Sportswear",
"Aqua Sportswear",
"Aqua Sportswear",
"Aqua Sportswear",
"Aqua Sportswear",
"Aqua Sportswear",
"Aqua Sportswear",
"Aqua Sportswear",
"Aqua Sportswear",
"Aqua Sportswear",
"Aqua Sportswear",
"Aqua Sportswear",
"Aqua Sportswear",
"Aqua Sportswear",
"Aqua Sportswear",
"Aqua Sportswear",
"Aqua Sportswear",
"Aqua Sportswear",
"Aqua Sportswear",
"ASICS",
"ASICS",
"Attom",
"Attom",
"Attom",
"az79",
"az79",
"az79",
"az79",
"az79",
"az79",
"az79",
"az79",
"az79",
"az79",
"az79",
"az79",
"az79",
"az79",
"az79",
"az79",
"az79",
"az79",
"az79",
"az79",
"az79",
"az79",
"az79",
"az79",
"az79",
"az79",
"az79",
"az79",
"az79",
"az79",
"az79",
"az79",
"az79",
"az79",
"az79",
"az79",
"az79",
"az79",
"az79",
"az79",
"az79",
"az79",
"az79",
"az79",
"az79",
"az79",
"az79",
"az79",
"az79",
"az79",
"az79",
"az79",
"az79",
"az79",
"az79",
"az79",
"Azado",
"Azado",
"Azado",
"Azado",
"Azado",
"Azado",
"Azado",
"Azado",
"Azado",
"BaloHome",
"BaloHome",
"Bellfield",
"Bellfield",
"Bellfield",
"Bellfield",
"Bellfield",
"Bellfield",
"Bellfield",
"Bellfield",
"Bellfield",
"Biti's",
"Biti's",
"Biti's",
"Biti's",
"Biti's",
"Biti's",
"Biti's",
"Biti's",
"Biti's",
"Biti's",
"Biti's",
"Biti's",
"Biti's",
"Biti's",
"Biti's",
"Biti's",
"Biti's",
"Biti's",
"Biti's",
"Biti's",
"Biti's",
"Biti's",
"Biti's",
"Biti's",
"Biti's",
"Biti's",
"Biti's",
"Biti's",
"Biti's",
"Biti's",
"Biti's",
"Biti's",
"Biti's",
"Biti's",
"Biti's",
"Biti's",
"Biti's",
"Biti's",
"Biti's",
"Biti's",
"Biti's",
"Biti's",
"Biti's",
"Biti's",
"Biti's",
"Biti's",
"Biti's",
"Biti's",
"Biti's",
"Biti's",
"Biti's",
"Biti's",
"Biti's",
"Biti's",
"Bluelans",
"Bluelans",
"Boxfresh",
"Boxfresh",
"Boxfresh",
"Boxfresh",
"Boxfresh",
"Boxfresh",
"Boxfresh",
"Boxfresh",
"Boxfresh",
"Boxfresh",
"Boxfresh",
"Boxfresh",
"Boxfresh",
"Boxfresh",
"Boxfresh",
"Boxfresh",
"Boxfresh",
"NON",
"NON",
"NON",
"NON",
"NON",
"NON",
"NON",
"NON",
"Vococal",
"Vococal",
"Vococal",
"Vococal",
"Vococal",
"Vococal",
"Vococal",
"Homematic",
"Vibe",
"Vibe",
"Luxe",
"Mariposa",
"Native",
"Native",
"Native",
"Native",
"Native",
"Native",
"Native",
"Native",
"Native",
"Native",
"Native",
"Native",
"Native",
"Native",
"Native",
"Native",
"Native",
"Native",
"Native",
"Native",
"Native",
"Native",
"Native",
"Native",
"Native",
"Native",
"Native",
"Native",
"Native",
"Native",
"Native",
"Native",
"Native",
"Native",
"Native",
"Native",
"Native",
"Native",
"Native",
"Native",
"Native",
"Native",
"Native",
"Native",
"Native",
"Native",
"Native",
"Native",
"Native",
"Native",
"Native",
"Lalang",
"Lalang",
"Lalang",
"Lalang",
"Lalang",
"Lalang",
"Lalang",
"Lalang",
"Lalang",
"Lalang",
"Lalang",
"Lalang",
"Lalang",
"Lalang",
"Lalang",
"Lalang",
"Lalang",
"Lalang",
"Moonar",
"Moonar",
"Moonar",
"Ocean Pacific",
"ZAZZ",
"Butnon",
"Butnon",
"Butnon",
"Butnon",
"Butnon",
"Butnon",
"Butnon",
"Butnon",
"Butnon",
"Casual shoes",
"Casual shoes",
"Casual shoes",
"Casual shoes",
"Casual shoes",
"Casual shoes",
"Casual shoes",
"Casual shoes",
"Casual shoes",
"Casual shoes",
"Casual shoes",
"Casual shoes",
"Casual shoes",
"Casual shoes",
"Casual shoes",
"Casual shoes",
"Casual shoes",
"Casual shoes",
"Casual shoes",
"Captuida",
"Captuida",
"Captuida",
"Captuida",
"Captuida",
"Captuida",
"Captuida",
"Captuida",
"Captuida",
"Captuida",
"Captuida",
"Captuida",
"Captuida",
"Captuida",
"Captuida",
"Captuida",
"Captuida",
"Catsashop",
"Cellini",
"Cellini",
"Cho Deal 24h",
"Cklord",
"Cklord",
"CLAE",
"CLAE",
"CLAE",
"CLAE",
"CLAE",
"CLAE",
"CLAE",
"CLAE",
"CLAE",
"CLAE",
"CLAE",
"CLAE",
"CLAE",
"CLAE",
"CLAE",
"CLAE",
"CLAE",
"CLAE",
"CLAE",
"CLAE",
"CLAE",
"CLAE",
"CLAE",
"CLAE",
"CLAE",
"CLAE",
"CLAE",
"CLAE",
"CLAE",
"CLAE",
"CODAD",
"CODAD",
"CODAD",
"CODAD",
"Cole Haan",
"Cole Haan",
"Cole Haan",
"Converse",
"Converse",
"Converse",
"Converse",
"Converse",
"Converse",
"Converse",
"Converse",
"Converse",
"Converse",
"Converse",
"Converse",
"Converse",
"Converse",
"Converse",
"Converse",
"Converse",
"Converse",
"Converse",
"Converse",
"Converse",
"Converse",
"Converse",
"Converse",
"Converse",
"Converse",
"Converse",
"Converse",
"Converse",
"Converse",
"Converse",
"Converse",
"Converse",
"Converse",
"Converse",
"Converse",
"Converse",
"Converse",
"Converse",
"Converse",
"Converse",
"Converse",
"Converse",
"Converse",
"Converse",
"Converse",
"Converse",
"Converse",
"Converse",
"Converse",
"Converse",
"Converse",
"Converse",
"Converse",
"Converse",
"Converse",
"Converse",
"Converse",
"Converse",
"Converse",
"Converse",
"Coveitchi",
"Coveitchi",
"Coveitchi",
"Coveitchi",
"Coveitchi",
"Coveitchi",
"Coveitchi",
"Coveitchi",
"Coveitchi",
"Cỏ Boutique",
"Cỏ Boutique",
"Cỏ Boutique",
"Cỏ Boutique",
"Cỏ Boutique",
"Cỏ Boutique",
"Cỏ Boutique",
"Cỏ Boutique",
"Cỏ Boutique",
"Cỏ Boutique",
"Cỏ Boutique",
"Cỏ Boutique",
"Cỏ Boutique",
"Cỏ Boutique",
"Cỏ Boutique",
"Cỏ Boutique",
"Cỏ Boutique",
"Cỏ Boutique",
"Cỏ Boutique",
"Cỏ Boutique",
"Cỏ Boutique",
"Cỏ Boutique",
"Cỏ Boutique",
"Cỏ Boutique",
"Cỏ Boutique",
"Cỏ Boutique",
"Cỏ Boutique",
"Cỏ Boutique",
"Cỏ Boutique",
"Cỏ Boutique",
"Cỏ Boutique",
"Cỏ Boutique",
"Cỏ Boutique",
"Cỏ Boutique",
"Cỏ Boutique",
"Cỏ Boutique",
"Cỏ Boutique",
"Cỏ Boutique",
"Crocs",
"Crocs",
"Crocs",
"Crocs",
"Crocs",
"Crocs",
"Crocs",
"Crocs",
"Crocs",
"Crocs",
"Crocs",
"Crocs",
"Crocs",
"Crocs",
"Crocs",
"Crocs",
"Crocs",
"Crocs",
"Crocs",
"Crocs",
"Crocs",
"Crocs",
"Crocs",
"Crocs",
"Crocs",
"Crocs",
"Crocs",
"Crocs",
"Crocs",
"Crocs",
"Đồ Da Thành Long TLG",
"Đồ Da Thành Long TLG",
"Đồ Da Thành Long TLG",
"Đồ Da Thành Long TLG",
"Dongkhoi",
"Dongkhoi",
"DODACO",
"DODACO",
"DODACO",
"Dockers",
"DR",
"DT",
"DT",
"DT",
"DT",
"DVS",
"DVS",
"DVS",
"DVS",
"DVS",
"DVS",
"DVS",
"DVS",
"DVS",
"DVS",
"DVS",
"DVS",
"DVS",
"DVS",
"DVS",
"DVS",
"DVS",
"DVS",
"DVS",
"DVS",
"DVS",
"DVS",
"DVS",
"DVS",
"DVS",
"DVS",
"DVS",
"DVS",
"DVS",
"DVS",
"DVS",
"DVS",
"DVS",
"DVS",
"DVS",
"DVS",
"DVS",
"DVS",
"DVS",
"DVS",
"DVS",
"DVS",
"DVS",
"DVS",
"DVS",
"DVS",
"DVS",
"DVS",
"DVS",
"DVS",
"DVS",
"DVS",
"DVS",
"DVS",
"DVS",
"DVS",
"DVS",
"DVS",
"DVS",
"DVS",
"DVS",
"DVS",
"DVS",
"DVS",
"DVS",
"DVS",
"DVS",
"DVS",
"DVS",
"DVS",
"DVS",
"DVS",
"DVS",
"DVS",
"DVS",
"DVS",
"DVS",
"DVS",
"DVS",
"DVS",
"DVS",
"DVS",
"DVS",
"DVS",
"DVS",
"DVS",
"DVS",
"DVS",
"DVS",
"DVS",
"DVS",
"DVS",
"DVS",
"DVS",
"DVS",
"DVS",
"DVS",
"DVS",
"DVS",
"DVS",
"DVS",
"DVS",
"DVS",
"DVS",
"DVS",
"DVS",
"DVS",
"DVS",
"DVS",
"DVS",
"DVS",
"DVS",
"DVS",
"DVS",
"DVS",
"DVS",
"DVS",
"DVS",
"DVS",
"DVS",
"DVS",
"DVS",
"DVS",
"DVS",
"DVS",
"DVS",
"DVS",
"DVS",
"DVS",
"DVS",
"DVS",
"DVS",
"DVS",
"DVS",
"DVS",
"DVS",
"DVS",
"DVS",
"DVS",
"DVS",
"DVS",
"DVS",
"DVS",
"DVS",
"DVS",
"DVS",
"DVS",
"DVS",
"DVS",
"DVS",
"DVS",
"DVS",
"DVS",
"DVS",
"DVS",
"DVS",
"DVS",
"DVS",
"DVS",
"DVS",
"DVS",
"DVS",
"DVS",
"DVS",
"DVS",
"DVS",
"DVS",
"DVS",
"DVS",
"DVS",
"DVS",
"DVS",
"DVS",
"DVS",
"DVS",
"DVS",
"DVS",
"DVS",
"DVS",
"DVS",
"DVS",
"DVS",
"DVS",
"DVS",
"DVS",
"DVS",
"DVS",
"DVS",
"DVS",
"DVS",
"DVS",
"DVS",
"DVS",
"DVS",
"DVS",
"DVS",
"DVS",
"DVS",
"DVS",
"DVS",
"DVS",
"DVS",
"DVS",
"DVS",
"DVS",
"DVS",
"DVS",
"DVS",
"DVS",
"DVS",
"DVS",
"DVS",
"DVS",
"DVS",
"DVS",
"DVS",
"DVS",
"DVS",
"DVS",
"DVS",
"DVS",
"DVS",
"DVS",
"DVS",
"DVS",
"DVS",
"DVS",
"DVS",
"DVS",
"DVS",
"DVS",
"DVS",
"DVS",
"DVS",
"DVS",
"DVS",
"DVS",
"DVS",
"DVS",
"DVS",
"DVS",
"DVS",
"Dynamic",
"Dynamic",
"Dynamic",
"Dynamic",
"Dynamic",
"Dynamic",
"Dynamic",
"ELMI",
"ELMI",
"ELMI",
"ELMI",
"ELMI",
"ELMI",
"ELMI",
"ELMI",
"ELMI",
"ELMI",
"ELMI",
"ELMI",
"ELMI",
"ELMI",
"ELMI",
"ELMI",
"ELMI",
"ELMI",
"ELMI",
"ELMI",
"ELMI",
"ELMI",
"ELMI",
"ELMI",
"ELMI",
"ELMI",
"ELMI",
"ELMI",
"ELMI",
"ELMI",
"ELMI",
"ELMI",
"ELMI",
"ELMI",
"ELMI",
"ELMI",
"ELMI",
"ELMI",
"Emon",
"Emon",
"Emon",
"Emon",
"Emon",
"Emon",
"EOM",
"EOM",
"EOM",
"EOM",
"EOM",
"OEM",
"OEM",
"Everlast",
"Everlast",
"Everest",
"Everest",
"Everest",
"Everest",
"Everest",
"Everest",
"Everest",
"Everest",
"Everest",
"Everest",
"Everest",
"Everest",
"Everest",
"Everest",
"Everest",
"Everest",
"Everest",
"Everest",
"Everest",
"Everest",
"Everest",
"Everest",
"Everest",
"Everest",
"Everest",
"Everest",
"Everest",
"Everest",
"Everest",
"Everest",
"Everest",
"Everest",
"Everest",
"Everest",
"Everest",
"Everest",
"Everest",
"Everest",
"Everest",
"Everest",
"Everest",
"Everest",
"Everest",
"Everest",
"Everest",
"Everest",
"Everest",
"Everest",
"Everest",
"Everest",
"Everest",
"Everest",
"Everest",
"Everest",
"Everest",
"Everest",
"Everest",
"Everest",
"Everest",
"Everest",
"Everest",
"Everest",
"Everest",
"Everest",
"Everest",
"Everest",
"Everest",
"Everest",
"Everest",
"Everest",
"Everest",
"Everest",
"Everest",
"Everest",
"Everest",
"Everest",
"Everest",
"Everest",
"Everest",
"Everest",
"Everest",
"Everest",
"Everest",
"Everest",
"Everest",
"Everest",
"Everest",
"Everest",
"Everest",
"Everest",
"Everest",
"Everest",
"Everest",
"Everest",
"Everest",
"Everest",
"Everest",
"Everest",
"Everest",
"Everest",
"Everest",
"Everest",
"Everest",
"Everest",
"Everest",
"Everest",
"Everest",
"Everest",
"Everest",
"Everest",
"Everest",
"Everest",
"Everest",
"Everest",
"Everest",
"Everest",
"Everest",
"Everest",
"Everest",
"Everest",
"Everest",
"Everest",
"Everest",
"Everest",
"Everest",
"Everest",
"Everest",
"Everest",
"Everest",
"Everest",
"Everest",
"Everest",
"Everest",
"Everest",
"Everest",
"Everest",
"Everest",
"Everest",
"Everest",
"Everest",
"Everest",
"Everest",
"Everest",
"Everest",
"Everest",
"Everest",
"Everest",
"Everest",
"Everest",
"Everest",
"Everest",
"Everest",
"Everest",
"Everest",
"Everest",
"Everest",
"Everest",
"Everest",
"Everest",
"Everest",
"Everest",
"Everest",
"Everest",
"Everest",
"Everest",
"Everest",
"Everest",
"Everest",
"Everest",
"Everest",
"Everest",
"Everest",
"Everest",
"Everest",
"Everest",
"Everest",
"Everest",
"Everest",
"Everest",
"Everest",
"Everest",
"Everest",
"Everest",
"Everest",
"Everest",
"Everest",
"Everest",
"Everest",
"Everest",
"Everest",
"Everest",
"Everest",
"Everest",
"Everest",
"Everest",
"Everest",
"Everest",
"Everest",
"Everest",
"Everest",
"Everest",
"Everest",
"Everest",
"Everest",
"Everest",
"Everest",
"Everest",
"Everest",
"Everest",
"Everest",
"Everest",
"Everest",
"Everest",
"Everest",
"Everest",
"Everest",
"Everest",
"Everest",
"Everest",
"Everest",
"Everest",
"Everest",
"Everest",
"Everest",
"Everest",
"Everest",
"Everest",
"Everest",
"Everest",
"Everest",
"Everest",
"Everest",
"Everest",
"Everest",
"Everest",
"Everest",
"Everest",
"Everest",
"Everest",
"Everest",
"Everest",
"Everest",
"Everest",
"Everest",
"Everest",
"Everest",
"Everest",
"Everest",
"Everest",
"Everest",
"Everest",
"Everest",
"Everest",
"Everest",
"Everest",
"Everest",
"Everest",
"Everest",
"Everest",
"Everest",
"Everest",
"Everest",
"Everest",
"Everest",
"Everest",
"Everest",
"Everest",
"Everest",
"Everest",
"Everest",
"Everest",
"Everest",
"Everest",
"Everest",
"Everest",
"Everest",
"Everest",
"Everest",
"Everest",
"Everest",
"Everest",
"Everest",
"Everest",
"Everest",
"Everest",
"Everest",
"Everest",
"Everest",
"Everest",
"Everest",
"Everest",
"Everest",
"Everest",
"Everest",
"Everest",
"Everest",
"Everest",
"Everest",
"Everest",
"Everest",
"Everest",
"Everest",
"Everest",
"Everest",
"Everest",
"Everest",
"Everest",
"Everest",
"Everest",
"Everest",
"Everest",
"Everest",
"Everest",
"Everest",
"Everest",
"Everest",
"Everest",
"Everest",
"Everest",
"Everest",
"Everest",
"Everest",
"Everest",
"Everest",
"Everest",
"Everest",
"Everest",
"Everest",
"Everest",
"Everest",
"Everest",
"Everest",
"Everest",
"Everest",
"Everest",
"Everest",
"Everest",
"Everest",
"Everest",
"Everest",
"Everest",
"Everest",
"Everest",
"Everest",
"Everest",
"Everest",
"Everest",
"Everest",
"Everest",
"Everest",
"Everest",
"Everest",
"Everest",
"Everest",
"Everest",
"Everest",
"Everest",
"Everest",
"Everest",
"Everest",
"Everest",
"Everest",
"Everest",
"Everest",
"Everest",
"Everest",
"Everest",
"Everest",
"Everest",
"Everest",
"Everest",
"Everest",
"Everest",
"Everest",
"Everest",
"Everest",
"Everest",
"Everest",
"Everest",
"Everest",
"Everest",
"Everest",
"Everest",
"Everest",
"Everest",
"Everest",
"Everest",
"Everest",
"Everest",
"Everest",
"Everest",
"Everest",
"Everest",
"Everest",
"Everest",
"Everest",
"Everest",
"Everest",
"Everest",
"Everest",
"Everest",
"Everest",
"Everest",
"Everest",
"Everest",
"Everest",
"Everest",
"Everest",
"Everest",
"Everest",
"Everest",
"Everest",
"Everest",
"Everest",
"Everest",
"Everest",
"Everest",
"Everest",
"Everest",
"Everest",
"Everest",
"Everest",
"Everest",
"Everest",
"Everest",
"Everest",
"Everest",
"Everest",
"Everest",
"Everest",
"Everest",
"Everest",
"Everest",
"Everest",
"Everest",
"Everest",
"Everest",
"Everest",
"Everest",
"Everest",
"Everest",
"Everest",
"Everest",
"Everest",
"Everest",
"Everest",
"Everest",
"Everest",
"Everest",
"Everest",
"Everest",
"Everest",
"Everest",
"Everest",
"Everest",
"Everest",
"Everest",
"Everest",
"Everest",
"Everest",
"Everest",
"Everest",
"Everest",
"Everest",
"Everest",
"Everest",
"Everest",
"Everest",
"Everest",
"Everest",
"Everest",
"Everest",
"Everest",
"Everest",
"Everest",
"Everest",
"Everest",
"Everest",
"Everest",
"Everest",
"Everest",
"Everest",
"Everest",
"Everest",
"Everest",
"Everest",
"Everest",
"Everest",
"Everest",
"Everest",
"Everest",
"Everest",
"Everest",
"Everest",
"Everest",
"Everest",
"Everest",
"Everest",
"Everest",
"Everest",
"Everest",
"Everest",
"Everest",
"Everest",
"Everest",
"Everest",
"Everest",
"Everest",
"Everest",
"Everest",
"Everest",
"Everest",
"Everest",
"Everest",
"Everest",
"Everest",
"Everest",
"Everest",
"Everest",
"Everest",
"Everest",
"Everest",
"Everest",
"Everest",
"Everest",
"Everest",
"Everest",
"Everest",
"Everest",
"Everest",
"Everest",
"Everest",
"Everest",
"Everest",
"Everest",
"Everest",
"Everest",
"Everest",
"Everest",
"Everest",
"Everest",
"Everest",
"Everest",
"Everest",
"Everest",
"Everest",
"Everest",
"Everest",
"Everest",
"Everest",
"Everest",
"Everest",
"Everest",
"Everest",
"Everest",
"Everest",
"Everest",
"Everest",
"Everest",
"Everest",
"Everest",
"Everest",
"Everest",
"Everest",
"Everest",
"Everest",
"Everest",
"Everest",
"Everest",
"Everest",
"Everest",
"Everest",
"Everest",
"Everest",
"Everest",
"Everest",
"Everest",
"Everest",
"Everest",
"Everest",
"Everest",
"Everest",
"Everest",
"Everest",
"Everest",
"Everest",
"Everest",
"Everest",
"Everest",
"Everest",
"Everest",
"Everest",
"Everest",
"Everest",
"Everest",
"Everest",
"Everest",
"Everest",
"Everest",
"Everest",
"Everest",
"Everest",
"Everest",
"Everest",
"Everest",
"Everest",
"Everest",
"Everest",
"Everest",
"Everest",
"Everest",
"Everest",
"Everest",
"Everest",
"Everest",
"Everest",
"Everest",
"Everest",
"Everest",
"Everest",
"Everest",
"Everest",
"Everest",
"Everest",
"Everest",
"Everest",
"Everest",
"Everest",
"Everest",
"Everest",
"Everest",
"Everest",
"Everest",
"Everest",
"Everest",
"Everest",
"Everest",
"Everest",
"Everest",
"Everest",
"Everest",
"Everest",
"Everest",
"Everest",
"Everest",
"Everest",
"Everest",
"Everest",
"Everest",
"Everest",
"Everest",
"Everest",
"Everest",
"Everest",
"Everest",
"Everest",
"Everest",
"Everest",
"Everest",
"Everest",
"Everest",
"Everest",
"Everest",
"Everest",
"Everest",
"Everest",
"Everest",
"Everest",
"Everest",
"Everest",
"Everest",
"Everest",
"Everest",
"Everest",
"Everest",
"Everest",
"Everest",
"Everest",
"Everest",
"Everest",
"Everest",
"Everest",
"Everest",
"Everest",
"Everest",
"Everest",
"Everest",
"Everest",
"Everest",
"Everest",
"Everest",
"Everest",
"Everest",
"Everest",
"Everest",
"Everest",
"Everest",
"Everest",
"Everest",
"Everest",
"Everest",
"Everest",
"Everest",
"Everest",
"Everest",
"Everest",
"Everest",
"Everest",
"Everest",
"Everest",
"Everest",
"Everest",
"Everest",
"Everest",
"Everest",
"Everest",
"Everest",
"Everest",
"Everest",
"Everest",
"Everest",
"Everest",
"Everest",
"Everest",
"Everest",
"Everest",
"Everest",
"Everest",
"Everest",
"Everest",
"Everest",
"Everest",
"Everest",
"Everest",
"Everest",
"Everest",
"Everest",
"Everest",
"Everest",
"Everest",
"Everest",
"Everest",
"Everest",
"Everest",
"Everest",
"Everest",
"Everest",
"Everest",
"Everest",
"Everest",
"Everest",
"Everest",
"Everest",
"Everest",
"Everest",
"Everest",
"Everest",
"Everest",
"Everest",
"Everest",
"Everest",
"Everest",
"Everest",
"Everest",
"Everest",
"Everest",
"Everest",
"Everest",
"Everest",
"Everest",
"Everest",
"Everest",
"Everest",
"Everest",
"Everest",
"Everest",
"Everest",
"Everest",
"Everest",
"Everest",
"Everest",
"Everest",
"Everest",
"Everest",
"Everest",
"Everest",
"Everest",
"Everest",
"Everest",
"Everest",
"Everest",
"Everest",
"Everest",
"Everest",
"Everest",
"Everest",
"Everest",
"Everest",
"Everest",
"Everest",
"Everest",
"Everest",
"Everest",
"Everest",
"Everest",
"Everest",
"Everest",
"Everest",
"Everest",
"Everest",
"Everest",
"Everest",
"Everest",
"Everest",
"Everest",
"Everest",
"Everest",
"Everest",
"Everest",
"Everest",
"Everest",
"Everest",
"Everest",
"Everest",
"Everest",
"Everest",
"Everest",
"Everest",
"Everest",
"Everest",
"Everest",
"Everest",
"Everest",
"Everest",
"Everest",
"Everest",
"Everest",
"Everest",
"Everest",
"Everest",
"Everest",
"Everest",
"Everest",
"Everest",
"Everest",
"Everest",
"Everest",
"Everest",
"Everest",
"Everest",
"Everest",
"Everest",
"Everest",
"Everest",
"Everest",
"Everest",
"Everest",
"Everest",
"Everest",
"Everest",
"Everest",
"Everest",
"Everest",
"Everest",
"Everest",
"Everest",
"Everest",
"Everest",
"Everest",
"Everest",
"Everest",
"Everest",
"Everest",
"Everest",
"Everest",
"Everest",
"Everest",
"Everest",
"Everest",
"Everest",
"Everest",
"Everest",
"Everest",
"Everest",
"Everest",
"Everest",
"Everest",
"Everest",
"Everest",
"Everest",
"Everest",
"Everest",
"Everest",
"Everest",
"Everest",
"Everest",
"Everest",
"Everest",
"Everest",
"Everest",
"Everest",
"Everest",
"Everest",
"Everest",
"Everest",
"Everest",
"Everest",
"Everest",
"Everest",
"Everest",
"Everest",
"Everest",
"Everest",
"Everest",
"Everest",
"Everest",
"Everest",
"Everest",
"Everest",
"Everest",
"Everest",
"Everest",
"Everest",
"Everest",
"Everest",
"Everest",
"Everest",
"Everest",
"Everest",
"Everest",
"Everest",
"Everest",
"Everest",
"Everest",
"Everest",
"Everest",
"Everest",
"Everest",
"Everest",
"Everest",
"Everest",
"Everest",
"Everest",
"Everest",
"Everest",
"Everest",
"Everest",
"Everest",
"Everest",
"Everest",
"Everest",
"Everest",
"Everest",
"Everest",
"Everest",
"Everest",
"Everest",
"Everest",
"Everest",
"Everest",
"Everest",
"Everest",
"Everest",
"Everest",
"Everest",
"Everest",
"Everest",
"Everest",
"Everest",
"Everest",
"Everest",
"Everest",
"Everest",
"Everest",
"Everest",
"Everest",
"Everest",
"Everest",
"Everest",
"Everest",
"Everest",
"Everest",
"Everest",
"Everest",
"Everest",
"Everest",
"Everest",
"Everest",
"Everest",
"Everest",
"Everest",
"Everest",
"Everest",
"Everest",
"Everest",
"Everest",
"Everest",
"Everest",
"Everest",
"Everest",
"Everest",
"Everest",
"Everest",
"Everest",
"Everest",
"Everest",
"Everest",
"Everest",
"Everest",
"Everest",
"Everest",
"Everest",
"Everest",
"Everest",
"Everest",
"Everest",
"Everest",
"Everest",
"Everest",
"Everest",
"Everest",
"Everest",
"Everest",
"Everest",
"Everest",
"Everest",
"Everest",
"Everest",
"Everest",
"Everest",
"Everest",
"Everest",
"Everest",
"Everest",
"Everest",
"Everest",
"Everest",
"Everest",
"Everest",
"Everest",
"Everest",
"Everest",
"Everest",
"Everest",
"Everest",
"Everest",
"Everest",
"Everest",
"Everest",
"Everest",
"Everest",
"Everest",
"Everest",
"Everest",
"Everest",
"Everest",
"Everest",
"Everest",
"Everest",
"Everest",
"Everest",
"Everest",
"Everest",
"Everest",
"Everest",
"Everest",
"Everest",
"Everest",
"Everest",
"Everest",
"Everest",
"Everest",
"Everest",
"Everest",
"Everest",
"Everest",
"Everest",
"Everest",
"Everest",
"Everest",
"Everest",
"Everest",
"Everest",
"Everest",
"Everest",
"Everest",
"Everest",
"Everest",
"Everest",
"Everest",
"Everest",
"Everest",
"Everest",
"Everest",
"Everest",
"Everest",
"Everest",
"Everest",
"Everest",
"Everest",
"Everest",
"Everest",
"Everest",
"Everest",
"Everest",
"Everest",
"Everest",
"Everest",
"Everest",
"Everest",
"Everest",
"Everest",
"Everest",
"Everest",
"Everest",
"Everest",
"Everest",
"Everest",
"Everest",
"Everest",
"Everest",
"Everest",
"Everest",
"Everest",
"Everest",
"Everest",
"f5fahion",
"f5fahion",
"f5fashion",
"f5fashion",
"f5fashion",
"f5fashion",
"f5fashion",
"f5fashion",
"f5fashion",
"f5fashion",
"f5fashion",
"f5fashion",
"f5fashion",
"f5fashion",
"f5fashion",
"f5fashion",
"f5fashion",
"f5fashion",
"f5fashion",
"f5fashion",
"f5fashion",
"f5fashion",
"f5fashion",
"f5fashion",
"f5fashion",
"f5fashion",
"f5fashion",
"f5fashion",
"f5fashion",
"f5fashion",
"f5fashion",
"fashion",
"fashion",
"fashion",
"fashion",
"fashion",
"fashion",
"fashion",
"fashion",
"fashion",
"fashion",
"fashion",
"fashion",
"fashion",
"fashion",
"fashion",
"fashion",
"fashion",
"fashion",
"fashion",
"fashion",
"fashion",
"fashion",
"fashion",
"fashion",
"fashion",
"fashion",
"fashion",
"fashion",
"fashion",
"fashion",
"fashion",
"fashion",
"fashion",
"fashion",
"Family Shop",
"Family Shop",
"Family Shop",
"Family Shop",
"Family Shop",
"Family Shop",
"Family Shop",
"Family Shop",
"Family Shop",
"Family Shop",
"Family Shop",
"Family Shop",
"Family Shop",
"Family Shop",
"Family Shop",
"Family Shop",
"Family Shop",
"Family Shop",
"Family Shop",
"Family Shop",
"Family Shop",
"Family Shop",
"Family Shop",
"Family Shop",
"Family Shop",
"Family Shop",
"Family Shop",
"Fashion 408",
"Fila",
"Fila",
"Fila",
"Fila",
"Fila",
"Fila",
"fitflop",
"fitflop",
"fitflop",
"fitflop",
"fitflop",
"fitflop",
"fitflop",
"fitflop",
"Flossy",
"Flossy",
"Flossy",
"Flossy",
"Flossy",
"Flossy",
"Flossy",
"Flossy",
"Flossy",
"Foxnovo",
"Foxnovo",
"Foxnovo",
"Foxnovo",
"Foxnovo",
"Foxnovo",
"Foxnovo",
"Foxnovo",
"Foxnovo",
"Foxnovo",
"Foxnovo",
"Foxnovo",
"Foxnovo",
"Footjoy",
"G alanti",
"G alanti",
"G alanti",
"G alanti",
"G alanti",
"G alanti",
"G alanti",
"G alanti",
"G alanti",
"G alanti",
"G alanti",
"G alanti",
"G alanti",
"G alanti",
"G alanti",
"G alanti",
"G alanti",
"G alanti",
"G alanti",
"G alanti",
"G alanti",
"Gentle",
"Gentle",
"Gentle",
"Gentle",
"Gentle",
"Gentle",
"Gentle",
"Gentle",
"Gentle",
"Gentle",
"Gentle",
"Gentle",
"Gentle",
"Gentle",
"Gentle",
"Gentle",
"Gentle",
"Gentle",
"Gentle",
"Gentle",
"Gentle",
"Gentle",
"Gentle",
"Gentle",
"Geox",
"Geox",
"Geox",
"Geox",
"Geox",
"Geox",
"Geox",
"Geox",
"Geox",
"Geox",
"Geox",
"Geox",
"Geox",
"Geox",
"Geox",
"Geox",
"Geox",
"Geox",
"Geox",
"Geox",
"Geox",
"Geox",
"Geox",
"Geox",
"Geox",
"Geox",
"Geox",
"Geox",
"Geox",
"Geox",
"Geox",
"Geox",
"Geox",
"Geox",
"Geox",
"Geox",
"Geox",
"Geox",
"Geox",
"Geox",
"Geox",
"Geox",
"Geox",
"Geox",
"Geox",
"Geox",
"Geox",
"Geox",
"Geox",
"Geox",
"Geox",
"Geox",
"Geox",
"Geox",
"Geox",
"Geox",
"Geox",
"Geox",
"Geox",
"Geox",
"Geox",
"Geox",
"Geox",
"Geox",
"Geox",
"Geox",
"Geox",
"Geox",
"Geox",
"Geox",
"Geox",
"Geox",
"Geox",
"Geox",
"Geox",
"Germany",
"GH",
"GH",
"GH",
"GH",
"GH",
"GH",
"GH",
"Giay Cao Smartmen",
"Giay Cao Smartmen",
"Giay Cao Smartmen",
"Giay Cao Smartmen",
"Giay Cao Smartmen",
"Giay Cao Smartmen",
"Giay Cao Smartmen",
"Giay Cao Smartmen",
"Giay Cao Smartmen",
"Giay Cao Smartmen",
"Giay Cao Smartmen",
"Giay Cao Smartmen",
"Giay Cao Smartmen",
"Giay Cao Smartmen",
"Giay Cao Smartmen",
"Giay Cao Smartmen",
"Giay Cao Smartmen",
"Giay Cao Smartmen",
"Giay Cao Smartmen",
"Giay Cao Smartmen",
"Giay Cao Smartmen",
"Giay Cao Smartmen",
"Giay Cao Smartmen",
"Giay Cao Smartmen",
"Giay Cao Smartmen",
"Giay Cao Smartmen",
"Giay Cao Smartmen",
"Giay Cao Smartmen",
"Giay Cao Smartmen",
"Giay Cao Smartmen",
"Giay Cao Smartmen",
"Giay Cao Smartmen",
"Giầy Đại Việt",
"Giầy Đại Việt",
"Giầy Đại Việt",
"Giầy Đại Việt",
"Giầy Đại Việt",
"Giầy Đại Việt",
"Giầy Đại Việt",
"Giầy Đại Việt",
"Giầy Đại Việt",
"Giầy Đại Việt",
"Giầy Đại Việt",
"Giầy Đại Việt",
"Giầy Đại Việt",
"Giầy Đại Việt",
"Giầy Đại Việt",
"Giầy Đại Việt",
"Giầy Đại Việt",
"Giầy Đại Việt",
"Giầy Đại Việt",
"Giầy Đại Việt",
"Giầy Đại Việt",
"Giầy Đại Việt",
"Giầy Đại Việt",
"Giầy Đại Việt",
"Giầy Đại Việt",
"Giầy Đại Việt",
"Giầy Đại Việt",
"Giầy Đại Việt",
"Giầy Đại Việt",
"Giầy Đại Việt",
"Giầy Đại Việt",
"Giầy Đại Việt",
"Giầy Đại Việt",
"Giầy Đại Việt",
"Giầy Đại Việt",
"Giầy Đại Việt",
"Giầy Đại Việt",
"Giầy Đại Việt",
"Giầy Đại Việt",
"Giầy Đại Việt",
"Giầy Đại Việt",
"Giầy Đại Việt",
"Giầy Đại Việt",
"Giầy Đại Việt",
"Giầy Đại Việt",
"Giầy Đại Việt",
"Giầy Đại Việt",
"Giầy Đại Việt",
"Giầy Đại Việt",
"Giầy Đại Việt",
"Giầy Đại Việt",
"Giầy Đại Việt",
"Giầy Đại Việt",
"Giầy Đại Việt",
"Giầy Đại Việt",
"Giầy Đại Việt",
"Giầy Đại Việt",
"Giầy Đại Việt",
"Giầy Đại Việt",
"Giầy Đại Việt",
"Giầy Đại Việt",
"Giầy Đại Việt",
"Giầy Đại Việt",
"Giầy Đại Việt",
"Giầy Đại Việt",
"Giầy Đại Việt",
"Giầy Đại Việt",
"Giầy Đại Việt",
"Giầy Đại Việt",
"Giầy Đại Việt",
"Giầy Đại Việt",
"Giầy Đại Việt",
"Giầy Đại Việt",
"Giầy Đại Việt",
"Giầy Đại Việt",
"Giầy Đại Việt",
"Giầy Đại Việt",
"Giầy Đại Việt",
"Giầy Đại Việt",
"Giầy Đại Việt",
"Giầy Đại Việt",
"Giầy Đại Việt",
"Giầy Đại Việt",
"Giầy Đại Việt",
"Giầy Đại Việt",
"Giầy Đại Việt",
"Giầy Đại Việt",
"Giầy Đại Việt",
"Giầy Đại Việt",
"Giagoc24h",
"Giagoc24h",
"Giagoc24h",
"Giagoc24h",
"Giagoc24h",
"Giagoc24h",
"Giagoc24h",
"Giagoc24h",
"Giagoc24h",
"Giagoc24h",
"Giagoc24h",
"Giagoc24h",
"Giagoc24h",
"Giagoc24h",
"Giagoc24h",
"Giagoc24h",
"Giagoc24h",
"Giagoc24h",
"Giagoc24h",
"Giagoc24h",
"Giagoc24h",
"Giagoc24h",
"Giagoc24h",
"Giagoc24h",
"Giagoc24h",
"Giagoc24h",
"Giagoc24h",
"Giagoc24h",
"Giatot126",
"Giatot126",
"Giatot126",
"Giatot126",
"Giatot126",
"Giatot126",
"Gia Vi",
"Gia Vi",
"Gia Vi",
"Gia Vi",
"Gia Vi",
"Gia Vi",
"Gia Vi",
"Gia Vi",
"Gia Vi",
"Gia Vi",
"Gia Vi",
"giagoc1688",
"giagoc1688",
"giagoc1688",
"giagoc1688",
"giagoc1688",
"giagoc1688",
"giagoc1688",
"giagoc1688",
"giagoc1688",
"giagoc1688",
"giagoc1688",
"giagoc1688",
"giagoc1688",
"giagoc1688",
"giagoc1688",
"giagoc1688",
"giagoc1688",
"giagoc1688",
"giagoc1688",
"giagoc1688",
"giagoc1688",
"giagoc1688",
"giagoc1688",
"giagoc1688",
"giagoc1688",
"giagoc1688",
"giagoc1688",
"giagoc1688",
"giagoc1688",
"giagoc1688",
"giagoc1688",
"giagoc1688",
"giagoc1688",
"giagoc1688",
"giagoc1688",
"Giay Cao Smartmen",
"Giay Cao Smartmen",
"Giay Cao Smartmen",
"Giay Cao Smartmen",
"Giay Cao Smartmen",
"Giay Cao Smartmen",
"Giay Cao Smartmen",
"Giay Cao Smartmen",
"Giay Cao Smartmen",
"Giay Cao Smartmen",
"Giay Cao Smartmen",
"Giay Cao Smartmen",
"Giay Cao Smartmen",
"Giay Cao Smartmen",
"Giay Cao Smartmen",
"Giay Cao Smartmen",
"Giay Cao Smartmen",
"Giay Cao Smartmen",
"Giay Cao Smartmen",
"Giay Cao Smartmen",
"Giay Cao Smartmen",
"Giay Cao Smartmen",
"Giay Cao Smartmen",
"Giay Cao Smartmen",
"Giay Cao Smartmen",
"Giay Cao Smartmen",
"Giay Cao Smartmen",
"Giay Cao Smartmen",
"Giay Cao Smartmen",
"Giay Cao Smartmen",
"Giay Cao Smartmen",
"Giay Cao Smartmen",
"Giay Cao Smartmen",
"Giay Cao Smartmen",
"Giay Cao Smartmen",
"Giay Cao Smartmen",
"Giay Cao Smartmen",
"Giay Cao Smartmen",
"Giay Cao Smartmen",
"Giay Cao Smartmen",
"Giay Cao Smartmen",
"Giay Cao Smartmen",
"Giay Cao Smartmen",
"Giay Cao Smartmen",
"Giay Cao Smartmen",
"Giay Cao Smartmen",
"Giay Cao Smartmen",
"Giay Cao Smartmen",
"Giay Cao Smartmen",
"Giay Cao Smartmen",
"Giay Cao Smartmen",
"Giay Cao Smartmen",
"Giay Cao Smartmen",
"Giay Cao Smartmen",
"Giay Cao Smartmen",
"Giay Cao Smartmen",
"Giay Cao Smartmen",
"Giay Cao Smartmen",
"Giay Cao Smartmen",
"Giay Cao Smartmen",
"Giay Cao Smartmen",
"Giay Cao Smartmen",
"Giay Cao Smartmen",
"Giay Cao Smartmen",
"Giay Cao Smartmen",
"Giay Cao Smartmen",
"Giay Cao Smartmen",
"Giay Cao Smartmen",
"Giay Cao Smartmen",
"Giay Cao Smartmen",
"Giay Cao Smartmen",
"Giay Cao Smartmen",
"Giay Cao Smartmen",
"Giay Cao Smartmen",
"Giay Cao Smartmen",
"Giay Cao Smartmen",
"Giay Cao Smartmen",
"Giay Cao Smartmen",
"Giay Cao Smartmen",
"Giay Cao Smartmen",
"Giay Cao Smartmen",
"Giay Cao Smartmen",
"Giay Cao Smartmen",
"Giay Cao Smartmen",
"Giay Cao Smartmen",
"Giay Cao Smartmen",
"Giay Cao Smartmen",
"Giay Cao Smartmen",
"Giay Cao Smartmen",
"Giay Cao Smartmen",
"Giay Cao Smartmen",
"Giay Cao Smartmen",
"Giay Cao Smartmen",
"Giay Cao Smartmen",
"Giay Cao Smartmen",
"Giay Cao Smartmen",
"Giay Cao Smartmen",
"Giay Cao Smartmen",
"Giay Cao Smartmen",
"Giay Cao Smartmen",
"Giay Cao Smartmen",
"Giay Cao Smartmen",
"Giay Cao Smartmen",
"Giay Cao Smartmen",
"Giay Cao Smartmen",
"Giay Cao Smartmen",
"Giay Cao Smartmen",
"Giay Cao Smartmen",
"Giay Cao Smartmen",
"Giay Cao Smartmen",
"Giay Cao Smartmen",
"Giay Cao Smartmen",
"Giay Cao Smartmen",
"Giay Cao Smartmen",
"Giay Cao Smartmen",
"Giay Cao Smartmen",
"Giay Cao Smartmen",
"Giay Cao Smartmen",
"Giay Cao Smartmen",
"Giay Cao Smartmen",
"Giay Cao Smartmen",
"Giay Cao Smartmen",
"Giay Cao Smartmen",
"Giay Cao Smartmen",
"Giay Cao Smartmen",
"Giay Cao Smartmen",
"Giay Cao Smartmen",
"Giay Cao Smartmen",
"Giay Cao Smartmen",
"Giay Cao Smartmen",
"Giay Cao Smartmen",
"Giay Cao Smartmen",
"Giay Cao Smartmen",
"Giay Cao Smartmen",
"Giay Cao Smartmen",
"Giay Cao Smartmen",
"Giay Cao Smartmen",
"Giay Cao Smartmen",
"Giay Cao Smartmen",
"Giay Cao Smartmen",
"Giay Cao Smartmen",
"Giay Cao Smartmen",
"Giay Cao Smartmen",
"Giay Cao Smartmen",
"Giay Cao Smartmen",
"Giay Cao Smartmen",
"Giay Cao Smartmen",
"Giay Cao Smartmen",
"Giay Cao Smartmen",
"Giay Cao Smartmen",
"Giay Cao Smartmen",
"Giay Cao Smartmen",
"Giay Cao Smartmen",
"Giay Cao Smartmen",
"Giay Cao Smartmen",
"Giay Cao Smartmen",
"Giay Cao Smartmen",
"Giay Cao Smartmen",
"Giay Cao Smartmen",
"Giay Cao Smartmen",
"Giay Cao Smartmen",
"Giay Cao Smartmen",
"Giay Cao Smartmen",
"Giay Cao Smartmen",
"Giay Cao Smartmen",
"Giay Cao Smartmen",
"Giay Cao Smartmen",
"Giay Cao Smartmen",
"Giay Cao Smartmen",
"GIA TOT 360",
"Glado",
"Glado",
"Glado",
"Glado",
"Glado",
"Glado",
"Glado",
"Glado",
"Glado",
"Glado",
"Glado",
"Glado",
"Glado",
"Glado",
"Glado",
"Glado",
"Glado",
"Glado",
"Glado",
"Glado",
"Glado",
"Glado",
"Glado",
"Goodwill",
"Goodwill",
"Goodwill",
"Goodwill",
"GONY",
"GONY",
"GRENTECH",
"GRENTECH",
"GRENTECH",
"Guess Collection",
"Gugo",
"Gugo",
"Gugo",
"Gugo",
"Gugo",
"Gugo",
"Gugo",
"Gugo",
"Gugo",
"Gugo",
"Gugo",
"Gugo",
"Gugo",
"Gugo",
"Gugo",
"Hải Nancy",
"Hải Nancy",
"Hải Nancy",
"Hải Nancy",
"Hải Nancy",
"Hải Nancy",
"Hải Nancy",
"Hải Nancy",
"Hải Nancy",
"Hải Nancy",
"Hải Nancy",
"Hải Nancy",
"Hải Nancy",
"Hải Nancy",
"Hải Nancy",
"Hải Nancy",
"Hải Nancy",
"Hải Nancy",
"Hải Nancy",
"Hải Nancy",
"Hải Nancy",
"Hải Nancy",
"Hải Nancy",
"Hải Nancy",
"Hải Nancy",
"Hải Nancy",
"Hải Nancy",
"Hải Nancy",
"Hải Nancy",
"Hải Nancy",
"Hải Nancy",
"Hải Nancy",
"Hải Nancy",
"Hải Nancy",
"Hải Nancy",
"Hải Nancy",
"Hải Nancy",
"Hải Nancy",
"Hải Nancy",
"Hải Nancy",
"Hải Nancy",
"Hải Nancy",
"Hải Nancy",
"Hải Nancy",
"Hải Nancy",
"Hải Nancy",
"Hải Nancy",
"Hải Nancy",
"Hải Nancy",
"Hải Nancy",
"Hải Nancy",
"Hải Nancy",
"Hải Nancy",
"Hải Nancy",
"Hải Nancy",
"Hải Nancy",
"Hải Nancy",
"Hải Nancy",
"Hải Nancy",
"Hải Nancy",
"Hải Nancy",
"Hải Nancy",
"Hải Nancy",
"Hải Nancy",
"Hải Nancy",
"Hải Nancy",
"Hải Nancy",
"Hải Nancy",
"Hải Nancy",
"Hải Nancy",
"Hải Nancy",
"Hải Nancy",
"Hải Nancy",
"Hải Nancy",
"Hải Nancy",
"Hải Nancy",
"Hải Nancy",
"Hải Nancy",
"Hải Nancy",
"Hải Nancy",
"Hải Nancy",
"Hải Nancy",
"Hải Nancy",
"Hải Nancy",
"Hải Nancy",
"Hải Nancy",
"Hải Nancy",
"Hải Nancy",
"Hải Nancy",
"Hải Nancy",
"Hải Nancy",
"Hải Nancy",
"Hải Nancy",
"Hải Nancy",
"Hải Nancy",
"Hải Nancy",
"Hải Nancy",
"Hải Nancy",
"Hải Nancy",
"Hải Nancy",
"Hải Nancy",
"Hải Nancy",
"Hải Nancy",
"Hải Nancy",
"Hải Nancy",
"Hải Nancy",
"Hải Nancy",
"Hải Nancy",
"Hải Nancy",
"Hải Nancy",
"Hải Nancy",
"Hải Nancy",
"Hải Nancy",
"Hải Nancy",
"Hải Nancy",
"Hải Nancy",
"Hải Nancy",
"Hải Nancy",
"Hải Nancy",
"Hải Nancy",
"Hải Nancy",
"Hải Nancy",
"Hải Nancy",
"Hải Nancy",
"Hải Nancy",
"Hải Nancy",
"Hải Nancy",
"Hải Nancy",
"Hải Nancy",
"Hải Nancy",
"Hải Nancy",
"Hải Nancy",
"Hải Nancy",
"Hải Nancy",
"Hải Nancy",
"Hải Nancy",
"Hải Nancy",
"Hải Nancy",
"Hải Nancy",
"Hải Nancy",
"Hải Nancy",
"Hải Nancy",
"Hải Nancy",
"Hải Nancy",
"Hải Nancy",
"Hải Nancy",
"Hải Nancy",
"Hải Nancy",
"Hải Nancy",
"Hải Nancy",
"Hải Nancy",
"Hải Nancy",
"Hải Nancy",
"Hải Nancy",
"Hải Nancy",
"Hải Nancy",
"Hải Nancy",
"Hải Nancy",
"Hải Nancy",
"Hải Nancy",
"Hải Nancy",
"Hải Nancy",
"Hải Nancy",
"Hải Nancy",
"Hải Nancy",
"Hải Nancy",
"Hải Nancy",
"Hải Nancy",
"Hải Nancy",
"Hải Nancy",
"Hải Nancy",
"Hải Nancy",
"Hải Nancy",
"Hải Nancy",
"Hải Nancy",
"Hải Nancy",
"Hải Nancy",
"Hải Nancy",
"Hải Nancy",
"Hải Nancy",
"Hải Nancy",
"Hải Nancy",
"Hải Nancy",
"Hải Nancy",
"Hải Nancy",
"Hải Nancy",
"Hải Nancy",
"Hải Nancy",
"Hải Nancy",
"Hải Nancy",
"Hải Nancy",
"Hải Nancy",
"Hải Nancy",
"Hải Nancy",
"Hải Nancy",
"Hải Nancy",
"Hải Nancy",
"Hải Nancy",
"Hải Nancy",
"Hải Nancy",
"Hải Nancy",
"Hải Nancy",
"Hải Nancy",
"Hải Nancy",
"Hải Nancy",
"Hải Nancy",
"Hải Nancy",
"Hải Nancy",
"Hải Nancy",
"Hải Nancy",
"Hải Nancy",
"Hải Nancy",
"Hải Nancy",
"Hải Nancy",
"Hải Nancy",
"Hải Nancy",
"Hải Nancy",
"Hải Nancy",
"Hải Nancy",
"Hải Nancy",
"Hải Nancy",
"Hải Nancy",
"Hải Nancy",
"Hải Nancy",
"Hải Nancy",
"Hải Nancy",
"Hải Nancy",
"Hải Nancy",
"Hải Nancy",
"Hải Nancy",
"Hải Nancy",
"Hải Nancy",
"Hải Nancy",
"Hải Nancy",
"Hải Nancy",
"Hải Nancy",
"Hải Nancy",
"Hải Nancy",
"Hải Nancy",
"Hải Nancy",
"Hải Nancy",
"Hải Nancy",
"Hải Nancy",
"Hải Nancy",
"Hải Nancy",
"Hải Nancy",
"Hải Nancy",
"Hải Nancy",
"Hải Nancy",
"Hải Nancy",
"Hải Nancy",
"Hanghot365",
"Hanghot365",
"Hàn Quốc",
"Hadosa",
"Hadosa",
"Hadosa",
"Hadosa",
"Hadosa",
"Hadosa",
"Hadosa",
"Hadosa",
"Hadosa",
"Hadosa",
"Hadosa",
"Hadosa",
"Hando",
"Hando",
"Hando",
"Hando",
"HippoBloo",
"HippoBloo",
"HippoBloo",
"HippoBloo",
"HippoBloo",
"HippoBloo",
"HippoBloo",
"HippoBloo",
"HippoBloo",
"HippoBloo",
"HNP",
"HNP",
"HNP",
"HNP",
"HNP",
"HNP",
"HNP",
"HNP",
"HNP",
"HNP",
"HNP",
"HNP",
"HNP",
"HNP",
"HNP",
"HNP",
"HNP",
"HNP",
"HNP",
"HNP",
"HNP",
"HNP",
"HNP",
"HNP",
"HNP",
"HNP",
"HNP",
"HNP",
"HNP",
"HNP",
"HNP",
"HNP",
"HNP",
"HNP",
"HNP",
"HNP",
"HNP",
"HNP",
"Hoài Anh",
"Hoài Anh",
"Hoài Anh",
"Hoài Anh",
"Hoài Anh",
"Hoài Anh",
"Huy Hoàng",
"Huy Hoàng",
"Huy Hoàng",
"Huy Hoàng",
"Huy Hoàng",
"Huy Hoàng",
"Huy Hoàng",
"Huy Hoàng",
"Huy Hoàng",
"Huy Hoàng",
"Huy Hoàng",
"Huy Hoàng",
"Huy Hoàng",
"Huy Hoàng",
"Huy Hoàng",
"Huy Hoàng",
"Huy Hoàng",
"Huy Hoàng",
"Huy Hoàng",
"Huy Hoàng",
"Huy Hoàng",
"Huy Hoàng",
"Huy Hoàng",
"Huy Hoàng",
"Huy Hoàng",
"Huy Hoàng",
"Huy Hoàng",
"Huy Hoàng",
"Huy Hoàng",
"Huy Hoàng",
"Huy Hoàng",
"Huy Hoàng",
"Huy Hoàng",
"Huy Hoàng",
"Huy Hoàng",
"Huy Hoàng",
"Huy Hoàng",
"Huy Hoàng",
"Huy Hoàng",
"Huy Hoàng",
"Huy Hoàng",
"Huy Hoàng",
"Huy Hoàng",
"Huy Hoàng",
"Huy Hoàng",
"Huy Hoàng",
"Huy Hoàng",
"Huy Hoàng",
"Huy Hoàng",
"Huy Hoàng",
"Huy Hoàng",
"Huy Hoàng",
"Huy Hoàng",
"Huy Hoàng",
"Huy Hoàng",
"Huy Hoàng",
"Huy Hoàng",
"Huy Hoàng",
"Huy Hoàng",
"Huy Hoàng",
"Huy Hoàng",
"Huy Hoàng",
"Huy Hoàng",
"Huy Hoàng",
"Huy Hoàng",
"Huy Hoàng",
"Huy Hoàng",
"Huy Hoàng",
"Huy Hoàng",
"Huy Hoàng",
"Huy Hoàng",
"Huy Hoàng",
"Huy Hoàng",
"Huy Hoàng",
"Huy Hoàng",
"Huy Hoàng",
"Huy Hoàng",
"Huy Hoàng",
"Huy Hoàng",
"Huy Hoàng",
"Huy Hoàng",
"Huy Hoàng",
"Huy Hoàng",
"Huy Hoàng",
"Huy Hoàng",
"Huy Hoàng",
"Huy Hoàng",
"Huy Hoàng",
"Huy Hoàng",
"Huy Hoàng",
"Huy Hoàng",
"Huy Hoàng",
"Huy Hoàng",
"Huy Hoàng",
"Huy Hoàng",
"Huy Hoàng",
"Huy Hoàng",
"Huy Hoàng",
"Huy Hoàng",
"Huy Hoàng",
"Huy Hoàng",
"Huy Hoàng",
"Huy Hoàng",
"Huy Hoàng",
"Huy Hoàng",
"Huy Hoàng",
"Huy Hoàng",
"Huy Hoàng",
"Huy Hoàng",
"Huy Hoàng",
"Huy Hoàng",
"Huy Hoàng",
"Huy Hoàng",
"Huy Hoàng",
"Huy Hoàng",
"Huy Hoàng",
"Huy Hoàng",
"Huy Hoàng",
"Huy Hoàng",
"Huy Hoàng",
"Huy Hoàng",
"Huy Hoàng",
"Huy Hoàng",
"Huy Hoàng",
"Huy Hoàng",
"Huy Hoàng",
"Huy Hoàng",
"Huy Hoàng",
"Huy Hoàng",
"Huy Hoàng",
"Huy Hoàng",
"Huy Hoàng",
"Huy Hoàng",
"Huy Hoàng",
"Huy Hoàng",
"Huy Hoàng",
"Huy Hoàng",
"Huy Hoàng",
"Huy Hoàng",
"Huy Hoàng",
"Huy Hoàng",
"Huy Hoàng",
"Huy Hoàng",
"Huy Hoàng",
"Huy Hoàng",
"Huy Hoàng",
"Huy Hoàng",
"Huy Hoàng",
"Huy Hoàng",
"Huy Hoàng",
"Huy Hoàng",
"Huy Hoàng",
"Huy Hoàng",
"Huy Hoàng",
"Huy Hoàng",
"Huy Hoàng",
"Huy Hoàng",
"Huy Hoàng",
"Huy Hoàng",
"Huy Hoàng",
"Huy Hoàng",
"Huy Hoàng",
"Huy Hoàng",
"Huy Tuấn",
"Huy Tuấn",
"Huy Tuấn",
"Huỳnh Tiên",
"Huỳnh Tiên",
"Huỳnh Tiên",
"Huỳnh Tiên",
"Huỳnh Tiên",
"Huỳnh Tiên",
"Huỳnh Tiên",
"Huỳnh Tiên",
"Huỳnh Tiên",
"Huỳnh Tiên",
"Huỳnh Tiên",
"Huỳnh Tiên",
"Huỳnh Tiên",
"Huỳnh Tiên",
"Huỳnh Tiên",
"Huỳnh Tiên",
"Huỳnh Tiên",
"Huỳnh Tiên",
"Huỳnh Tiên",
"Huỳnh Tiên",
"IZOD",
"JoJo",
"JoJo",
"JoJo",
"JoJo",
"JoJo",
"Kaido",
"Kaido",
"Kenneth Cole",
"Kleen",
"Koxuka",
"Koxuka",
"Koxuka",
"Koxuka",
"Ktfashion",
"Ktfashion",
"Ktfashion",
"Ktfashion",
"Ktfashion",
"Ktfashion",
"Ktfashion",
"Ktfashion",
"Ktfashion",
"Ktfashion",
"Ktfashion",
"Ktfashion",
"Ktfashion",
"LADA",
"LADA",
"LADA",
"LADA",
"LADA",
"LADA",
"LADA",
"LADA",
"LADA",
"LADA",
"LADA",
"ADAM",
"L&A Fashion",
"L&A Fashion",
"L&A Fashion",
"L&A Fashion",
"L&A Fashion",
"L&A Fashion",
"L&A Fashion",
"L&A Fashion",
"L&A Fashion",
"L&A Fashion",
"L&A Fashion",
"L&A Fashion",
"L&A Fashion",
"L&A Fashion",
"L&A Fashion",
"L&A Fashion",
"L&A Fashion",
"L&A Fashion",
"L&A Fashion",
"Leedo",
"Leedo",
"Leedo",
"Leedo",
"Leedo",
"Leedo",
"Leedo",
"Leedo",
"Leedo",
"LeoLuxury",
"LeoLuxury",
"LeoLuxury",
"LeoLuxury",
"LeoLuxury",
"LeoLuxury",
"LeoLuxury",
"LeoLuxury",
"LeoLuxury",
"LeoLuxury",
"LeoLuxury",
"LeoLuxury",
"LeoLuxury",
"LeoLuxury",
"LeoLuxury",
"LeoLuxury",
"LeoLuxury",
"LeoLuxury",
"LeoLuxury",
"LeoLuxury",
"LeoLuxury",
"LeoLuxury",
"LeoLuxury",
"LeoLuxury",
"LeoLuxury",
"LeoLuxury",
"LeoLuxury",
"LeoLuxury",
"LeoLuxury",
"LeoLuxury",
"LeoLuxury",
"Likado",
"Likado",
"Lining",
"Lining",
"Lining",
"Lining",
"Lining",
"Lining",
"Lining",
"Lining",
"Lining",
"Lining",
"Lining",
"LStyle",
"LUCKY Việt",
"LUCKY Việt",
"LUCKY Việt",
"LUCKY Việt",
"LUCKY Việt",
"LUCKY Việt",
"LUCKY Việt",
"LUCKY Việt",
"LUCKY Việt",
"LUCKY Việt",
"LUCKY Việt",
"LUCKY Việt",
"LUCKY Việt",
"LUCKY Việt",
"Manticano",
"Manticano",
"Manticano",
"Manticano",
"Manticano",
"Manticano",
"Manticano",
"Manticano",
"Manticano",
"Manticano",
"Manticano",
"Manticano",
"Manticano",
"Manticano",
"Manticano",
"Manticano",
"Manticano",
"Martens",
"Massimo Dutti",
"Massimo Dutti",
"Massimo Dutti",
"Massimo Dutti",
"Massimo Dutti",
"Massimo Dutti",
"Massimo Dutti",
"Metro",
"Metro",
"Metro",
"Metro",
"Metro",
"Metro",
"Metro",
"Metro",
"Metro",
"Metro",
"Metro",
"Metro",
"Metro",
"Metro",
"Metro",
"Metro",
"Metro",
"Metro",
"Metro",
"Metro",
"Metro",
"Metro",
"Metro",
"Metro",
"Metro",
"Metro",
"Metro",
"Metro",
"Metro",
"Metro",
"Metro",
"Metro",
"Metro",
"Metro",
"Metro",
"Metro",
"Metro",
"Metro",
"Metro",
"Metro",
"Metro",
"Metro",
"Metro",
"Metro",
"Metro",
"Metro",
"Metro",
"Metro",
"Metro",
"Metro",
"Metro",
"Metro",
"Metro",
"Metro",
"Metro",
"Metro",
"Metro",
"Metro",
"Metro",
"Metro",
"Metro",
"Metro",
"Metro",
"Metro",
"Metro",
"Metro",
"Metro",
"Metro",
"Metro",
"Metro",
"Metro",
"Metro",
"Metro",
"Metro",
"Metro",
"Metro",
"Metro",
"Metro",
"Metro",
"Metro",
"Metro",
"Metro",
"Metro",
"Metro",
"Metro",
"Metro",
"Metro",
"Metro",
"Metro",
"Metro",
"Metro",
"Metro",
"Metro",
"Metro",
"Metro",
"Metro",
"Metro",
"Metro",
"Metro",
"Metro",
"Metro",
"Metro",
"Metro",
"Metro",
"Metro",
"Metro",
"Metro",
"Metro",
"Metro",
"Metro",
"Metro",
"Metro",
"Metro",
"Metro",
"Metro",
"Metro",
"Metro",
"Metro",
"Metro",
"Metro",
"Metro",
"Metro",
"Metro",
"Metro",
"Metro",
"Metro",
"Metro",
"Metro",
"Metro",
"Metro",
"Metro",
"Metro",
"Metro",
"Metro",
"Metro",
"Metro",
"Metro",
"Metro",
"Metro",
"Metro",
"Metro",
"Metro",
"Metro",
"Metro",
"Metro",
"Metro",
"Metro",
"Metro",
"Metro",
"Metro",
"Metro",
"Metro",
"Metro",
"Metro",
"Metro",
"Metro",
"Metro",
"Metro",
"Metro",
"Metro",
"Metro",
"Metro",
"Metro",
"Metro",
"Metro",
"Metro",
"Metro",
"Metro",
"Metro",
"Metro",
"Metro",
"Metro",
"Metro",
"Metro",
"Metro",
"Metro",
"Metro",
"Metro",
"Metro",
"Metro",
"Metro",
"Metro",
"Metro",
"Metro",
"Metro",
"Metro",
"Metro",
"Metro",
"Metro",
"Metro",
"Metro",
"Metro",
"Metro",
"Metro",
"Metro",
"Metro",
"Metro",
"Metro",
"Metro",
"Metro",
"Metro",
"Metro",
"Metro",
"Metro",
"Metro",
"Metro",
"Metro",
"Metro",
"Metro",
"Metro",
"Metro",
"Metro",
"Metro",
"Metro",
"Metro",
"Metro",
"Metro",
"Metro",
"Metro",
"Metro",
"Metro",
"Metro",
"Metro",
"Metro",
"Metro",
"Metro",
"Metro",
"Metro",
"Metro",
"Metro",
"Metro",
"Metro",
"Metro",
"Metro",
"Metro",
"Metro",
"Metro",
"Metro",
"Metro",
"Metro",
"Metro",
"Metro",
"Metro",
"Metro",
"Metro",
"Metro",
"Metro",
"Metro",
"Metro",
"Metro",
"Metro",
"Metro",
"Metro",
"Metro",
"Metro",
"Metro",
"Metro",
"Metro",
"Metro",
"Metro",
"Metro",
"Metro",
"Metro",
"Metro",
"Metro",
"Metro",
"Metro",
"Metro",
"Metro",
"Metro",
"Metro",
"Metro",
"Metro",
"Metro",
"Metro",
"Metro",
"Metro",
"Metro",
"Metro",
"Metro",
"Metro",
"Metro",
"Metro",
"Metro",
"Metro",
"Metro",
"Metro",
"Metro",
"Metro",
"Metro",
"Metro",
"Metro",
"Metro",
"Metro",
"Metro",
"Metro",
"Metro",
"Metro",
"Metro",
"Metro",
"Metro",
"Metro",
"Metro",
"Metro",
"Metro",
"Metro",
"Metro",
"Metro",
"Metro",
"Metro",
"Metro",
"Metro",
"Metro",
"Metro",
"Metro",
"Metro",
"Metro",
"Metro",
"Metro",
"Metro",
"Metro",
"Metro",
"Metro",
"Metro",
"Metro",
"Metro",
"Metro",
"Metro",
"Metro",
"Metro",
"Metro",
"Metro",
"Metro",
"Metro",
"Metro",
"Metro",
"Metro",
"Metro",
"Metro",
"Metro",
"Metro",
"Metro",
"Metro",
"Metro",
"Metro",
"Metro",
"Metro",
"Metro",
"Metro",
"Metro",
"Metro",
"Metro",
"Metro",
"Metro",
"Metro",
"Metro",
"Metro",
"Metro",
"Metro",
"Metro",
"Metro",
"Metro",
"Metro",
"Metro",
"Metro",
"Metro",
"Metro",
"Metro",
"Metro",
"Metro",
"Metro",
"Metro",
"Metro",
"Metro",
"Metro",
"Metro",
"Metro",
"Metro",
"Metro",
"Metro",
"Metro",
"Metro",
"Metro",
"Metro",
"Metro",
"Metro",
"Metro",
"Metro",
"Metro",
"Metro",
"Metro",
"Metro",
"Metro",
"Metro",
"Metro",
"Metro",
"Metro",
"Metro",
"Metro",
"Metro",
"Metro",
"Metro",
"Metro",
"Metro",
"Metro",
"Metro",
"Metro",
"Metro",
"Metro",
"Metro",
"Metro",
"Metro",
"Metro",
"Metro",
"Metro",
"Metro",
"Metro",
"Metro",
"Metro",
"Metro",
"Metro",
"Metro",
"Metro",
"Metro",
"Metro",
"Metro",
"Metro",
"Metro",
"Metro",
"Metro",
"Metro",
"Metro",
"Metro",
"Metro",
"Metro",
"Metro",
"Metro",
"Metro",
"Metro",
"Metro",
"Metro",
"Metro",
"Metro",
"Metro",
"Metro",
"Metro",
"Metro",
"Metro",
"Metro",
"Metro",
"Metro",
"Metro",
"Metro",
"Metro",
"Metro",
"Metro",
"Metro",
"Metro",
"Metro",
"Metro",
"Metro",
"Metro",
"Metro",
"Metro",
"Metro",
"Metro",
"Metro",
"Metro",
"Metro",
"Metro",
"Metro",
"Metro",
"Metro",
"Metro",
"Metro",
"Metro",
"Metro",
"Metro",
"Metro",
"Metro",
"Metro",
"Metro",
"Metro",
"Metro",
"Metro",
"Metro",
"Metro",
"Metro",
"Metro",
"Metro",
"Metro",
"Metro",
"Metro",
"Metro",
"Metro",
"Metro",
"Metro",
"Metro",
"Metro",
"Metro",
"Metro",
"Metro",
"Metro",
"Metro",
"Metro",
"Metro",
"Metro",
"Metro",
"Metro",
"Metro",
"Metro",
"Metro",
"Metro",
"Metro",
"Metro",
"Metro",
"Metro",
"Metro",
"Metro",
"Metro",
"Metro",
"Metro",
"Metro",
"Metro",
"Metro",
"Metro",
"Metro",
"Metro",
"Metro",
"Metro",
"Metro",
"Metro",
"Metro",
"Metro",
"Metro",
"Metro",
"Metro",
"Metro",
"Metro",
"Metro",
"Metro",
"Metro",
"Metro",
"Metro",
"Metro",
"Metro",
"Metro",
"Metro",
"Metro",
"Metro",
"Metro",
"Metro",
"Metro",
"Metro",
"Metro",
"Metro",
"Metro",
"Metro",
"Metro",
"Metro",
"Metro",
"Metro",
"Metro",
"Metro",
"Metro",
"Metro",
"Metro",
"Metro",
"Metro",
"Metro",
"Metro",
"Metro",
"Metro",
"Metro",
"Metro",
"Metro",
"Metro",
"Metro",
"Metro",
"Metro",
"Metro",
"Metro",
"Metro",
"Metro",
"Metro",
"Metro",
"Metro",
"Metro",
"Metro",
"Metro",
"Metro",
"Metro",
"Metro",
"Metro",
"Metro",
"Metro",
"Metro",
"Metro",
"Metro",
"Metro",
"Metro",
"Metro",
"Metro",
"Metro",
"Metro",
"Metro",
"Metro",
"Metro",
"Metro",
"Metro",
"Metro",
"Metro",
"Metro",
"Minh Tâm",
"Minh Tâm",
"Minh Tâm",
"Minh Tâm",
"Minh Tâm",
"Minh Tâm",
"Minh Tâm",
"Minh Tâm",
"Minh Tâm",
"Minh Tâm",
"Minh Tâm",
"Minh Tâm",
"Minh Tâm",
"Minh Tâm",
"Minh Tâm",
"Minh Tâm",
"Minh Tâm",
"Minh Tâm",
"Minh Tâm",
"MiSTEP",
"MiSTEP",
"Moriitalia",
"MOL",
"MOL",
"MOL",
"MOL",
"MOL",
"MOL",
"MOL",
"MOL",
"MOL",
"MOL",
"MOL",
"MOL",
"MOL",
"MOL",
"MOL",
"MOL",
"MOL",
"Nam Phong",
"Nam Phong",
"Nano",
"Naza",
"ND Fashion",
"ND Fashion",
"ND Fashion",
"ND Fashion",
"ND Fashion",
"New Look",
"New Fashion",
"New Fashion",
"NENE",
"NgocDungFashion",
"NgocDungFashion",
"NgocDungFashion",
"NgocDungFashion",
"NgocDungFashion",
"NgocDungFashion",
"NgocDungFashion",
"NgocDungFashion",
"NgocDungFashion",
"NgocDungFashion",
"NgocDungFashion",
"NgocDungFashion",
"NgocDungFashion",
"NgocDungFashion",
"NgocDungFashion",
"NgocDungFashion",
"NgocDungFashion",
"NgocDungFashion",
"NgocDungFashion",
"NgocDungFashion",
"NgocDungFashion",
"NgocDungFashion",
"NgocDungFashion",
"NgocDungFashion",
"NgocDungFashion",
"NgocDungFashion",
"NgocDungFashion",
"NgocDungFashion",
"NgocDungFashion",
"NgocDungFashion",
"NgocDungFashion",
"NgocDungFashion",
"NgocDungFashion",
"NgocDungFashion",
"NgocDungFashion",
"NgocDungFashion",
"NgocDungFashion",
"NgocDungFashion",
"NgocDungFashion",
"NgocDungFashion",
"NgocDungFashion",
"NgocDungFashion",
"NgocDungFashion",
"NgocDungFashion",
"NgocDungFashion",
"NgocDungFashion",
"NgocDungFashion",
"NgocDungFashion",
"NgocDungFashion",
"NgocDungFashion",
"NgocDungFashion",
"NgocDungFashion",
"NgocDungFashion",
"NgocDungFashion",
"NgocDungFashion",
"NgocDungFashion",
"NgocDungFashion",
"NgocDungFashion",
"NgocDungFashion",
"NgocDungFashion",
"NgocDungFashion",
"NgocDungFashion",
"NgocDungFashion",
"NgocDungFashion",
"NgocDungFashion",
"NgocDungFashion",
"NgocDungFashion",
"NgocDungFashion",
"NgocDungFashion",
"NgocDungFashion",
"NgocDungFashion",
"NgocDungFashion",
"NgocDungFashion",
"NgocDungFashion",
"NgocDungFashion",
"NgocDungFashion",
"NgocDungFashion",
"NgocDungFashion",
"NgocDungFashion",
"NgocDungFashion",
"NgocDungFashion",
"NgocDungFashion",
"NgocDungFashion",
"Nhật Minh",
"Nike",
"Nike",
"Nike",
"Nike",
"None",
"None",
"None",
"None",
"None",
"None",
"None",
"None",
"None",
"None",
"None",
"None",
"None",
"None",
"None",
"Everest",
"Everest",
"Everest",
"Everest",
"Everest",
"Everest",
"Everest",
"Everest",
"Everest",
"Everest",
"Everest",
"Everest",
"Everest",
"Everest",
"Everest",
"Everest",
"None",
"Everest",
"Everest",
"Everest",
"Everest",
"Everest",
"Everest",
"Everest",
"Everest",
"Everest",
"Everest",
"Everest",
"Everest",
"None",
"None",
"None",
"None",
"None",
"None",
"None",
"None",
"None",
"None",
"None",
"None",
"None",
"None",
"None",
"None",
"None",
"None",
"None",
"None",
"None",
"None",
"None",
"None",
"None",
"None",
"None",
"None",
"None",
"None",
"None",
"None",
"None",
"None",
"None",
"None",
"None",
"None",
"None",
"None",
"Everest",
"Everest",
"Everest",
"Everest",
"Everest",
"Everest",
"Everest",
"Everest",
"Everest",
"Everest",
"Everest",
"Everest",
"Everest",
"Everest",
"Everest",
"Everest",
"Everest",
"Everest",
"None",
"None",
"None",
"None",
"None",
"None",
"None",
"Vua dép lốp",
"None",
"None",
"None",
"None",
"None",
"None",
"None",
"None",
"None",
"LUCKY Việt",
"LUCKY Việt",
"None",
"LUCKY Việt",
"LUCKY Việt",
"LUCKY Việt",
"LUCKY Việt",
"LUCKY Việt",
"None",
"None",
"None",
"None",
"None",
"None",
"None",
"None",
"None",
"None",
"None",
"None",
"None",
"None",
"None",
"None",
"None",
"None",
"None",
"None",
"None",
"None",
"None",
"None",
"None",
"None",
"None",
"None",
"None",
"None",
"None",
"None",
"None",
"None",
"None",
"None",
"None",
"None",
"None",
"None",
"None",
"None",
"None",
"None",
"None",
"None",
"None",
"None",
"None",
"None",
"None",
"None",
"None",
"None",
"None",
"None",
"None",
"None",
"None",
"None",
"None",
"None",
"None",
"None",
"None",
"None",
"None",
"None",
"None",
"None",
"None",
"None",
"None",
"None",
"None",
"None",
"None",
"None",
"None",
"None",
"None",
"None",
"None",
"None",
"None",
"None",
"None",
"None",
"None",
"None",
"None",
"None",
"None",
"None",
"None",
"None",
"None",
"None",
"None",
"None",
"None",
"None",
"None",
"None",
"None",
"None",
"None",
"None",
"None",
"None",
"None",
"None",
"None",
"None",
"None",
"None",
"None",
"None",
"None",
"None",
"None",
"None",
"None",
"None",
"None",
"None",
"None",
"None",
"None",
"None",
"None",
"None",
"None",
"None",
"None",
"None",
"None",
"None",
"None",
"None",
"None",
"None",
"None",
"None",
"None",
"None",
"None",
"None",
"None",
"None",
"None",
"None",
"None",
"None",
"None",
"None",
"None",
"None",
"None",
"None",
"None",
"None",
"None",
"None",
"None",
"None",
"None",
"None",
"None",
"None",
"None",
"None",
"None",
"None",
"None",
"None",
"None",
"None",
"None",
"None",
"None",
"None",
"None",
"None",
"None",
"None",
"None",
"None",
"None",
"None",
"None",
"None",
"None",
"None",
"None",
"None",
"None",
"None",
"None",
"None",
"None",
"None",
"None",
"None",
"None",
"None",
"None",
"None",
"None",
"None",
"None",
"None",
"None",
"None",
"None",
"None",
"None",
"None",
"None",
"None",
"None",
"None",
"None",
"None",
"None",
"None",
"None",
"None",
"None",
"None",
"None",
"None",
"None",
"None",
"None",
"None",
"None",
"None",
"None",
"None",
"None",
"None",
"None",
"None",
"None",
"None",
"None",
"None",
"None",
"None",
"None",
"None",
"None",
"None",
"None",
"None",
"None",
"None",
"None",
"None",
"None",
"None",
"None",
"None",
"None",
"None",
"None",
"None",
"None",
"None",
"None",
"None",
"Note",
"Azado",
"Note",
"Note",
"Note",
"Note",
"Note",
"Note",
"Note",
"Azado",
"Azado",
"Azado",
"Note",
"Note",
"Note",
"Note",
"Note",
"Note",
"Note",
"Note",
"Note",
"Note",
"Not Specified",
"Not Specified",
"Not Specified",
"Not Specified",
"Not Specified",
"Not Specified",
"Not Specified",
"Not Specified",
"Not Specified",
"Not Specified",
"Not Specified",
"Not Specified",
"Not Specified",
"Not Specified",
"Not Specified",
"Not Specified",
"Not Specified",
"Not Specified",
"Not Specified",
"Not Specified",
"Not Specified",
"Not Specified",
"Not Specified",
"Not Specified",
"Not Specified",
"Not Specified",
"Not Specified",
"Not Specified",
"Not Specified",
"Not Specified",
"Not Specified",
"Not Specified",
"Not Specified",
"Not Specified",
"Not Specified",
"Not Specified",
"Not Specified",
"Not Specified",
"Not Specified",
"Not Specified",
"Not Specified",
"Not Specified",
"Not Specified",
"Not Specified",
"Not Specified",
"Not Specified",
"Not Specified",
"Not Specified",
"Not Specified",
"Not Specified",
"Not Specified",
"Not Specified",
"Not Specified",
"Not Specified",
"Not Specified",
"Not Specified",
"Not Specified",
"Not Specified",
"Not Specified",
"Not Specified",
"Not Specified",
"Not Specified",
"Not Specified",
"Not Specified",
"Not Specified",
"Not Specified",
"Not Specified",
"Not Specified",
"Not Specified",
"Not Specified",
"No",
"No",
"No",
"Not Specified",
"Not Specified",
"Not Specified",
"Not Specified",
"Not Specified",
"Not Specified",
"Not Specified",
"Not Specified",
"Not Specified",
"Not Specified",
"Not Specified",
"Not Specified",
"Not Specified",
"Not Specified",
"Not Specified",
"Not Specified",
"Not Specified",
"Not Specified",
"Not Specified",
"Not Specified",
"Not Specified",
"Not Specified",
"Not Specified",
"Not Specified",
"Not Specified",
"Not Specified",
"Not Specified",
"Not Specified",
"Not Specified",
"Not Specified",
"Not Specified",
"Not Specified",
"Not Specified",
"Not Specified",
"Not Specified",
"Not Specified",
"Not Specified",
"Not Specified",
"Not Specified",
"Not Specified",
"Not Specified",
"Not Specified",
"Not Specified",
"Not Specified",
"Not Specified",
"Not Specified",
"Not Specified",
"Not Specified",
"Not Specified",
"Not Specified",
"Not Specified",
"Not Specified",
"Not Specified",
"Not Specified",
"Not Specified",
"Not Specified",
"Not Specified",
"OEM",
"OEM",
"OEM",
"OEM",
"OEM",
"OEM",
"OEM",
"OEM",
"OEM",
"OEM",
"OEM",
"OEM",
"OEM",
"OEM",
"OEM",
"OEM",
"OEM",
"OEM",
"OEM",
"OEM",
"OEM",
"OEM",
"OEM",
"OEM",
"OEM",
"OEM",
"OEM",
"OEM",
"OEM",
"OEM",
"OEM",
"OEM",
"OEM",
"OEM",
"OEM",
"OEM",
"OEM",
"OEM",
"OEM",
"OEM",
"OEM",
"OEM",
"OEM",
"OEM",
"OEM",
"OEM",
"OEM",
"OEM",
"OEM",
"OEM",
"OEM",
"OEM",
"OEM",
"OEM",
"OEM",
"OEM",
"OEM",
"OEM",
"OEM",
"OEM",
"OEM",
"OEM",
"OEM",
"OEM",
"OEM",
"OEM",
"OEM",
"OEM",
"OEM",
"OEM",
"OEM",
"OEM",
"OEM",
"OEM",
"OEM",
"OEM",
"OEM",
"OEM",
"OEM",
"OEM",
"OEM",
"OEM",
"OEM",
"None",
"OEM",
"OEM",
"OEM",
"OEM",
"OEM",
"OEM",
"OEM",
"OEM",
"OEM",
"OEM",
"OEM",
"OEM",
"OEM",
"OEM",
"OEM",
"OEM",
"OEM",
"OEM",
"OEM",
"OEM",
"OEM",
"OEM",
"OEM",
"OEM",
"OEM",
"OEM",
"OEM",
"OEM",
"OEM",
"OEM",
"OEM",
"OEM",
"OEM",
"OEM",
"OEM",
"OEM",
"OEM",
"OEM",
"OEM",
"OEM",
"OEM",
"OEM",
"OEM",
"OEM",
"OEM",
"OEM",
"OEM",
"OEM",
"OEM",
"OEM",
"OEM",
"OEM",
"OEM",
"OEM",
"OEM",
"OEM",
"OEM",
"OEM",
"OEM",
"OEM",
"OEM",
"OEM",
"OEM",
"OEM",
"OEM",
"OEM",
"OEM",
"OEM",
"OEM",
"OEM",
"OEM",
"OEM",
"OEM",
"OEM",
"OEM",
"OEM",
"OEM",
"OEM",
"OEM",
"OEM",
"OEM",
"OEM",
"OEM",
"OEM",
"OEM",
"OEM",
"OEM",
"OEM",
"OEM",
"OEM",
"OEM",
"OEM",
"OEM",
"OEM",
"OEM",
"OEM",
"OEM",
"OEM",
"OEM",
"OEM",
"OEM",
"OEM",
"OEM",
"OEM",
"OEM",
"OEM",
"OEM",
"OEM",
"OEM",
"OEM",
"OEM",
"OEM",
"OEM",
"OEM",
"OEM",
"OEM",
"OEM",
"OEM",
"OEM",
"OEM",
"OEM",
"OEM",
"OEM",
"OEM",
"OEM",
"OEM",
"OEM",
"OEM",
"OEM",
"OEM",
"OEM",
"OEM",
"OEM",
"OEM",
"OEM",
"OEM",
"OEM",
"OEM",
"OEM",
"OEM",
"OEM",
"OEM",
"OEM",
"OEM",
"OEM",
"OEM",
"OEM",
"OEM",
"OEM",
"OEM",
"OEM",
"OEM",
"OEM",
"OEM",
"OEM",
"OEM",
"OEM",
"OEM",
"OEM",
"OEM",
"OEM",
"OEM",
"OEM",
"OEM",
"OEM",
"OEM",
"OEM",
"OEM",
"OEM",
"OEM",
"OEM",
"OEM",
"OEM",
"OEM",
"OEM",
"OEM",
"OEM",
"OEM",
"OEM",
"OEM",
"OEM",
"OEM",
"OEM",
"OEM",
"OEM",
"OEM",
"OEM",
"OEM",
"OEM",
"OEM",
"OEM",
"OEM",
"OEM",
"OEM",
"OEM",
"OEM",
"OEM",
"OEM",
"OEM",
"OEM",
"OEM",
"OEM",
"OEM",
"OEM",
"OEM",
"OEM",
"OEM",
"OEM",
"OEM",
"OEM",
"OEM",
"OEM",
"OEM",
"OEM",
"OEM",
"OEM",
"OEM",
"OEM",
"OEM",
"OEM",
"OEM",
"OEM",
"OEM",
"OEM",
"OEM",
"OEM",
"OEM",
"OEM",
"OEM",
"OEM",
"OEM",
"OEM",
"OEM",
"OEM",
"OEM",
"OEM",
"OEM",
"OEM",
"OEM",
"OEM",
"OEM",
"OEM",
"OEM",
"OEM",
"OEM",
"OEM",
"OEM",
"OEM",
"OEM",
"OEM",
"OEM",
"OEM",
"OEM",
"OEM",
"OEM",
"OEM",
"OEM",
"OEM",
"OEM",
"OEM",
"OEM",
"OEM",
"OEM",
"OEM",
"OEM",
"OEM",
"OEM",
"OEM",
"OEM",
"OEM",
"OEM",
"OEM",
"OEM",
"OEM",
"OEM",
"OEM",
"OEM",
"OEM",
"OEM",
"OEM",
"OEM",
"OEM",
"OEM",
"OEM",
"OEM",
"OEM",
"OEM",
"OEM",
"OEM",
"OEM",
"OEM",
"OEM",
"OEM",
"OEM",
"OEM",
"OEM",
"OEM",
"OEM",
"OEM",
"OEM",
"OEM",
"OEM",
"OEM",
"OEM",
"OEM",
"OEM",
"OEM",
"OEM",
"OEM",
"OEM",
"OEM",
"OEM",
"OEM",
"OEM",
"OEM",
"OEM",
"OEM",
"OEM",
"OEM",
"OEM",
"OEM",
"OEM",
"OEM",
"OEM",
"OEM",
"OEM",
"OEM",
"OEM",
"OEM",
"OEM",
"OEM",
"OEM",
"OEM",
"OEM",
"OEM",
"OEM",
"OEM",
"OEM",
"OEM",
"OEM",
"OEM",
"OEM",
"OEM",
"OEM",
"OEM",
"OEM",
"OEM",
"OEM",
"OEM",
"OEM",
"OEM",
"OEM",
"OEM",
"OEM",
"OEM",
"OEM",
"OEM",
"OEM",
"OEM",
"OEM",
"OEM",
"OEM",
"OEM",
"OEM",
"OEM",
"OEM",
"OEM",
"OEM",
"Manticano",
"OEM",
"OEM",
"OEM",
"OEM",
"OEM",
"OEM",
"OEM",
"OEM",
"OEM",
"OEM",
"OEM",
"OEM",
"OEM",
"OEM",
"OEM",
"OEM",
"OEM",
"OEM",
"OEM",
"OEM",
"OEM",
"OEM",
"OEM",
"OME",
"OTHER",
"OTHER",
"Palladium",
"Palladium",
"Palladium",
"Palladium",
"People",
"People",
"People",
"People",
"People",
"People",
"People",
"People",
"People",
"People",
"Police",
"Police",
"Police",
"Posashop",
"Posashop",
"Posashop",
"Posashop",
"Posashop",
"Posashop",
"Posashop",
"Posashop",
"Posashop",
"Posashop",
"Posashop",
"Posashop",
"Posashop",
"Posashop",
"Posashop",
"Posashop",
"Posashop",
"Posashop",
"Posashop",
"Posashop",
"Posashop",
"Posashop",
"Posashop",
"Posashop",
"Posashop",
"Posashop",
"Posashop",
"Posashop",
"Posashop",
"Posashop",
"Posashop",
"Posashop",
"Posashop",
"Posashop",
"Posashop",
"Posashop",
"Posashop",
"Posashop",
"Posashop",
"Posashop",
"Posashop",
"Posashop",
"Posashop",
"Posashop",
"Posashop",
"Posashop",
"Posashop",
"Posashop",
"Posashop",
"Posashop",
"Posashop",
"Posashop",
"Posashop",
"Posashop",
"Posashop",
"Posashop",
"Posashop",
"Posashop",
"Posashop",
"Posashop",
"Posashop",
"Posashop",
"Posashop",
"Posashop",
"Posashop",
"Posashop",
"Posashop",
"Posashop",
"Posashop",
"Posashop",
"Posashop",
"Posashop",
"Posashop",
"Posashop",
"Posashop",
"Posashop",
"Posashop",
"Posashop",
"Posashop",
"Posashop",
"Posashop",
"Posashop",
"Posashop",
"Posashop",
"Posashop",
"Posashop",
"Posashop",
"Posashop",
"Posashop",
"Posashop",
"Posashop",
"Posashop",
"Posashop",
"Posashop",
"Posashop",
"Posashop",
"Posashop",
"Posashop",
"Posashop",
"Posashop",
"Posashop",
"Posashop",
"Posashop",
"Posashop",
"Posashop",
"Posashop",
"Posashop",
"Posashop",
"Posashop",
"Posashop",
"Posashop",
"Posashop",
"Posashop",
"Posashop",
"Posashop",
"Posashop",
"Posashop",
"Posashop",
"Posashop",
"Prazenta",
"Prazenta",
"Prazenta",
"Prazenta",
"Prazenta",
"Prazenta",
"Prazenta",
"Prazenta",
"Prazenta",
"Prazenta",
"Prazenta",
"Prazenta",
"Prazenta",
"Prazenta",
"Prazenta",
"Prazenta",
"Prazenta",
"Prazenta",
"Prazenta",
"Prazenta",
"Prazenta",
"Prazenta",
"Prazenta",
"Prazenta",
"Prazenta",
"Prazenta",
"Prazenta",
"Prazenta",
"Prazenta",
"Prazenta",
"Prazenta",
"Prazenta",
"Prazenta",
"Prazenta",
"Prazenta",
"Prazenta",
"Prazenta",
"Prazenta",
"Prazenta",
"Prazenta",
"Prazenta",
"Prazenta",
"Prazenta",
"Prazenta",
"Prazenta",
"Prazenta",
"Prazenta",
"Prazenta",
"Prazenta",
"Prazenta",
"Prazenta",
"Prazenta",
"Prazenta",
"Prazenta",
"Prazenta",
"Prazenta",
"Prazenta",
"Prazenta",
"Prazenta",
"Prazenta",
"Prazenta",
"Prazenta",
"Prazenta",
"Prazenta",
"Prazenta",
"Prazenta",
"Prazenta",
"Prazenta",
"Prazenta",
"Prazenta",
"Prazenta",
"Prazenta",
"Prazenta",
"Prazenta",
"Prazenta",
"Prazenta",
"Prazenta",
"Prazenta",
"Prazenta",
"Prazenta",
"Prazenta",
"Prazenta",
"Prazenta",
"Prazenta",
"Prazenta",
"Prazenta",
"Prazenta",
"Prazenta",
"Prazenta",
"Prazenta",
"Prazenta",
"Prazenta",
"Prazenta",
"Prazenta",
"Prazenta",
"Prazenta",
"Prazenta",
"Prazenta",
"Prazenta",
"Prazenta",
"Prazenta",
"PUMA",
"PUMA",
"PUMA",
"PUMA",
"PUMA",
"PUMA",
"PUMA",
"PUMA",
"PUMA",
"PUMA",
"PUMA",
"PUMA",
"PUMA",
"PUMA",
"PUMA",
"PUMA",
"PUMA",
"PUMA",
"PUMA",
"PUMA",
"PUMA",
"PUMA",
"PUMA",
"PUMA",
"PUMA",
"PUMA",
"PUMA",
"PUMA",
"PUMA",
"PUMA",
"Qifull",
"Qifull",
"Qifull",
"Qifull",
"Qifull",
"Qifull",
"QuickFree",
"QuickFree",
"QuickFree",
"QuickFree",
"QuickFree",
"QuickFree",
"QuickFree",
"QuickFree",
"QuickFree",
"QuickFree",
"QuickFree",
"QuickFree",
"QuickFree",
"QuickFree",
"QuickFree",
"QuickFree",
"QuickFree",
"QuickFree",
"QuickFree",
"QuickFree",
"QuickFree",
"QuickFree",
"Rafters",
"RINOS",
"RINOS",
"RINOS",
"RINOS",
"ROZALO",
"ROZALO",
"Royal Shoes",
"Royal Shoes",
"Royal Shoes",
"Royal Shoes",
"Royal Shoes",
"Royal Shoes",
"Royal Shoes",
"Sanuk",
"Sanuk",
"Sanuk",
"Sanuk",
"Sanuk",
"Sanuk",
"Sanuk",
"Sandokkeabi",
"Senviet",
"Senviet",
"ROZALO",
"ROZALO",
"Shucare",
"Shucare",
"Shucare",
"Shucare",
"Shucare",
"Shucare",
"Shucare",
"Shucare",
"Shucare",
"Shucare",
"Shucare",
"Shucare",
"Shucare",
"Shucare",
"Shucare",
"Shucare",
"Shucare",
"Shucare",
"Shucare",
"Shucare",
"Shucare",
"Shucare",
"Shucare",
"Shucare",
"Shucare",
"Shucare",
"Shucare",
"Shucare",
"Shucare",
"Shucare",
"Shucare",
"Shucare",
"Shucare",
"Shucare",
"Shucare",
"Shucare",
"Shucare",
"Shucare",
"Shucare",
"Shucare",
"Shucare",
"Shucare",
"Shucare",
"Shucare",
"Shucare",
"Shucare",
"Shucare",
"Shucare",
"Shucare",
"Shucare",
"Shucare",
"Shucare",
"Shucare",
"Shucare",
"Shucare",
"Shucare",
"Shucare",
"Shoe",
"Shoe",
"Shoe",
"Sitil",
"Sitil",
"Sitil",
"Sitil",
"Sitil",
"Sitil",
"Sitil",
"Sitil",
"Sitil",
"Sitil",
"Sitil",
"Sitil",
"Sitil",
"Sitil",
"Sitil",
"Sitil",
"Sitil",
"Sitil",
"Sitil",
"Sitil",
"Sitil",
"Sitil",
"Sitil",
"Sitil",
"Sitil",
"Sledgers",
"Sledgers",
"Sledgers",
"Sledgers",
"Sledgers",
"Sledgers",
"Sledgers",
"Sledgers",
"Sledgers",
"Sledgers",
"Sledgers",
"Sledgers",
"Sledgers",
"Sledgers",
"Sledgers",
"Sledgers",
"Sledgers",
"Sledgers",
"Sledgers",
"Sledgers",
"Sledgers",
"Sledgers",
"Sledgers",
"Sledgers",
"Sledgers",
"Sledgers",
"Sledgers",
"Sledgers",
"Sledgers",
"Sledgers",
"Sledgers",
"Sledgers",
"Sledgers",
"Sledgers",
"Sledgers",
"Sledgers",
"Sledgers",
"Sledgers",
"Sledgers",
"Sledgers",
"Sledgers",
"Sledgers",
"Sledgers",
"Sledgers",
"Sledgers",
"Sledgers",
"Sledgers",
"Sledgers",
"Sledgers",
"Sledgers",
"Sledgers",
"Sledgers",
"Sledgers",
"Sledgers",
"Sledgers",
"Sledgers",
"Sledgers",
"Sledgers",
"Sledgers",
"SODOHA",
"SODOHA",
"SODOHA",
"SODOHA",
"SODOHA",
"SODOHA",
"SODOHA",
"SODOHA",
"SODOHA",
"SoYoung",
"SoYoung",
"SoYoung",
"SoYoung",
"SoYoung",
"SoYoung",
"SoYoung",
"SoYoung",
"SoYoung",
"SoYoung",
"SoYoung",
"SoYoung",
"SoYoung",
"SoYoung",
"SoYoung",
"SoYoung",
"SoYoung",
"SoYoung",
"SoYoung",
"SoYoung",
"SoYoung",
"Spazazz",
"Spazazz",
"Spazazz",
"Spazazz",
"Spazazz",
"Spazazz",
"Zani",
"ST247vn",
"Steve Madden",
"SUNPOLO",
"SUNPOLO",
"SUNPOLO",
"SUNPOLO",
"SUNPOLO",
"SUNPOLO",
"SUNPOLO",
"SUNPOLO",
"SUNPOLO",
"SUNPOLO",
"SUNPOLO",
"SUNPOLO",
"SUNPOLO",
"SUNPOLO",
"SUNPOLO",
"SUNPOLO",
"SUNPOLO",
"SUNPOLO",
"SUNPOLO",
"SUNPOLO",
"SUNPOLO",
"SUNPOLO",
"SUNPOLO",
"SUNPOLO",
"SUNPOLO",
"SUNPOLO",
"SUNPOLO",
"SUNPOLO",
"SUNPOLO",
"SUNPOLO",
"SUNPOLO",
"SUNPOLO",
"SUNPOLO",
"SUNPOLO",
"SUNPOLO",
"SUNPOLO",
"SUNPOLO",
"SUNPOLO",
"SUNPOLO",
"SUNPOLO",
"SUNPOLO",
"SUNPOLO",
"SUNPOLO",
"SUNPOLO",
"SUNPOLO",
"SUNPOLO",
"SUNPOLO",
"SUNPOLO",
"SUNPOLO",
"SUNPOLO",
"SUNPOLO",
"SUNPOLO",
"SUNPOLO",
"SUNPOLO",
"SUNPOLO",
"SUNPOLO",
"SUNPOLO",
"SUNPOLO",
"SUNPOLO",
"SUNPOLO",
"SUNPOLO",
"SUNPOLO",
"SUNPOLO",
"SUNPOLO",
"SUNPOLO",
"SUNPOLO",
"SUNPOLO",
"SUNPOLO",
"SUNPOLO",
"SUNPOLO",
"SUNPOLO",
"SUNPOLO",
"SUNPOLO",
"SUNPOLO",
"SUNPOLO",
"Taurus",
"Tâm House",
"Tâm House",
"Tâm House",
"Tâm House",
"Tâm House",
"Tâm House",
"Tâm House",
"Tâm House",
"Tâm House",
"Tâm House",
"Tâm House",
"Tâm House",
"Tâm House",
"Tâm House",
"Tâm House",
"Tâm House",
"Tâm House",
"Tâm House",
"Tâm House",
"Tâm House",
"Tâm House",
"Tâm House",
"Tâm House",
"Tâm House",
"Tâm House",
"Tâm House",
"Tâm House",
"Tâm House",
"Tâm House",
"Tâm House",
"Tâm House",
"Tâm House",
"Tâm House",
"Tai Loi",
"Tai Loi",
"Tai Loi",
"Tai Loi",
"Tai Loi",
"Tai Loi",
"Tai Loi",
"Tai Loi",
"Tai Loi",
"Tai Loi",
"Tai Loi",
"Tai Loi",
"Tai Loi",
"Tai Loi",
"Tai Loi",
"Tai Loi",
"Tai Loi",
"Tai Loi",
"Tai Loi",
"Tai Loi",
"Tai Loi",
"Tai Loi",
"Tai Loi",
"Tai Loi",
"Tai Loi",
"Tai Loi",
"Tai Loi",
"Tai Loi",
"Tai Loi",
"Tai Loi",
"Tai Loi",
"Tai Loi",
"Tai Loi",
"Tai Loi",
"Tai Loi",
"Tai Loi",
"Tai Loi",
"Tai Loi",
"Tai Loi",
"Tai Loi",
"Tashuan",
"Tathanium Footwear",
"Tathanium Footwear",
"Tathanium Footwear",
"Tathanium Footwear",
"Tathanium Footwear",
"Tathanium Footwear",
"Tathanium Footwear",
"Tathanium Footwear",
"Tathanium Footwear",
"Tathanium Footwear",
"Tathanium Footwear",
"Tathanium Footwear",
"Tathanium Footwear",
"Tathanium Footwear",
"Tathanium Footwear",
"Tathanium Footwear",
"Tathanium Footwear",
"Tathanium Footwear",
"Tathanium Footwear",
"Tathanium Footwear",
"Tathanium Footwear",
"Tathanium Footwear",
"Tathanium Footwear",
"Tathanium Footwear",
"Tathanium Footwear",
"Tathanium Footwear",
"Tathanium Footwear",
"Tathanium Footwear",
"Tathanium Footwear",
"Tathanium Footwear",
"Tathanium Footwear",
"Tathanium Footwear",
"Tathanium Footwear",
"Tathanium Footwear",
"Tathanium Footwear",
"Tathanium Footwear",
"Tathanium Footwear",
"Tathanium Footwear",
"Tathanium Footwear",
"Tathanium Footwear",
"Tathanium Footwear",
"Tathanium Footwear",
"Tathanium Footwear",
"Tathanium Footwear",
"Tathanium Footwear",
"Tathanium Footwear",
"Tathanium Footwear",
"Tathanium Footwear",
"Tathanium Footwear",
"Tathanium Footwear",
"Tathanium Footwear",
"Tathanium Footwear",
"Tathanium Footwear",
"Tathanium Footwear",
"Tathanium Footwear",
"Tathanium Footwear",
"Tathanium Footwear",
"Tathanium Footwear",
"Tathanium Footwear",
"Tathanium Footwear",
"Tathanium Footwear",
"Tathanium Footwear",
"Tathanium Footwear",
"Tathanium Footwear",
"Tathanium Footwear",
"Tathanium Footwear",
"Tathanium Footwear",
"Tathanium Footwear",
"Tathanium Footwear",
"Tathanium Footwear",
"Tathanium Footwear",
"Tathanium Footwear",
"Tathanium Footwear",
"Tathanium Footwear",
"Tathanium Footwear",
"Tathanium Footwear",
"Tathanium Footwear",
"Tathanium Footwear",
"Tathanium Footwear",
"Tathanium Footwear",
"Tathanium Footwear",
"Tathanium Footwear",
"Tathanium Footwear",
"Tathanium Footwear",
"Tathanium Footwear",
"Tathanium Footwear",
"Tathanium Footwear",
"Tathanium Footwear",
"Tathanium Footwear",
"Tathanium Footwear",
"Tathanium Footwear",
"Tathanium Footwear",
"Tathanium Footwear",
"Tathanium Footwear",
"Tathanium Footwear",
"Tathanium Footwear",
"Tathanium Footwear",
"Tathanium Footwear",
"Tathanium Footwear",
"Tathanium Footwear",
"Tathanium Footwear",
"Tathanium Footwear",
"Tathanium Footwear",
"Tathanium Footwear",
"Tathanium Footwear",
"Tathanium Footwear",
"Tathanium Footwear",
"Tathanium Footwear",
"Tathanium Footwear",
"Tathanium Footwear",
"Tathanium Footwear",
"Tathanium Footwear",
"Tathanium Footwear",
"Tathanium Footwear",
"Tathanium Footwear",
"Tathanium Footwear",
"Tathanium Footwear",
"Tathanium Footwear",
"Tathanium Footwear",
"Tathanium Footwear",
"Tathanium Footwear",
"Tathanium Footwear",
"Tathanium Footwear",
"Tathanium Footwear",
"Tathanium Footwear",
"Tathanium Footwear",
"Tathanium Footwear",
"Tathanium Footwear",
"The New Fashion",
"Thời trang DA",
"Thời trang DA",
"Thời Trang Giá Gốc",
"Thời Trang Giá Gốc",
"Thời Trang Giá Gốc",
"Thời Trang Giá Gốc",
"Thời Trang Giá Gốc",
"Thời Trang Giá Gốc",
"Thời Trang Giá Gốc",
"Thời Trang Giá Gốc",
"Thời Trang Giá Gốc",
"Thời Trang Giá Gốc",
"Thời Trang Giá Gốc",
"Thời Trang Giá Gốc",
"Thời Trang Giá Gốc",
"Thực Dưỡng Minh Nguyện",
"Thực Dưỡng Minh Nguyện",
"Thực Dưỡng Minh Nguyện",
"Thailand",
"Thailand",
"Thailand",
"Thailand",
"Thailand",
"Thailand",
"Thời trang DA",
"Thời trang DA",
"Thời trang DA",
"Thời trang DA",
"Thời trang DA",
"Thời trang DA",
"Thời trang DA",
"Thời trang DA",
"Thời trang DA",
"Thời trang DA",
"Thời trang DA",
"Thời trang DA",
"Thời trang DA",
"Thời trang DA",
"Thời trang DA",
"Thời trang DA",
"Thời trang DA",
"Thời trang DA",
"Thời trang DA",
"Thời trang DA",
"Thời trang DA",
"Thời trang DA",
"Thời trang DA",
"Thời trang DA",
"Thời trang DA",
"Thời trang DA",
"Thời trang DA",
"Thời trang DA",
"Thời trang DA",
"Thời trang DA",
"Thời trang DA",
"Thời trang DA",
"Thời trang DA",
"Thời trang DA",
"Thời trang DA",
"Thời trang DA",
"Thời trang DA",
"Thời trang DA",
"Thời trang DA",
"Thời trang DA",
"Thời trang DA",
"Thời trang DA",
"Thời trang DA",
"Thời trang DA",
"Thời trang DA",
"Thời trang DA",
"Thời trang DA",
"Thời trang DA",
"Thời trang DA",
"Thunder",
"Thailung",
"Timberland",
"Tinksky",
"Tinksky",
"Tinksky",
"Tinto",
"Tinto",
"Tinto",
"Tinto",
"Tinto",
"Tinto",
"Tinto",
"Tinto",
"Tinto",
"Tinto",
"Tinto",
"Tinto",
"Tinto",
"Tinto",
"Tinto",
"Tinto",
"Tinto",
"Tinto",
"Tinto",
"Tinto",
"Tinto",
"Tinto",
"Tinto",
"Tinto",
"Tinto",
"Tinto",
"Tinto",
"Tinto",
"Tinto",
"Tinto",
"Tinto",
"Tinto",
"Tinto",
"Tinto",
"Tinto",
"Tinto",
"Tinto",
"Tinto",
"Tinto",
"Tinto",
"Tinto",
"Tinto",
"Tinto",
"Tinto",
"Tinto",
"Tinto",
"Tinto",
"Tinto",
"Tinto",
"Tinto",
"Tinto",
"Tinto",
"Tinto",
"Tinto",
"Tinto",
"Tinto",
"Tinto",
"Tinto",
"Tinto",
"Tinto",
"Tinto",
"Tinto",
"Tinto",
"Tinto",
"Tinto",
"Tinto",
"Tinto",
"Tinto",
"Tinto",
"Tinto",
"Tinto",
"Tinto",
"Tinto",
"Tinto",
"Tinto",
"Tinto",
"Tinto",
"Tinto",
"Tinto",
"Tinto",
"Tinto",
"Tinto",
"Tinto",
"Tinto",
"Tinto",
"Tinto",
"Tinto",
"Tinto",
"Tinto",
"Tinto",
"Tinto",
"Tinto",
"Tinto",
"Tinto",
"Tinto",
"Tinto",
"Tinto",
"Tinto",
"Tinto",
"Tinto",
"Tinto",
"Tinto",
"Tinto",
"Tinto",
"Tinto",
"Tinto",
"Tinto",
"Tinto",
"Tinto",
"Tinto",
"Tinto",
"Tinto",
"Tinto",
"Tinto",
"Tinto",
"Tinto",
"Tinto",
"Tinto",
"Tinto",
"Tinto",
"Tinto",
"Tinto",
"Tinto",
"Tinto",
"Tinto",
"Tinto",
"Tinto",
"Tinto",
"Tinto",
"Tinto",
"Tinto",
"Tinto",
"Tinto",
"Tinto",
"Tinto",
"Tinto",
"Tinto",
"Tinto",
"Tinto",
"Tinto",
"Tinto",
"Tinto",
"Tinto",
"Tinto",
"Tinto",
"Tinto",
"Tinto",
"Tinto",
"Tinto",
"Tinto",
"Tinto",
"Tinto",
"Tinto",
"Tinto",
"Tinto",
"Tinto",
"Tinto",
"Tinto",
"Tinto",
"Tinto",
"Tinto",
"Tinto",
"Tinto",
"Tinto",
"Tinto",
"Tinto",
"Tinto",
"Tinto",
"Tinto",
"Tinto",
"Tinto",
"Tinto",
"Tinto",
"Tinto",
"Tinto",
"Tinto",
"Tinto",
"Tinto",
"Tinto",
"Tinto",
"Tinto",
"Tinto",
"Tinto",
"Tinto",
"Tinto",
"Tinto",
"Tinto",
"Tinto",
"Tinto",
"Tinto",
"Tinto",
"Tinto",
"Tinto",
"Tinto",
"Tinto",
"Tinto",
"Tinto",
"Tinto",
"Tinto",
"Tinto",
"tienich247",
"TNT",
"TNT",
"TNT",
"TNT",
"TNT",
"TNT",
"Tommy",
"Toma",
"Tommy Hilfiger",
"T-Tra",
"T-Tra",
"Toldo",
"T-Tra",
"T-Tra",
"T-Tra",
"T-Tra",
"T-Tra",
"T-Tra",
"T-Tra",
"T-Tra",
"T-Tra",
"T-Tra",
"T-Tra",
"T-Tra",
"T-Tra",
"T-Tra",
"T-Tra",
"Toldo",
"T-Tra",
"T-Tra",
"T-Tra",
"T-Tra",
"Toldo",
"T-Tra",
"T-Tra",
"T-Tra",
"T-Tra",
"T-Tra",
"T-Tra",
"T-Tra",
"T-Tra",
"T-Tra",
"T-Tra",
"T-Tra",
"T-Tra",
"T-Tra",
"Toldo",
"T-Tra",
"T-Tra",
"T-Tra",
"T-Tra",
"T-Tra",
"T-Tra",
"T-Tra",
"T-Tra",
"T-Tra",
"T-Tra",
"T-Tra",
"T-Tra",
"T-Tra",
"T-Tra",
"T-Tra",
"T-Tra",
"T-Tra",
"T-Tra",
"T-Tra",
"T-Tra",
"T-Tra",
"Tomido",
"None",
"T-Tra",
"T-Tra",
"T-Tra",
"T-Tra",
"T-Tra",
"T-Tra",
"T-Tra",
"T-Tra",
"T-Tra",
"T-Tra",
"T-Tra",
"T-Tra",
"T-Tra",
"T-Tra",
"T-Tra",
"T-Tra",
"T-Tra",
"T-Tra",
"T-Tra",
"T-Tra",
"T-Tra",
"T-Tra",
"T-Tra",
"T-Tra",
"T-Tra",
"T-Tra",
"T-Tra",
"T-Tra",
"T-Tra",
"T-Tra",
"T-Tra",
"T-Tra",
"T-Tra",
"T-Tra",
"T-Tra",
"T-Tra",
"T-Tra",
"T-Tra",
"T-Tra",
"T-Tra",
"T-Tra",
"T-Tra",
"T-Tra",
"T-Tra",
"T-Tra",
"T-Tra",
"T-Tra",
"T-Tra",
"T-Tra",
"T-Tra",
"T-Tra",
"T-Tra",
"T-Tra",
"T-Tra",
"T-Tra",
"T-Tra",
"T-Tra",
"T-Tra",
"T&T",
"T&T",
"T&T",
"T&T",
"Tuvi's",
"Tuvi's",
"Tuvi's",
"Tuvi's",
"Tuvi's",
"Tuvi's",
"Tuvi's",
"Tuvi's",
"Tuvi's",
"Tuvi's",
"Tuvi's",
"Tuvi's",
"Tuvi's",
"Tuvi's",
"Tuvi's",
"Tuvi's",
"Tuvi's",
"Tuvi's",
"Tuvi's",
"Tuvi's",
"Tuvi's",
"Tuvi's",
"Tuvi's",
"Tuvi's",
"Tuvi's",
"Tuvi's",
"UBL",
"UBL",
"UBL",
"UIN",
"UIN",
"UIN",
"UIN",
"UIN",
"UIN",
"UIN",
"UIN",
"UIN",
"UIN",
"UIN",
"UIN",
"UIN",
"UIN",
"UIN",
"UIN",
"UIN",
"UIN",
"UIN",
"UIN",
"UIN",
"UIN",
"UIN",
"UIN",
"UIN",
"Uncle Bills",
"Uncle Bills",
"Uncle Bills",
"UBL",
"OEM",
"OEM",
"OEM",
"Unbranded",
"Unbranded",
"Unbranded",
"Unbranded",
"Unbranded",
"Unbranded",
"Unbranded",
"Unbranded",
"Unbranded",
"Unbranded",
"USA Store",
"USA Store",
"USA Store",
"USA Store",
"USA Store",
"USA Store",
"USA Store",
"USA Store",
"USA Store",
"USA Store",
"USA Store",
"Vans",
"Vans",
"Vans",
"Vans",
"Vans",
"Vans",
"Vans",
"Vans",
"Vans",
"Vans",
"Vans",
"Vans",
"VAKIND",
"VAKIND",
"VAKIND",
"VAKIND",
"VAKIND",
"VAKIND",
"VAKIND",
"VAKIND",
"VAKIND",
"VAKIND",
"VAKIND",
"VAKIND",
"VAKIND",
"VAKIND",
"VAKIND",
"VAKIND",
"VAKIND",
"VAKIND",
"VAKIND",
"VAKIND",
"VAKIND",
"VAKIND",
"Vento",
"Vento",
"Vento",
"Vento",
"Vento",
"Vento",
"Vento",
"Vento",
"Vento",
"Vento",
"Vento",
"Vento",
"Vento",
"Vento",
"Vento",
"Vento",
"Vento",
"Vento",
"Vento",
"Vento",
"Vento",
"Vento",
"Vento",
"Vento",
"Vento",
"Vento",
"Vento",
"Vento",
"Vento",
"Vento",
"Vento",
"Vento",
"Vento",
"Vento",
"Vento",
"Vento",
"Vento",
"Vento",
"Vento",
"Vento",
"Vento",
"Vento",
"Vento",
"Vento",
"Vento",
"Vento",
"Vento",
"Vento",
"Vento",
"Vento",
"Vento",
"Vento",
"Vento",
"Vento",
"Vento",
"Vento",
"Vento",
"Vento",
"Vento",
"Vento",
"Vento",
"Vento",
"Vento",
"Vento",
"Vento",
"Vento",
"Vento",
"Vento",
"Vento",
"Vento",
"Vento",
"Vento",
"Vento",
"Vento",
"Vento",
"Vento",
"Vento",
"Vento",
"Vento",
"Vento",
"Vento",
"Vento",
"Vento",
"Vento",
"Vento",
"Vento",
"Vento",
"Vento",
"Vento",
"Vento",
"Vento",
"Vento",
"Vento",
"Vento",
"Vento",
"Vento",
"Vento",
"Vento",
"Vento",
"Vento",
"Vento",
"Vento",
"Vento",
"Vento",
"Vento",
"Vento",
"Vento",
"Vento",
"Vincento",
"Vincento",
"Vincento",
"Vincento",
"Vincento",
"Vincento",
"Vincento",
"Vincento",
"Vincento",
"Vincento",
"Vincento",
"Vincento",
"Vincento",
"Vincento",
"Vincento",
"Vincento",
"Vincento",
"Vincento",
"Vincento",
"Vincento",
"Vincento",
"Vincento",
"Vincento",
"Vincento",
"Vincento",
"Vincento",
"Vincento",
"Vincento",
"Vincento",
"Vincento",
"Vincento",
"Vincento",
"Vincento",
"Vincento",
"Vincento",
"Vincento",
"Vincento",
"Vincento",
"Vincento",
"Vincento",
"Vincento",
"Vincento",
"Vincento",
"Vincento",
"Vincento",
"Vincento",
"Vincento",
"Vincento",
"Vincento",
"Vincento",
"Vincento",
"Vincento",
"Vincento",
"Vincento",
"Vincento",
"Vincento",
"Vincento",
"Vincento",
"Vincento",
"Vincento",
"Vincento",
"Vincento",
"Vincento",
"Vincento",
"Vincento",
"Vincento",
"Vincento",
"Vincento",
"Vincento",
"Vincento",
"Vincento",
"Vincento",
"Vincento",
"Vincento",
"Vincento",
"Vincento",
"Vincento",
"Vincento",
"Vincento",
"Vincento",
"Vincento",
"Vincento",
"Vincento",
"Vincento",
"Vincento",
"Vincento",
"Vincento",
"Vincento",
"Vincento",
"Vincento",
"Vincento",
"Vincento",
"Vincento",
"Vincento",
"Vincento",
"Vincento",
"Vincento",
"Vincento",
"Vincento",
"Vincento",
"Vincento",
"Vincento",
"Vincento",
"Vincento",
"Vincento",
"Vincento",
"Vincento",
"Vincento",
"Vincento",
"Vincento",
"Vincento",
"Vincento",
"Vincento",
"Vincento",
"Vincento",
"Vincento",
"Vincento",
"Vincento",
"Vincento",
"Vincento",
"Vincento",
"Vincento",
"Vincento",
"Vincento",
"Vincento",
"Vincento",
"Vincento",
"Vincento",
"Vincento",
"Vincento",
"Vincento",
"Vincento",
"Vincento",
"Vincento",
"Vincento",
"Vincento",
"Vincento",
"Vincento",
"Vincento",
"Vincento",
"Vincento",
"Vincento",
"Vincento",
"Vincento",
"Vincento",
"Vincento",
"Vincento",
"Vincento",
"Vincento",
"Vincento",
"VNL",
"VNL",
"VNL",
"VNL",
"VNL",
"VNL",
"VNL",
"VNL",
"VNL",
"VNL",
"VNL",
"VNL",
"VNL",
"VNL",
"VNL",
"VNL",
"VNL",
"VNL",
"VNL",
"VNL",
"VNL",
"VNL",
"VNL",
"VNL",
"VNL",
"VNL",
"VNL",
"VNL",
"VNL",
"VNL",
"VNL",
"VNL",
"VNL",
"VNL",
"VNL",
"VNL",
"VNL",
"VNL",
"VNL",
"VNL",
"VNL",
"VNL",
"VNL",
"VNL",
"VNL",
"VNL",
"VNL",
"VNL",
"VNL",
"VNL",
"VNL",
"VNL",
"VNL",
"VNL",
"VNL",
"VNL",
"VNL",
"VNL",
"VNL",
"VNL",
"VNL",
"VNL",
"VNL",
"VNL",
"VNL",
"VNL",
"VNL",
"VNL",
"VNL",
"VNL",
"VNL",
"VNL",
"VNL",
"VNL",
"VNL",
"VNL",
"VNL",
"VNL",
"VNL",
"VNL",
"VNL",
"VNL",
"VNL",
"VNL",
"VNL",
"VNL",
"VNL",
"VNL",
"VNL",
"VNL",
"VNL",
"VNL",
"VNL",
"VNL",
"VNL",
"VNL",
"VNL",
"VNL",
"VNL",
"VNL",
"VNL",
"VNL",
"VNL",
"VNL",
"VNL",
"VNL",
"VNL",
"VNL",
"VNL",
"VNL",
"VNL",
"VNL",
"VNL",
"VNL",
"VNL",
"VNL",
"VNL",
"VNL",
"VNL",
"VNL",
"VNL",
"VNL",
"VNL",
"VNL",
"VNL",
"VNL",
"VNL",
"VNL",
"VNL",
"VNL",
"VNL",
"VNL",
"VNL",
"VNL",
"VNL",
"VNL",
"VNL",
"VNL",
"VNL",
"VNL",
"VNL",
"VNL",
"VNL",
"VNL",
"VNL",
"VNL",
"VNL",
"VNL",
"VNL",
"VNL",
"VNL",
"VNL",
"VNL",
"VNL",
"VNL",
"VNL",
"VNL",
"VNL",
"VNL",
"VNL",
"VNL",
"VNL",
"VNL",
"VNL",
"VNL",
"VNL",
"VNL",
"VNL",
"VNL",
"VNL",
"VNL",
"VNL",
"VNL",
"VNL",
"VNL",
"VNL",
"VNL",
"VNL",
"VNL",
"VNL",
"VNL",
"VNL",
"VNL",
"VNL",
"VNL",
"VNL",
"VNL",
"VNL",
"VNL",
"VNL",
"VNL",
"VNL",
"VNL",
"VNL",
"VNL",
"VNL",
"VNL",
"VNL",
"VNL",
"VNL",
"VNL",
"VNL",
"VNL",
"VNL",
"VNL",
"VNL",
"VNL",
"VNL",
"VNL",
"VNL",
"VNL",
"VNL",
"VNL",
"VNL",
"VNL",
"VNL",
"VNL",
"VNL",
"VNL",
"VNL",
"VNL",
"VNL",
"VNL",
"VNL",
"VNL",
"VNL",
"VNL",
"VNL",
"VNL",
"VNL",
"VNL",
"VNL",
"VNL",
"VNL",
"VNL",
"VNL",
"VNL",
"VNL",
"VNL",
"VNL",
"VNL",
"VNL",
"VNL",
"VNL",
"VNL",
"VNL",
"VNL",
"VNL",
"VNL",
"VNL",
"VNL",
"VNL",
"VNL",
"VNL",
"VNL",
"VNL",
"VNL",
"VNL",
"VNL",
"VNL",
"VNL",
"VNL",
"VNL",
"VNL",
"VNL",
"VNL",
"VNL",
"VNL",
"VNL",
"VNL",
"VNL",
"VNL",
"VNL",
"VNL",
"VNL",
"VNL",
"VNL",
"VNL",
"VNL",
"VNL",
"VNL",
"VNL",
"VNL",
"VNL",
"VNL",
"VNL",
"VNL",
"VNL",
"VNL",
"VNL",
"VNL",
"VNL",
"VNL",
"VNL",
"VNL",
"VNL",
"VNL",
"VNL",
"VNL",
"VNL",
"VNL",
"VNL",
"VNL",
"VNL",
"VNL",
"VNL",
"VNL",
"VNL",
"VNL",
"VNL",
"VNL",
"VNL",
"VNL",
"VNL",
"VNL",
"VNL",
"VNL",
"VNL",
"VNL",
"VNL",
"VNL",
"VNL",
"VNL",
"VNL",
"VNL",
"VNL",
"VNL",
"VNL",
"VNL",
"VNL",
"VNL",
"VNL",
"VNL",
"VNL",
"VNL",
"VNL",
"VNL",
"VNL",
"VNL",
"VNL",
"VNL",
"VNL",
"VNL",
"VNL",
"VNL",
"VNL",
"VNL",
"VNL",
"VNL",
"VNL",
"VNL",
"VNL",
"VNL",
"VNL",
"VNL",
"VNL",
"VNL",
"VNL",
"VNL",
"VNL",
"VNL",
"VNL",
"VNL",
"VNL",
"VNL",
"VNL",
"VNL",
"VNL",
"VNL",
"VNL",
"VNL",
"VNL",
"VNL",
"VNL",
"VNL",
"VNL",
"VNL",
"VNL",
"VNL",
"VNL",
"VNL",
"VNL",
"VNL",
"VNL",
"VNL",
"VNL",
"VNL",
"VNL",
"VNL",
"VNL",
"VNL",
"VNL",
"VNL",
"VNL",
"VNL",
"VNL",
"VNL",
"VNL",
"VNL",
"VNL",
"VNL",
"VNL",
"VNL",
"VNL",
"VNL",
"VNL",
"VNL",
"VNL",
"VNL",
"VNL",
"VNL",
"VNL",
"VNL",
"VNL",
"VNL",
"VNL",
"VNL",
"VNL",
"VNL",
"VNL",
"VNL",
"VNL",
"VNL",
"VNL",
"VNL",
"VNL",
"VNL",
"VNL",
"VNL",
"VNL",
"VNL",
"VNL",
"VNL",
"VNL",
"VNL",
"VNL",
"VNL",
"VNL",
"VNL",
"VNL",
"VNL",
"VNL",
"VNL",
"VNL",
"VNL",
"VNL",
"VNL",
"VNL",
"VNL",
"VNL",
"VNL",
"VNL",
"VNL",
"VNL",
"VNL",
"VNL",
"VNL",
"VNL",
"VNL",
"VNL",
"VNL",
"VNL",
"VNL",
"VNL",
"VNL",
"VNL",
"VNL",
"VNL",
"VNL",
"VNL",
"VNL",
"VNL",
"VNL",
"VNL",
"VNL",
"VNL",
"VNL",
"VNL",
"VNL",
"VNL",
"VNL",
"VNL",
"VNL",
"VNL",
"VNL",
"VNL",
"VNL",
"VNL",
"VNL",
"VNL",
"VNL",
"VNL",
"VNL",
"VNL",
"VNL",
"VNL",
"VNL",
"VNL",
"VNL",
"VNL",
"VNL",
"VNL",
"VNL",
"VNL",
"VNL",
"VNL",
"VNL",
"VNL",
"VNL",
"VNL",
"VNL",
"VNL",
"VNL",
"VNL",
"VNL",
"VNL",
"VNL",
"VNL",
"VNL",
"VNL",
"VNL",
"VNL",
"VNL",
"VNL",
"VNL",
"VNL",
"VNL",
"VNL",
"VNL",
"VNL",
"VNL",
"VNL",
"VNL",
"VNL",
"VNL",
"VNL",
"VNL",
"VNL",
"VNL",
"VNL",
"VNL",
"VNL",
"VNL",
"VNL",
"VNL",
"VNL",
"VNL",
"VNL",
"VNL",
"VNL",
"VNL",
"VNL",
"VNL",
"VNL",
"VNL",
"VNL",
"VNL",
"VNL",
"VNL",
"VNL",
"VNL",
"VNL",
"VNL",
"VNL",
"VNL",
"VNL",
"VNL",
"VNL",
"VNL",
"VNL",
"VNL",
"VNL",
"VNL",
"VNL",
"VNL",
"VNL",
"VNL",
"VNL",
"VNL",
"VNL",
"VNL",
"VNL",
"VNL",
"VNL",
"VNL",
"VNL",
"VNL",
"VNL",
"VNL",
"VNL",
"VNL",
"VNL",
"VNL",
"VNL",
"VNL",
"VNL",
"VNL",
"VNL",
"VNL",
"VNL",
"VNL",
"VNL",
"VNL",
"VNL",
"VNL",
"VNL",
"VNL",
"VNL",
"VNL",
"VNL",
"VNL",
"VNL",
"VNL",
"VNL",
"VNL",
"VNL",
"VNL",
"VNL",
"VNL",
"VNL",
"VNL",
"VNL",
"VNL",
"VNL",
"VNL",
"VNL",
"VNL",
"VNL",
"VNL",
"VNL",
"VNL",
"VNL",
"VNL",
"VNL",
"VNL",
"VNL",
"VNL",
"VNL",
"VNL",
"VNL",
"VNL",
"VNL",
"VNL",
"VNL",
"VNL",
"VNL",
"VNL",
"VNL",
"VNL",
"VNL",
"VNL",
"VNL",
"VNL",
"VNL",
"VNL",
"VNL",
"VNL",
"VNL",
"VNL",
"VNL",
"VNL",
"VNL",
"VNL",
"VNL",
"VNL",
"VNL",
"VNL",
"VNL",
"VNL",
"VNL",
"VNL",
"VNL",
"VNL",
"VNL",
"VNL",
"VNL",
"VNL",
"VNL",
"VNL",
"VNL",
"VNL",
"VNL",
"VNL",
"VNL",
"VNL",
"VNL",
"VNL",
"VNL",
"VNL",
"VNL",
"VNL",
"VNL",
"VNL",
"VNL",
"VNL",
"VNL",
"VNL",
"VNL",
"VNL",
"VNL",
"VNL",
"VNL",
"VNL",
"VNL",
"VNL",
"VNL",
"VNL",
"VNL",
"VNL",
"VNL",
"VNL",
"VNL",
"VNL",
"VNL",
"VNL",
"VNL",
"VNL",
"VNL",
"VNL",
"VNL",
"VNL",
"VNL",
"VNL",
"VNL",
"VNL",
"VNL",
"VNL",
"VNL",
"VNL",
"VNL",
"VNL",
"VNL",
"VNL",
"VNL",
"VNL",
"VNL",
"VNL",
"VNL",
"VNL",
"VNL",
"VNL",
"VNL",
"VNL",
"VNL",
"VNL",
"VNL",
"VNL",
"VNL",
"VNL",
"VNL",
"VNL",
"VNL",
"VNL",
"VNL",
"VNL",
"VNL",
"VNL",
"VNL",
"VNL",
"VNL",
"VNL",
"VNL",
"VNL",
"VNL",
"VNL",
"VNL",
"VNL",
"VNL",
"VNL",
"VNL",
"VNL",
"VNL",
"VNL",
"VNL",
"VNL",
"VNL",
"VNL",
"VNL",
"VNL",
"VNL",
"VNL",
"VNL",
"VNL",
"VNL",
"VNL",
"VNL",
"VNL",
"VNL",
"VNL",
"VNL",
"VNL",
"VNL",
"VNL",
"VNL",
"VNL",
"VNL",
"VNL",
"VNL",
"VNL",
"VNL",
"VNL",
"VNL",
"VNL",
"VNL",
"VNL",
"VNL",
"VNL",
"VNL",
"VNL",
"VNL",
"VNL",
"VNL",
"VNL",
"VNL",
"VNL",
"VNL",
"VNL",
"VNL",
"VNL",
"VNL",
"VNL",
"VNL",
"VNL",
"VNL",
"VNL",
"VNL",
"VNL",
"VNL",
"VNL",
"VNL",
"VNL",
"VNL",
"VNL",
"VNL",
"VNL",
"VNL",
"VNL",
"VNL",
"VNL",
"VNL",
"VNL",
"VNL",
"VNL",
"VNL",
"VNL",
"VNL",
"VNL",
"VNL",
"VNL",
"VNL",
"VNL",
"VNL",
"VNL",
"VNL",
"VNL",
"VNL",
"VNL",
"VNL",
"VNL",
"VNL",
"VNL",
"VNL",
"VNL",
"VNL",
"VNL",
"VNL",
"VNL",
"VNL",
"VNL",
"VNL",
"VNL",
"VNL",
"VNL",
"VNL",
"VNL",
"VNL",
"VNL",
"VNL",
"VNL",
"VNL",
"VNL",
"VNL",
"VNL",
"VNL",
"VNL",
"VNL",
"VNL",
"VNL",
"VNL",
"VNL",
"VNL",
"VNL",
"VNL",
"VNL",
"VNL",
"VNL",
"VNL",
"VNL",
"VNL",
"VNL",
"VNL",
"VNL",
"VNL",
"VNL",
"VNL",
"VNL",
"VNL",
"VNL",
"VNL",
"VNL",
"VNL",
"VNL",
"VNL",
"VNL",
"VNL",
"VNL",
"VNL",
"VNL",
"VNL",
"VNL",
"VNL",
"VNL",
"VNL",
"VNL",
"VNL",
"Volare",
"Volare",
"Vua dép lốp",
"Vua dép lốp",
"Vua dép lốp",
"Westman",
"Westman",
"Westman",
"Westman",
"Westman",
"Westman",
"Westman",
"Westman",
"Westman",
"Westman",
"Westman",
"Westman",
"Westman",
"Winwinshop88",
"Winwinshop88",
"Winwinshop88",
"Winwinshop88",
"Winwinshop88",
"Winwinshop88",
"Winwinshop88",
"Woly",
"Woly",
"Woly",
"Woly",
"Woly",
"Woly",
"xinh store",
"Xiaomi",
"Xiaomi",
"Zani",
"ROZALO",
"Zani",
"Zani",
"Zani",
"Zani",
"Zani",
"Zani",
"Zani",
"Zani",
"Zani",
"Zalman",
"Zapas",
"Zapas",
"Zapas",
"Zapas",
"Zapas",
"Zapas",
"Zapas",
"Zapas",
"Zapas",
"Zapas",
"Zapas",
"Zapas",
"Zapas",
"Zapas",
"Zapas",
"Zapas",
"Zapas",
"Zapas",
"Zapas",
"Zapas",
"Zapas",
"Zapas",
"Zapas",
"Zapas",
"Zapas",
"Zapas",
"Zapas",
"Zapas",
"Zapas",
"Zapas",
"Zapas",
"Zapas",
"Zapas",
"Zapas",
"Zapas",
"Zapas",
"Zapas",
"Zapas",
"Zapas",
"Zapas",
"Zapas",
"Zapas",
"Zapas",
"Zapas",
"Zapas",
"Zapas",
"Zapas",
"Zapas",
"Zapas",
"Zapas",
"Zapas",
"Zapas",
"Zapas",
"Zapas",
"Zapas",
"Zapas",
"Zapas",
"Zapas",
"Zapas",
"Zapas",
"Zapas",
"Zapas",
"Zapas",
"Zapas",
"Zapas",
"Zapas",
"Zapas",
"Zapas",
"Zapas",
"Zapas",
"Zapas",
"Zapas",
"Zapas",
"Zapas",
"Zapas",
"Zapas",
"Zapas",
"Zapas",
"Zapas",
"Zapas",
"Zapas",
"Zapas",
"Zapas",
"Zapas",
"Zapas",
"Zapas",
"Zapas",
"Zapas",
"Zapas",
"Zapas",
"Zapas",
"Zapas",
"Zapas",
"Zapas",
"Zapas",
"Zapas",
"Zapas",
"Zapas",
"Zapas",
"Zapas",
"Zapas",
"Zapas",
"Zapas",
"Zapas",
"Zapas",
"Zapas",
"Zapas",
"Zapas",
"Zapas",
"Zapas",
"Zapas",
"Zapas",
"Zapas",
"Zapas",
"Zapas",
"Zapas",
"Zapas",
"Zapas",
"Zapas",
"Zapas",
"Zapas",
"Zapas",
"Zapas",
"Zapas",
"Zapas",
"Zapas",
"Zapas",
"Zapas",
"Zapas",
"Zapas",
"Zapas",
"Zapas",
"Zapas",
"Zapas",
"Zapas",
"Zapas",
"Zapas",
"Zapas",
"Zapas",
"Zapas",
"Zapas",
"Zapas",
"Zapas",
"Zapas",
"Zapas",
"Zapas",
"Zapas",
"Zapas",
"Zapas",
"Zapas",
"Zapas",
"Zapas",
"Zapas",
"Zapas",
"Zapas",
"Zapas",
"Zapas",
"Zapas",
"Zapas",
"Zapas",
"Zapas",
"Zapas",
"Zapas",
"Zapas",
"Zapas",
"Zapas",
"Zapas",
"Zapas",
"Zapas",
"Zapas",
"Zapas",
"Zapas",
"Zapas",
"Zapas",
"Zapas",
"Zapas",
"Zapas",
"Zapas",
"Zapas",
"Zapas",
"Zapas",
"Zapas",
"Zapas",
"Zapas",
"Zapas",
"Zapas",
"Zapas",
"Zapas",
"Zapas",
"Zapas",
"Zapas",
"Zapas",
"Zapas",
"Zapas",
"Zapas",
"Zapas",
"Zapas",
"Zapas",
"Zapas",
"Zapas",
"Zapas",
"Zapas",
"Zapas",
"Zapas",
"Zapas",
"Zapas",
"Zapas",
"Zapas",
"Zabo",
"ZAZA",
"ZAZA",
"ZAZA",
"ZAZA",
"ZAZA",
"ZAZA",
"ZAZA",
"ZAZA",
"ZAZA",
"ZAZA",
"ZAZA",
"ZAZA",
"ZAZA",
"ZAZA",
"ZAZA",
"ZAZA",
"ZAZA",
"ZAZA",
"ZAZA",
"ZAZA",
"ZAZA",
"ZAZA",
"ZAZA",
"ZAZA",
"ZAZA",
"ZAZA",
"ZAZA",
"ZAZA",
"ZAZA",
"ZAZA",
"ZAZA",
"ZAZA",
"ZAZA",
"ZAZA",
"ZAZA",
"ZAZA",
"ZAZA",
"ZAZA",
"ZAZA",
"ZAZA",
"ZAZA",
"ZAZA",
"ZAZA",
"ZAZA",
"ZAZA",
"ZAZA",
"ZAZA",
"ZAZA",
"ZAZA",
"ZAZA",
"ZAZA",
"ZAZA",
"ZAZA",
"ZAZA",
"ZAZA",
"ZAZA",
"ZAZA",
"ZAZA",
"ZAZA",
"ZAZA",
"Zara",
"Zara",
"Zara",
"Zara",
"Zara",
"Zara",
"Zara",
"Zara",
"Zara",
"Zara",
"Zara",
"Zara",
"Zara",
"Zara",
"Zara",
"Zara",
"Zara",
"Zara",
"Zara",
"Zara",
"Zanzea",
"Zanzea"]