["188100",
"188100",
"179100",
"188100",
"188100",
"188100",
"179100",
"188100",
"188100",
"179100",
"179100",
"188100",
"188100",
"188100",
"188100",
"179100",
"188100",
"179100",
"188100",
"179100",
"179100",
"188100",
"179100",
"188100",
"188100",
"188100",
"188100",
"188100",
"188100",
"188100",
"188100",
"188100",
"188100",
"188100",
"188100",
"179100",
"179100",
"188100",
"188100",
"188100",
"188100",
"188100",
"180000",
"120000",
"180000",
"180000",
"175000",
"165000",
"62000",
"175000",
"180000",
"175000",
"180000",
"180000",
"170000",
"185000",
"180000",
"180000",
"175000",
"180000",
"105000",
"165000",
"100000",
"100000",
"180000",
"175000",
"105000",
"190000",
"100000",
"95000",
"95000",
"55000",
"185000",
"55000",
"195000",
"120000",
"180000",
"60000",
"59000",
"60000",
"175000",
"132000",
"90000",
"90000",
"200000",
"64000",
"64000",
"125000",
"105000",
"55000",
"190000",
"64000",
"130000",
"125000",
"125000",
"195000",
"195000",
"125000",
"195000",
"175000",
"175000",
"130000",
"175000",
"175000",
"175000",
"175000",
"175000",
"175000",
"175000",
"205000",
"215000",
"160000",
"180000",
"180000",
"180000",
"195000",
"175000",
"175000",
"180000",
"105000",
"110000",
"180000",
"180000",
"60000",
"63000",
"200000",
"55000",
"165000",
"110000",
"170000",
"55000",
"175000",
"62000",
"175000",
"99000",
"299000",
"539000",
"129000",
"129000",
"104000",
"101000",
"126000",
"100000",
"157000",
"407000",
"157000",
"405000",
"157000",
"411000",
"415000",
"420000",
"289000",
"900000",
"900000",
"900000",
"750000",
"1700000",
"1000000",
"1700000",
"900000",
"850000",
"850000",
"800000",
"850000",
"800000",
"750000",
"800000",
"800000",
"750000",
"950000",
"800000",
"900000",
"800000",
"850000",
"950000",
"900000",
"800000",
"1250000",
"1250000",
"1450000",
"1450000",
"700000",
"850000",
"750000",
"700000",
"900000",
"750000",
"750000",
"900000",
"800000",
"800000",
"850000",
"850000",
"800000",
"850000",
"950000",
"113050",
"77350",
"79900",
"87550",
"187850",
"77350",
"68000",
"87550",
"193800",
"87550",
"292400",
"113050",
"98600",
"77350",
"87550",
"77350",
"299200",
"295800",
"142935",
"110875",
"110429",
"122452",
"116441",
"122452",
"122452",
"138482",
"359000",
"359000",
"469000",
"297000",
"297000",
"234000",
"234000",
"234000",
"1469000",
"1249000",
"1379000",
"1379000",
"1249000",
"1589000",
"1379000",
"1589000",
"1649000",
"1649000",
"1249000",
"1379000",
"1649000",
"1229000",
"1249000",
"1289000",
"1229000",
"1589000",
"1619000",
"839000",
"1229000",
"969000",
"1359000",
"1359000",
"1629000",
"909000",
"749000",
"889000",
"969000",
"1329000",
"949000",
"949000",
"429000",
"119900",
"210600",
"194400",
"194400",
"194400",
"194400",
"194400",
"194400",
"194400",
"194400",
"248400",
"248400",
"194400",
"194400",
"248400",
"248400",
"194400",
"194400",
"431100",
"449100",
"224100",
"215100",
"750000",
"750000",
"750000",
"750000",
"750000",
"750000",
"700000",
"800000",
"800000",
"750000",
"800000",
"750000",
"750000",
"700000",
"700000",
"750000",
"800000",
"800000",
"800000",
"750000",
"750000",
"750000",
"800000",
"750000",
"750000",
"700000",
"750000",
"264806",
"288014",
"192648",
"205745",
"187833",
"275370",
"565250",
"565250",
"206100",
"206100",
"206100",
"206100",
"275000",
"134100",
"134100",
"134100",
"134100",
"134100",
"152100",
"224100",
"179000",
"189000",
"95000",
"95000",
"95000",
"99000",
"95000",
"95000",
"95000",
"1225500",
"230000",
"200000",
"185000",
"150000",
"166500",
"193500",
"166500",
"237500",
"230000",
"231000",
"146000",
"150000",
"146000",
"71000",
"57000",
"158000",
"86000",
"86000",
"116000",
"119000",
"116000",
"169000",
"70000",
"64000",
"118000",
"70000",
"70000",
"447000",
"118000",
"201000",
"73000",
"201000",
"73000",
"73000",
"73000",
"190000",
"121000",
"73000",
"192000",
"121000",
"121000",
"253000",
"67000",
"99990",
"119900",
"89990",
"158000",
"188000",
"158000",
"158000",
"109990",
"119900",
"119900",
"119900",
"142500",
"119900",
"142500",
"169999",
"169999",
"169999",
"169999",
"169999",
"179000",
"289000",
"359000",
"209000",
"209000",
"209000",
"277000",
"277000",
"310000",
"340000",
"147975",
"147975",
"147975",
"147975",
"137730",
"147975",
"146374",
"142511",
"138648",
"269000",
"120000",
"99000",
"119000",
"158683",
"158683",
"158683",
"158683",
"158683",
"158683",
"162000",
"179100",
"162000",
"197100",
"197100",
"197100",
"233100",
"197100",
"197100",
"197100",
"260100",
"260100",
"260100",
"630000",
"630000",
"630000",
"765000",
"712500",
"60000",
"71000",
"138648",
"169000",
"198000",
"185250",
"185250",
"379000"]